{
  "activeViewId" : "903249f0-059a-4d48-95ff-42afcd4342f5",
  "appPageId" : "7f298501-0bcb-49cf-9fb2-48395fb98f07",
  "configurationTags" : [ ],
  "devName" : "Dashboard_Related_List",
  "id" : "1e25aec0-b1c9-4789-954b-8b3b6cf49d47",
  "label" : "Dashboard Related List",
  "routeType" : "relatedlist-01Z",
  "type" : "route",
  "urlPrefix" : "dashboard"
}