{
  "activeViewId" : "86940c32-5e60-4cb2-8dad-4a438127505a",
  "appPageId" : "7f298501-0bcb-49cf-9fb2-48395fb98f07",
  "configurationTags" : [ ],
  "devName" : "Dashboard_Detail",
  "id" : "2215aafa-6cd8-4819-a47d-3228e6043b61",
  "label" : "Dashboard Detail",
  "routeType" : "detail-01Z",
  "type" : "route",
  "urlPrefix" : "dashboard"
}