{
  "activeViewId" : "fdad7ab2-2511-4605-802d-b9e6674cc6bf",
  "appPageId" : "7f298501-0bcb-49cf-9fb2-48395fb98f07",
  "configurationTags" : [ ],
  "devName" : "Group_Related_List",
  "id" : "a50c3268-8caa-4104-ad31-49a6edc80ef4",
  "label" : "Group Related List",
  "routeType" : "relatedlist-0F9",
  "type" : "route",
  "urlPrefix" : "group"
}