{
  "activeViewId" : "4c860230-cfbd-42ab-9b42-5d20a5d23309",
  "appPageId" : "7f298501-0bcb-49cf-9fb2-48395fb98f07",
  "configurationTags" : [ ],
  "devName" : "Home",
  "id" : "10b565ca-fb11-4af2-abb8-dd8ddd8988be",
  "label" : "Home",
  "pageAccess" : "UseParent",
  "routeType" : "home",
  "type" : "route",
  "urlPrefix" : ""
}