{
  "activeViewId" : "bb18359b-d3de-4172-baa3-b168efbb6aae",
  "appPageId" : "bb30abe1-d2e8-4c25-b960-ad1b1b83f7d5",
  "configurationTags" : [ ],
  "devName" : "Login_Error",
  "id" : "b3e9ab25-bdcf-4a75-ab2d-496d815e3968",
  "label" : "Login Error",
  "routeType" : "login-error",
  "type" : "route",
  "urlPrefix" : "error"
}