{
  "activeViewId" : "6d5426ae-b055-4c84-b710-ca9e7733c2db",
  "appPageId" : "7f298501-0bcb-49cf-9fb2-48395fb98f07",
  "configurationTags" : [ ],
  "devName" : "User_List",
  "id" : "c284c496-2913-4cc3-b2c1-0b7f77e0ad7d",
  "label" : "User List",
  "routeType" : "list-005",
  "type" : "route",
  "urlPrefix" : "profile"
}