{
  "activeViewId" : "1cd21eed-dab1-499c-9f81-1c1c8de04dcd",
  "appPageId" : "484e374f-a2dc-4341-b436-4fe8fed9ea1e",
  "configurationTags" : [ ],
  "devName" : "Contact_us__c",
  "id" : "79dba58a-07c5-4a3a-bacb-4d9878d6efb8",
  "label" : "Contact us",
  "pageAccess" : "UseParent",
  "routeType" : "custom-contact-us",
  "type" : "route",
  "urlPrefix" : "contact-us"
}