{
  "activeViewId" : "3843867a-45ed-4226-8bd4-b91f6575955f",
  "appPageId" : "484e374f-a2dc-4341-b436-4fe8fed9ea1e",
  "configurationTags" : [ ],
  "devName" : "Create_Record",
  "id" : "72f1b106-0da4-467e-bece-a0c28b16eec3",
  "label" : "Create Record",
  "routeType" : "createrecord",
  "type" : "route",
  "urlPrefix" : "createrecord"
}