{
  "activeViewId" : "976f08a9-64f0-463a-81d5-848fb69fbcd9",
  "appPageId" : "b1a07a5e-83d0-455a-be2d-fe43b4ea23a1",
  "configurationTags" : [ ],
  "devName" : "Forgot_Password",
  "id" : "b59e208a-5064-4e70-9864-f85abf5020fd",
  "label" : "Forgot Password",
  "routeType" : "forgot-password",
  "type" : "route",
  "urlPrefix" : "ForgotPassword"
}