{
  "activeViewId" : "97c308de-1012-40a4-86fe-b854ee1eeb09",
  "appPageId" : "b1a07a5e-83d0-455a-be2d-fe43b4ea23a1",
  "configurationTags" : [ ],
  "devName" : "Login_Error",
  "id" : "ff1ac2ae-8237-4d23-9924-f1914f9f9954",
  "label" : "Login Error",
  "routeType" : "login-error",
  "type" : "route",
  "urlPrefix" : "error"
}