{
  "type" : "sfdc_cms__view",
  "title" : "Check Password",
  "contentBody" : {
    "component" : {
      "children" : [ {
        "children" : [ {
          "attributes" : {
            "backgroundImageConfig" : "",
            "backgroundImageOverlay" : "rgba(0,0,0,0)",
            "dxpStyle" : { },
            "sectionConfig" : "{\"UUID\":\"b226eec4-50a9-4598-a099-db8312e76e86\",\"columns\":[{\"UUID\":\"6c1c4fa3-97af-44aa-a155-f762d6e1c0e5\",\"columnName\":\"Column 1\",\"columnKey\":\"col1\",\"columnWidth\":\"12\",\"seedComponents\":null}]}"
          },
          "children" : [ {
            "children" : [ {
              "attributes" : {
                "alignment" : "left",
                "dxpStyle" : { },
                "imageInfo" : "",
                "logoWidth" : 250
              },
              "definition" : "dxp_content_layout:siteLogo",
              "id" : "5a5bb394-ff93-4cce-8252-f25b23e8b4b8",
              "type" : "component"
            }, {
              "attributes" : {
                "checkEmailMessage" : "Check the email account associated with your username for the link to reset your password. If you didn't get an email, check your Spam folder. Or contact your administrator.",
                "dxpStyle" : { },
                "returnButtonLabel" : "Back to login",
                "titleLabel" : "Now check your email"
              },
              "definition" : "community_login:checkEmail",
              "id" : "68a4fe8c-175d-49ba-a72e-9e7b0867a75b",
              "type" : "component"
            } ],
            "id" : "6c1c4fa3-97af-44aa-a155-f762d6e1c0e5",
            "name" : "col1",
            "title" : "Column 1",
            "type" : "region"
          } ],
          "definition" : "community_layout:section",
          "id" : "b226eec4-50a9-4598-a099-db8312e76e86",
          "type" : "component"
        } ],
        "id" : "c16069a0-48cb-4498-9be9-15ea34df30cb",
        "name" : "content",
        "title" : "Content",
        "type" : "region"
      }, {
        "children" : [ {
          "attributes" : {
            "customHeadTags" : "",
            "description" : "",
            "dxpStyle" : { },
            "pageTitle" : "Check Password",
            "recordId" : "{!recordId}"
          },
          "definition" : "community_builder:seoAssistant",
          "id" : "9e398eb8-e0fc-4631-930a-3fddef1f98ce",
          "type" : "component"
        } ],
        "id" : "ed1a8af1-f751-46b7-a402-8d3444066f02",
        "name" : "sfdcHiddenRegion",
        "title" : "sfdcHiddenRegion",
        "type" : "region"
      } ],
      "definition" : "community_layout:sldsFlexibleLayout",
      "id" : "e9c57db0-76f8-4ea1-99e4-4f0942db6213",
      "type" : "component"
    },
    "dataProviders" : [ ],
    "themeLayoutType" : "External",
    "viewType" : "check-password"
  },
  "urlName" : "check-password"
}