{
  "activeViewId" : "bfa98829-fd21-4e3b-a5ce-fbadc55a15fa",
  "appPageId" : "326b036c-6d34-4135-bc1a-94e9c2e7aa91",
  "configurationTags" : [ ],
  "devName" : "Account_List__c",
  "id" : "45e2cb4f-3996-4ca0-bd39-a70fd870d7e8",
  "label" : "Account List",
  "routeType" : "list-001",
  "type" : "route",
  "urlPrefix" : "account"
}