{
  "activeViewId" : "0cd1c971-e6ab-4ea7-b6a0-8dd74df06666",
  "appPageId" : "326b036c-6d34-4135-bc1a-94e9c2e7aa91",
  "configurationTags" : [ ],
  "devName" : "Asset_List__c",
  "id" : "14963a9c-b148-46f4-a985-1961f87607c6",
  "label" : "Asset List",
  "routeType" : "list-02i",
  "type" : "route",
  "urlPrefix" : "asset"
}