{
  "activeViewId" : "7c7ea333-8651-467a-b743-d62927db4efe",
  "appPageId" : "326b036c-6d34-4135-bc1a-94e9c2e7aa91",
  "configurationTags" : [ ],
  "devName" : "Asset_Related_List__c",
  "id" : "359bb827-b1cc-4c87-814b-b2babdce5225",
  "label" : "Asset Related List",
  "routeType" : "relatedlist-02i",
  "type" : "route",
  "urlPrefix" : "asset"
}