{
  "activeViewId" : "d9b08763-7f56-4166-9750-8a03ec6b0cd2",
  "appPageId" : "326b036c-6d34-4135-bc1a-94e9c2e7aa91",
  "configurationTags" : [ ],
  "devName" : "Contact_Detail__c",
  "id" : "4f07f8e1-0677-4d9f-a246-94304a993c1b",
  "label" : "Contact Detail",
  "routeType" : "detail-003",
  "type" : "route",
  "urlPrefix" : "contact"
}