{
  "activeViewId" : "88c75495-ce98-4efa-92fa-106b7514ff53",
  "appPageId" : "326b036c-6d34-4135-bc1a-94e9c2e7aa91",
  "configurationTags" : [ ],
  "devName" : "Dashboard_Related_List",
  "id" : "26ec455e-3746-40e6-baec-3e4ab73c9f15",
  "label" : "Dashboard Related List",
  "routeType" : "relatedlist-01Z",
  "type" : "route",
  "urlPrefix" : "dashboard"
}