{
  "activeViewId" : "5d162114-48cf-4979-8f9e-c76b0f363bc5",
  "appPageId" : "326b036c-6d34-4135-bc1a-94e9c2e7aa91",
  "configurationTags" : [ ],
  "devName" : "Dashboard_List",
  "id" : "04605bdc-9da7-4242-a8c6-e2cd7dbb099a",
  "label" : "Dashboard List",
  "routeType" : "list-01Z",
  "type" : "route",
  "urlPrefix" : "dashboard"
}