{
  "activeViewId" : "fe67e24c-42d3-4b65-a476-27267dd62ef3",
  "appPageId" : "326b036c-6d34-4135-bc1a-94e9c2e7aa91",
  "configurationTags" : [ ],
  "devName" : "Error",
  "id" : "486ea815-1b5b-4573-bc64-29519a44fdc4",
  "label" : "Error",
  "pageAccess" : "UseParent",
  "routeType" : "error",
  "type" : "route",
  "urlPrefix" : "error"
}