{
  "activeViewId" : "16d93a91-ea9b-45c0-a22c-263335531dc6",
  "appPageId" : "326b036c-6d34-4135-bc1a-94e9c2e7aa91",
  "configurationTags" : [ ],
  "devName" : "Feed_Detail",
  "id" : "49f11a3f-7b1d-4612-ab46-85eb18c97470",
  "label" : "Feed Detail",
  "routeType" : "feeditem-generic",
  "type" : "route",
  "urlPrefix" : "feed"
}