{
  "activeViewId" : "89078e7a-3755-4fb0-a472-243307c37c02",
  "appPageId" : "326b036c-6d34-4135-bc1a-94e9c2e7aa91",
  "configurationTags" : [ ],
  "devName" : "Flow",
  "id" : "08a3fd12-2b19-40c8-bf85-e5d76c72c269",
  "label" : "Flow",
  "pageAccess" : "UseParent",
  "routeType" : "flow",
  "type" : "route",
  "urlPrefix" : "flow"
}