{
  "activeViewId" : "70af70d5-6361-451c-a50f-b30835f9a16c",
  "appPageId" : "326b036c-6d34-4135-bc1a-94e9c2e7aa91",
  "configurationTags" : [ ],
  "devName" : "Messages",
  "id" : "5a49de95-2c4a-45f2-81d8-e2541464988a",
  "label" : "Messages",
  "routeType" : "messages",
  "type" : "route",
  "urlPrefix" : "messages"
}