{
  "activeViewId" : "39940589-8610-4af7-93c4-4cf95a7df8fe",
  "appPageId" : "326b036c-6d34-4135-bc1a-94e9c2e7aa91",
  "configurationTags" : [ ],
  "devName" : "Oracle_Quote_Detail__c",
  "id" : "96ff0dfd-24ee-4fae-85a2-7c8d770931ed",
  "label" : "Oracle Quote Detail",
  "objectApiName" : "cafsl__Oracle_Quote__c",
  "routeType" : "detail-aCM",
  "type" : "route",
  "urlPrefix" : "oracle-quote"
}