{
  "activeViewId" : "1f23f093-f6ac-4785-9b7e-055f5ea2e7ca",
  "appPageId" : "326b036c-6d34-4135-bc1a-94e9c2e7aa91",
  "configurationTags" : [ ],
  "devName" : "Quote_Creator__c",
  "id" : "55e419ee-d1b0-481d-a846-56a07f0ffa30",
  "label" : "Quote Creator",
  "pageAccess" : "UseParent",
  "routeType" : "custom-quotecreator",
  "type" : "route",
  "urlPrefix" : "quotecreator"
}