{
  "activeViewId" : "59ae25f9-2622-45ce-82b4-bebefa03a580",
  "appPageId" : "326b036c-6d34-4135-bc1a-94e9c2e7aa91",
  "configurationTags" : [ ],
  "devName" : "Report_Related_List",
  "id" : "94473c1a-e822-4906-8c89-a5956c03ec80",
  "label" : "Report Related List",
  "routeType" : "relatedlist-00O",
  "type" : "route",
  "urlPrefix" : "report"
}