{
  "activeViewId" : "a0bd5ebe-fdf7-44b5-8d98-7546f7077f70",
  "appPageId" : "326b036c-6d34-4135-bc1a-94e9c2e7aa91",
  "configurationTags" : [ ],
  "devName" : "Top_Articles",
  "id" : "7a33e18f-ad5c-48df-bb08-ce9bc7a11750",
  "label" : "Top Articles",
  "pageAccess" : "UseParent",
  "routeType" : "top-articles",
  "type" : "route",
  "urlPrefix" : "toparticles"
}