{
  "activeViewId" : "16f5a025-4d87-4122-be2f-b6cade1d5bbb",
  "appPageId" : "326b036c-6d34-4135-bc1a-94e9c2e7aa91",
  "configurationTags" : [ ],
  "devName" : "User_Profile",
  "id" : "1be64cf5-2e78-47d8-8197-28b118e923dc",
  "label" : "User Profile",
  "routeType" : "detail-005",
  "type" : "route",
  "urlPrefix" : "profile"
}