{
  "activeViewId" : "2d0b01c9-3d1f-4a8a-86fd-9343f6dabe44",
  "appPageId" : "5b0560c2-c145-4b79-8776-427fd0deba06",
  "configurationTags" : [ ],
  "devName" : "Article_Detail",
  "id" : "c0a405b7-b6e9-445e-accb-437fe0d03e1d",
  "label" : "Article Detail",
  "routeType" : "article",
  "type" : "route",
  "urlPrefix" : "article"
}