{
  "activeViewId" : "f97244f7-b19d-4328-9661-c0c94e5210b6",
  "appPageId" : "5b0560c2-c145-4b79-8776-427fd0deba06",
  "configurationTags" : [ ],
  "devName" : "Create_Record",
  "id" : "c7a410dc-574f-4caf-a317-3b0be5d4aa9f",
  "label" : "Create Record",
  "routeType" : "createrecord",
  "type" : "route",
  "urlPrefix" : "createrecord"
}