{
  "activeViewId" : "c41d5db6-d369-41d4-a41c-8b95fb8f61a0",
  "appPageId" : "233ca4e6-aa21-4048-a76c-ec35f246c2a8",
  "configurationTags" : [ ],
  "devName" : "Register",
  "id" : "898800cc-3b63-41da-8b38-36267c3ada93",
  "label" : "Register",
  "routeType" : "self-register",
  "type" : "route",
  "urlPrefix" : "SelfRegister"
}