{
  "appPageId" : "01c7ab68-42c4-4b16-8de7-a3911b2ed987",
  "componentName" : "siteforce:sldsOneColLayout",
  "dataProviders" : [ ],
  "id" : "9d5d3d4e-6e12-4517-a344-4617dcfe1cc7",
  "label" : "Dashboard Detail",
  "regions" : [ {
    "id" : "f8b5bd20-776b-4df8-899c-0eb1e387f9a7",
    "regionName" : "header",
    "type" : "region"
  }, {
    "components" : [ {
      "componentAttributes" : {
        "height" : "1065",
        "recordId" : "{!recordId}"
      },
      "componentName" : "forceCommunity:dashboard",
      "id" : "6b3f50b9-b2c6-42fb-bd3a-d2a880e05e1b",
      "renderPriority" : "NEUTRAL",
      "renditionMap" : { },
      "type" : "component"
    } ],
    "id" : "0a08e21c-2def-4eff-a3b0-d4e9dedef19f",
    "regionName" : "content",
    "type" : "region"
  }, {
    "id" : "0d629eeb-a139-4bbd-874b-1780347ef6c2",
    "regionName" : "footer",
    "type" : "region"
  }, {
    "components" : [ {
      "componentAttributes" : {
        "customHeadTags" : "",
        "description" : "",
        "title" : "{!Record._Object}: {!Record._Title}"
      },
      "componentName" : "forceCommunity:seoAssistant",
      "id" : "1aa7f7ff-1e3e-46a2-9931-10a025d4cd73",
      "renditionMap" : { },
      "type" : "component"
    } ],
    "id" : "999df4cc-76bf-4a03-9403-888d8c99e360",
    "regionName" : "sfdcHiddenRegion",
    "type" : "region"
  } ],
  "themeLayoutType" : "Inner",
  "type" : "view",
  "viewType" : "detail-01Z"
}