{
  "appPageId" : "01c7ab68-42c4-4b16-8de7-a3911b2ed987",
  "componentName" : "siteforce:sldsOneColLayout",
  "dataProviders" : [ ],
  "id" : "6562e563-6fff-42cc-8685-fff28e97ee70",
  "label" : "Error",
  "regions" : [ {
    "id" : "61f4c959-3b8f-4fba-880c-0286f4c98a3c",
    "regionName" : "header",
    "type" : "region"
  }, {
    "components" : [ {
      "componentAttributes" : {
        "richTextValue" : "<p style=\"text-align: center;\">Invalid Page</p>"
      },
      "componentName" : "forceCommunity:richTextInline",
      "id" : "3edba821-d644-4f5d-84b1-d52f5b91cdbf",
      "renderPriority" : "NEUTRAL",
      "renditionMap" : { },
      "type" : "component"
    } ],
    "id" : "f1fab4c8-6e15-4521-8d79-c272cc3705fe",
    "regionName" : "content",
    "type" : "region"
  }, {
    "id" : "740712f8-3c8d-4a54-9cef-8b3b0a946d28",
    "regionName" : "footer",
    "type" : "region"
  }, {
    "components" : [ {
      "componentAttributes" : {
        "customHeadTags" : "",
        "description" : "",
        "title" : "Error"
      },
      "componentName" : "forceCommunity:seoAssistant",
      "id" : "dae99a00-8d75-4810-b37f-8f77ff930311",
      "renditionMap" : { },
      "type" : "component"
    } ],
    "id" : "05db1c39-ec99-4757-88e4-8ac2bc662d01",
    "regionName" : "sfdcHiddenRegion",
    "type" : "region"
  } ],
  "themeLayoutType" : "Inner",
  "type" : "view",
  "viewType" : "error"
}