{
  "appPageId" : "01c7ab68-42c4-4b16-8de7-a3911b2ed987",
  "componentName" : "siteforce:sldsOneColLayout",
  "dataProviders" : [ ],
  "id" : "86793a45-330c-476e-8296-b795c8a3a9af",
  "label" : "File List",
  "regions" : [ {
    "id" : "497b13f5-0c78-4c60-897e-90e5e9144321",
    "regionName" : "header",
    "type" : "region"
  }, {
    "components" : [ {
      "componentAttributes" : {
        "pageSize" : 25
      },
      "componentName" : "forceCommunity:filesList",
      "id" : "73ea5b4b-7ef7-43ca-9335-f282e5480380",
      "renderPriority" : "NEUTRAL",
      "renditionMap" : { },
      "type" : "component"
    } ],
    "id" : "e3c9d458-4bf0-47dd-8121-4a496f8c7f48",
    "regionName" : "content",
    "type" : "region"
  }, {
    "id" : "11e468c3-551f-4652-b88c-0b228c449f5b",
    "regionName" : "footer",
    "type" : "region"
  } ],
  "themeLayoutType" : "Inner",
  "type" : "view",
  "viewType" : "list-069"
}