{
  "appPageId" : "01c7ab68-42c4-4b16-8de7-a3911b2ed987",
  "componentName" : "siteforce:sldsOneColLayout",
  "dataProviders" : [ ],
  "id" : "e7cb9cc3-51e0-4b57-912e-55f47747c9bb",
  "label" : "News Detail",
  "regions" : [ {
    "id" : "28518037-c288-41df-94bd-b66341c876ef",
    "regionName" : "header",
    "type" : "region"
  }, {
    "components" : [ {
      "componentAttributes" : {
        "config" : {
          "layoutDefinition" : {
            "componentName" : "forceCommunity:detailImageFirstLayout"
          }
        }
      },
      "componentName" : "forceCommunity:managedContentDetail",
      "id" : "65c9393e-08c4-47ae-86a7-bf7b1474662a",
      "renderPriority" : "NEUTRAL",
      "renditionMap" : { },
      "type" : "component"
    } ],
    "id" : "f73f272f-d480-4220-b9f1-49047fc659b2",
    "regionName" : "content",
    "type" : "region"
  }, {
    "id" : "755e6700-d179-4e51-909a-f6150b7ce5fc",
    "regionName" : "footer",
    "type" : "region"
  }, {
    "components" : [ {
      "componentAttributes" : {
        "customHeadTags" : "",
        "description" : "",
        "title" : ""
      },
      "componentName" : "forceCommunity:seoAssistant",
      "id" : "72850f56-9385-42c2-a157-0275163f0521",
      "renditionMap" : { },
      "type" : "component"
    } ],
    "id" : "a37e662d-a902-4ea2-b3e3-196f1a4e3672",
    "regionName" : "sfdcHiddenRegion",
    "type" : "region"
  } ],
  "themeLayoutType" : "Inner",
  "type" : "view",
  "viewType" : "managed-content-news"
}