{
  "appPageId" : "01c7ab68-42c4-4b16-8de7-a3911b2ed987",
  "componentName" : "siteforce:sldsOneColLayout",
  "dataProviders" : [ ],
  "id" : "87897acd-c3b6-4b64-9cda-4c47a53ababf",
  "label" : "Quip Docs Related List",
  "regions" : [ {
    "id" : "1bcbf098-1819-4e70-aa36-4f7e425e0db8",
    "regionName" : "header",
    "type" : "region"
  }, {
    "components" : [ {
      "componentAttributes" : {
        "parentRecordId" : "{!parentRecordId}"
      },
      "componentName" : "forceCommunity:relatedQuipItemsView",
      "id" : "2f00974d-055a-46b0-84f4-411971fbe7bc",
      "renderPriority" : "NEUTRAL",
      "renditionMap" : { },
      "type" : "component"
    } ],
    "id" : "293167bc-7c46-4e33-9d99-c90ec51131fb",
    "regionName" : "content",
    "type" : "region"
  }, {
    "id" : "98bdc7fe-ee4c-416c-91d6-5c2689a84daf",
    "regionName" : "footer",
    "type" : "region"
  } ],
  "themeLayoutType" : "Inner",
  "type" : "view",
  "viewType" : "extrelated-quip"
}