{
  "appPageId" : "01c7ab68-42c4-4b16-8de7-a3911b2ed987",
  "componentName" : "siteforce:sldsOneColLayout",
  "dataProviders" : [ ],
  "id" : "501b3c74-f7ec-42a4-b937-df8ca6e6ffc5",
  "label" : "Record Detail",
  "regions" : [ {
    "id" : "d71e9295-3a78-44f1-8ada-4569567efdbf",
    "regionName" : "header",
    "type" : "region"
  }, {
    "components" : [ {
      "componentAttributes" : {
        "recordId" : "{!recordId}"
      },
      "componentName" : "forceCommunity:recordHeadline",
      "id" : "f08ff3f7-2e49-434b-9d07-65d96a8966cd",
      "renderPriority" : "NEUTRAL",
      "renditionMap" : { },
      "type" : "component"
    }, {
      "componentAttributes" : {
        "detailsTabLabel" : "Details",
        "discussionsTabLabel" : "Feed",
        "recordId" : "{!recordId}",
        "relatedTabLabel" : "Related",
        "tab1Type" : "details",
        "tab2Type" : "related",
        "tab3Type" : "chatter"
      },
      "componentName" : "forceCommunity:recordHomeTabs",
      "id" : "8b2a7336-3aee-492b-8f72-dfe9fb6b6a25",
      "renderPriority" : "NEUTRAL",
      "renditionMap" : { },
      "type" : "component"
    } ],
    "id" : "5fb33f02-b958-43b9-943d-7fc8cf574d86",
    "regionName" : "content",
    "type" : "region"
  }, {
    "id" : "caebee94-4c1f-405e-aad7-c3d14297d19d",
    "regionName" : "footer",
    "type" : "region"
  }, {
    "components" : [ {
      "componentAttributes" : {
        "customHeadTags" : "",
        "description" : "",
        "title" : "{!Record._Object}: {!Record._Title}"
      },
      "componentName" : "forceCommunity:seoAssistant",
      "id" : "9ca46df6-8039-4a02-9214-c0864f060c17",
      "renditionMap" : { },
      "type" : "component"
    } ],
    "id" : "27c4cf7b-5169-42d4-9bdf-6118e4267269",
    "regionName" : "sfdcHiddenRegion",
    "type" : "region"
  } ],
  "themeLayoutType" : "Inner",
  "type" : "view",
  "viewType" : "detail"
}