{
  "appPageId" : "01c7ab68-42c4-4b16-8de7-a3911b2ed987",
  "componentName" : "siteforce:sldsOneColLayout",
  "dataProviders" : [ ],
  "id" : "7c393967-fb31-4588-b6e8-f8c1c4b9819c",
  "label" : "Report Detail",
  "regions" : [ {
    "id" : "c43137b6-d4f9-4e42-8b28-38ab12d813c9",
    "regionName" : "header",
    "type" : "region"
  }, {
    "components" : [ {
      "componentAttributes" : {
        "recordId" : "{!recordId}"
      },
      "componentName" : "forceCommunity:reportPage",
      "id" : "8f72eb4b-86e9-4999-a6c4-4f849fc39e74",
      "renderPriority" : "NEUTRAL",
      "renditionMap" : { },
      "type" : "component"
    } ],
    "id" : "c460795d-59d4-427c-87f5-95fbdbe83353",
    "regionName" : "content",
    "type" : "region"
  }, {
    "id" : "431a2672-4b7c-4a34-88f9-c0d5aa1fc3a8",
    "regionName" : "footer",
    "type" : "region"
  }, {
    "components" : [ {
      "componentAttributes" : {
        "customHeadTags" : "",
        "description" : "",
        "title" : "{!Record._Object}: {!Record._Title}"
      },
      "componentName" : "forceCommunity:seoAssistant",
      "id" : "7fbfa0a5-b0d1-4023-b1ef-31171f32b31c",
      "renditionMap" : { },
      "type" : "component"
    } ],
    "id" : "8d96da77-e3ef-4cee-ab96-fcb414d1c41d",
    "regionName" : "sfdcHiddenRegion",
    "type" : "region"
  } ],
  "themeLayoutType" : "Inner",
  "type" : "view",
  "viewType" : "detail-00O"
}