{
  "appPageId" : "01c7ab68-42c4-4b16-8de7-a3911b2ed987",
  "componentName" : "siteforce:sldsOneColLayout",
  "dataProviders" : [ ],
  "id" : "b0653164-0b1a-42f6-9e58-a675b4ac22a5",
  "label" : "Search",
  "regions" : [ {
    "components" : [ {
      "componentAttributes" : {
        "richTextValue" : "<table border=0 width=100%>\n    <tr>\n        <td width=50% valign=\"top\">\n            <div align=\"right\">\n                <div style=\"text-align:left;width:450px\">\n                    <strong>Use the Search field at the top of the page to find:</strong></br>\n            \t\t<ul>\n                \t\t<li>Knowledge Articles</li>\n                \t\t<li>Cases</li>\n                \t\t<li>Assets</li>\n                \t\t<li>Contacts</li>\n                \t\t<li>Accounts</li>\n            \t\t</ul>\n            \t</div>\n\t\t\t</div>\n        </td>\n        <td width=50% valign=\"top\">\n            <div align=\"left\">\n                <div style=\"text-align:left;width:450px\">\n                    <strong>Tips for getting better Knowledge search results:</strong></br>\n            \t\t<ul>\n                \t\t<li>Use phrases instead of single words (EX. \"check valve leak\")</li>\n                \t\t<li>Include the machine type (\"oil free\") and component name (\"airend\")</li>\n                \t\t<li>Include fault codes if applicable</li>\n            \t\t</ul>\n            \t</div>\n\t\t\t</div>\n\t\t</td>\n    </tr>\n</table>"
      },
      "componentName" : "forceCommunity:htmlBlock",
      "id" : "4a435bee-197d-4e4f-bcbb-d3e02253cbb4",
      "renderPriority" : "NEUTRAL",
      "renditionMap" : { },
      "type" : "component"
    } ],
    "id" : "bbbe00ff-74c2-47e9-8f5f-825928090987",
    "regionName" : "header",
    "type" : "region"
  }, {
    "components" : [ {
      "componentAttributes" : {
        "scopes" : [ {
          "isPublic" : true,
          "name" : "Knowledge__kav"
        }, {
          "isPublic" : false,
          "name" : "Case"
        }, {
          "isPublic" : false,
          "name" : "Asset"
        }, {
          "isPublic" : false,
          "name" : "Contact"
        }, {
          "isPublic" : false,
          "name" : "Account"
        } ],
        "searchResultFiltering" : false,
        "searchTerm" : "{!searchString}",
        "showTopResults" : true
      },
      "componentName" : "forceCommunity:search",
      "id" : "4759b5b3-301d-4c86-8377-2c433fb5ddd4",
      "renderPriority" : "NEUTRAL",
      "renditionMap" : { },
      "type" : "component"
    } ],
    "id" : "1ea84d60-6200-4f7b-883c-438f0c54153a",
    "regionName" : "content",
    "type" : "region"
  }, {
    "id" : "cb19005f-e2aa-4b4f-9790-9afa448a6b9e",
    "regionName" : "footer",
    "type" : "region"
  } ],
  "themeLayoutType" : "Inner",
  "type" : "view",
  "viewType" : "global-search"
}