{
  "appPageId" : "01c7ab68-42c4-4b16-8de7-a3911b2ed987",
  "componentName" : "siteforce:sldsOneColLayout",
  "dataProviders" : [ ],
  "id" : "e13751cb-7879-4b70-a0b0-436f875f2c77",
  "label" : "Stream List",
  "regions" : [ {
    "components" : [ {
      "componentAttributes" : { },
      "componentName" : "forceCommunity:streamList",
      "id" : "a3c7dcfa-7604-49db-9362-842e68a1bbbe",
      "renderPriority" : "NEUTRAL",
      "renditionMap" : { },
      "type" : "component"
    } ],
    "id" : "331dbb36-2a9f-4920-bc61-33f3254ec739",
    "regionName" : "content",
    "type" : "region"
  } ],
  "themeLayoutType" : "Inner",
  "type" : "view",
  "viewType" : "list-0Fq"
}