{
  "type" : "sfdc_cms__view",
  "title" : "Cart",
  "contentBody" : {
    "component" : {
      "children" : [ {
        "children" : [ {
          "attributes" : {
            "backgroundImageConfig" : "",
            "backgroundImageOverlay" : "rgba(0,0,0,0)",
            "dxpStyle" : { },
            "sectionConfig" : "{\"UUID\":\"327f5eaa-e266-4255-84d9-49f19d8a078c\",\"columns\":[{\"UUID\":\"4c4179d5-3d1f-4fb0-8420-eedcb40703d5\",\"columnName\":\"Column 1\",\"columnKey\":\"col1\",\"columnWidth\":\"8\",\"seedComponents\":null},{\"UUID\":\"8cf44b1a-d3c7-48e8-81f7-915d1de14e6b\",\"columnName\":\"Column 2\",\"columnKey\":\"col2\",\"columnWidth\":\"4\",\"seedComponents\":null}]}"
          },
          "children" : [ {
            "children" : [ {
              "attributes" : {
                "dxpStyle" : { },
                "items" : "{!Cart.Items}",
                "showSortOptions" : true
              },
              "children" : [ {
                "children" : [ {
                  "attributes" : {
                    "backgroundColor" : "",
                    "dxpStyle" : { },
                    "paddingHorizontal" : "none",
                    "paddingVertical" : "none",
                    "text" : "Cart",
                    "textAlign" : "left",
                    "textDecoration" : "{\"bold\": true}",
                    "textDisplayInfo" : "{\"headingTag\": \"h1\", \"textStyle\": \"heading-large\"}"
                  },
                  "definition" : "dxp_base:textBlock",
                  "id" : "c0c396a5-6a28-436a-ae92-11195b7aae34",
                  "type" : "component"
                } ],
                "id" : "70b28c6f-6224-4271-808d-ec396166c159",
                "name" : "emptyHeaderLabel",
                "title" : "emptyHeaderLabel",
                "type" : "region"
              }, {
                "children" : [ {
                  "attributes" : {
                    "backgroundColor" : "",
                    "dxpStyle" : { },
                    "paddingHorizontal" : "none",
                    "paddingVertical" : "none",
                    "text" : "Your cart is empty",
                    "textAlign" : "center",
                    "textDecoration" : "{\"bold\": true}",
                    "textDisplayInfo" : "{\"headingTag\": \"h1\", \"textStyle\": \"heading-large\"}"
                  },
                  "definition" : "dxp_base:textBlock",
                  "id" : "f2824608-be14-43d5-a23d-6519186db5a7",
                  "type" : "component"
                }, {
                  "attributes" : {
                    "alignment" : "center",
                    "dxpStyle" : { },
                    "size" : "standard",
                    "stretch" : "standard",
                    "text" : "Continue Shopping",
                    "type" : "primary",
                    "url" : "/"
                  },
                  "definition" : "dxp_base:button",
                  "id" : "4567d635-a239-4fc0-9839-a74f89ca8aa6",
                  "type" : "component"
                } ],
                "id" : "c3abd509-e505-4acf-9539-80555b602484",
                "name" : "emptyBody",
                "title" : "emptyBody",
                "type" : "region"
              }, {
                "children" : [ {
                  "attributes" : {
                    "backgroundColor" : "",
                    "dxpStyle" : { },
                    "paddingHorizontal" : "none",
                    "paddingVertical" : "none",
                    "text" : "Cart",
                    "textAlign" : "left",
                    "textDecoration" : "{\"bold\": true}",
                    "textDisplayInfo" : "{\"headingTag\": \"p\", \"textStyle\": \"heading-large\"}"
                  },
                  "definition" : "dxp_base:textBlock",
                  "id" : "b12fbe1a-6dc3-49de-8173-df064ac0964d",
                  "type" : "component"
                } ],
                "id" : "0332d2eb-1420-47e5-9c39-bada2c1fb6ab",
                "name" : "itemsHeaderLabel",
                "title" : "itemsHeaderLabel",
                "type" : "region"
              }, {
                "children" : [ {
                  "attributes" : {
                    "backgroundColor" : "",
                    "dxpStyle" : { },
                    "paddingHorizontal" : "none",
                    "paddingVertical" : "none",
                    "text" : "({!Cart.Details.totalProductCount} items)",
                    "textAlign" : "left",
                    "textDecoration" : "{\"bold\": false}",
                    "textDisplayInfo" : "{\"headingTag\": \"p\", \"textStyle\": \"heading-large\"}"
                  },
                  "definition" : "dxp_base:textBlock",
                  "id" : "32aedfaa-af03-45ab-a8b7-61d7595898ce",
                  "type" : "component"
                } ],
                "id" : "7e11a49a-e51b-43ca-b523-5b8ea7f25e88",
                "name" : "itemsHeaderCount",
                "title" : "itemsHeaderCount",
                "type" : "region"
              }, {
                "children" : [ {
                  "attributes" : {
                    "actualPriceFontSize" : "medium",
                    "currencyIsoCode" : "{!Cart.Details.currencyIsoCode}",
                    "displayShowMoreItems" : true,
                    "dxpStyle" : { },
                    "hasNextPageItems" : "{!Cart.Pagination.hasNextPage}",
                    "hideQuantitySelector" : false,
                    "incrementValueGuideText" : "Sold in increments of {0}",
                    "items" : "{!Cart.Items}",
                    "maximumValueGuideText" : "Maximum quantity is {0}",
                    "minimumValueGuideText" : "Minimum quantity is {0}",
                    "originalPriceFontColor" : "rgb(116, 116, 116)",
                    "originalPriceFontSize" : "small",
                    "pricePerUnitFontSize" : "medium",
                    "productFieldMapping" : "[{\"name\": \"ProductCode\",\"label\": \"Product Code:\",\"type\": \"STRING\"},{\"name\": \"Description\",\"label\": \"Description:\",\"type\": \"TEXTAREA\"}]",
                    "promotionsAppliedSavingsButtonText" : "Saved {amount}",
                    "removeProductLinks" : false,
                    "showActualPrice" : true,
                    "showCountInName" : false,
                    "showOriginalPrice" : true,
                    "showPricePerUnit" : true,
                    "showProductImage" : true,
                    "showProductVariants" : true,
                    "showPromotions" : true,
                    "showRemoveItem" : true,
                    "showSku" : true,
                    "showTotalPrices" : true,
                    "skuLabel" : "SKU# {0}"
                  },
                  "children" : [ {
                    "children" : [ {
                      "attributes" : {
                        "backgroundColor" : "",
                        "dxpStyle" : { },
                        "paddingHorizontal" : "none",
                        "paddingVertical" : "none",
                        "text" : "Show More",
                        "textAlign" : "left",
                        "textDecoration" : "{}",
                        "textDisplayInfo" : "{\"textStyle\": \"body-regular\"}"
                      },
                      "definition" : "dxp_base:textBlock",
                      "id" : "932001f0-5f91-4541-af8a-8c66b5f76f0a",
                      "type" : "component"
                    } ],
                    "id" : "df5e7998-e49d-498a-b2c1-9c34866fc098",
                    "name" : "showMore",
                    "title" : "showMore",
                    "type" : "region"
                  } ],
                  "definition" : "commerce_builder:cartItems",
                  "id" : "c1631f49-cf7a-49a7-a420-2d2fc48c7ddd",
                  "type" : "component"
                } ],
                "id" : "10cc5688-b6cd-4bbd-8d8b-80a29d25b2b8",
                "name" : "itemsBody",
                "title" : "itemsBody",
                "type" : "region"
              }, {
                "children" : [ {
                  "attributes" : {
                    "backgroundColor" : "",
                    "dxpStyle" : { },
                    "paddingHorizontal" : "none",
                    "paddingVertical" : "none",
                    "text" : "Clear Cart",
                    "textAlign" : "left",
                    "textColor" : "#0176D3",
                    "textDecoration" : "{\"underline\": true}",
                    "textDisplayInfo" : "{\"textStyle\": \"body-regular\"}"
                  },
                  "definition" : "dxp_base:textBlock",
                  "id" : "523a7ab6-fa6c-4243-a7da-0e80bf4aa5d6",
                  "type" : "component"
                } ],
                "id" : "11ec847e-bba2-4708-928e-5216b61ae323",
                "name" : "footerClearCart",
                "title" : "footerClearCart",
                "type" : "region"
              } ],
              "definition" : "commerce_builder:b2bCartContents",
              "id" : "1727b875-0236-41bc-93fb-6d177bbfeb25",
              "type" : "component"
            } ],
            "id" : "4c4179d5-3d1f-4fb0-8420-eedcb40703d5",
            "name" : "col1",
            "title" : "Column 1",
            "type" : "region"
          }, {
            "children" : [ {
              "attributes" : {
                "discountAmountTextSize" : "small",
                "dxpStyle" : { },
                "originalTextSize" : "small",
                "shippingTextSize" : "small",
                "showDiscountAmount" : true,
                "showOriginalPrice" : false,
                "showShippingPrice" : true,
                "showSubtotalPrice" : true,
                "showTaxIncludedLabel" : false,
                "showTaxPrice" : true,
                "subtotalTextSize" : "small",
                "taxTextSize" : "small",
                "totalTextSize" : "medium"
              },
              "children" : [ {
                "children" : [ {
                  "attributes" : {
                    "backgroundColor" : "",
                    "dxpStyle" : { },
                    "paddingHorizontal" : "none",
                    "paddingVertical" : "none",
                    "text" : "Summary",
                    "textAlign" : "left",
                    "textDecoration" : "{\"bold\": true}",
                    "textDisplayInfo" : "{\"textStyle\": \"heading-medium\", \"headingTag\": \"h2\"}"
                  },
                  "definition" : "dxp_base:textBlock",
                  "id" : "a84ec3ce-a930-4f14-a672-8f0efeeb5014",
                  "type" : "component"
                } ],
                "id" : "05da3b9f-6d7d-4462-94bc-ec632af3b682",
                "name" : "headerText",
                "title" : "Heading",
                "type" : "region"
              }, {
                "children" : [ {
                  "attributes" : {
                    "backgroundColor" : "",
                    "dxpStyle" : { },
                    "paddingHorizontal" : "none",
                    "paddingVertical" : "none",
                    "text" : "Original Price",
                    "textAlign" : "left",
                    "textDecoration" : "{}",
                    "textDisplayInfo" : "{\"headingTag\": \"p\", \"textStyle\": \"body-regular\"}"
                  },
                  "definition" : "dxp_base:textBlock",
                  "id" : "b315de7d-a20f-4982-99dc-cfcf0e9481fb",
                  "type" : "component"
                } ],
                "id" : "738a7d15-60ac-4bd3-ae4f-fbace176b16c",
                "name" : "originalPriceLabel",
                "title" : "originalPriceLabel",
                "type" : "region"
              }, {
                "children" : [ {
                  "attributes" : {
                    "backgroundColor" : "",
                    "dxpStyle" : { },
                    "paddingHorizontal" : "none",
                    "paddingVertical" : "none",
                    "text" : "Promotions",
                    "textAlign" : "left",
                    "textDecoration" : "{}",
                    "textDisplayInfo" : "{\"headingTag\": \"p\", \"textStyle\": \"body-regular\"}"
                  },
                  "definition" : "dxp_base:textBlock",
                  "id" : "93a8e099-2515-4943-a7f5-244f1e3b448d",
                  "type" : "component"
                } ],
                "id" : "0c93b327-ce9b-4578-a081-d0bb9e66adf0",
                "name" : "promotionsLabel",
                "title" : "Promotions Label",
                "type" : "region"
              }, {
                "children" : [ {
                  "attributes" : {
                    "backgroundColor" : "",
                    "dxpStyle" : { },
                    "paddingHorizontal" : "none",
                    "paddingVertical" : "none",
                    "text" : "Shipping",
                    "textAlign" : "left",
                    "textDecoration" : "{}",
                    "textDisplayInfo" : "{\"headingTag\": \"p\", \"textStyle\": \"body-regular\"}"
                  },
                  "definition" : "dxp_base:textBlock",
                  "id" : "0dc03a38-4250-413e-aaef-145df5e5f9fb",
                  "type" : "component"
                } ],
                "id" : "3d5fcae0-6024-4b1c-982d-8a686e0902fd",
                "name" : "shippingLabel",
                "title" : "Shipping Label",
                "type" : "region"
              }, {
                "children" : [ {
                  "attributes" : {
                    "backgroundColor" : "",
                    "dxpStyle" : { },
                    "paddingHorizontal" : "none",
                    "paddingVertical" : "none",
                    "text" : "Subtotal",
                    "textAlign" : "left",
                    "textDecoration" : "{}",
                    "textDisplayInfo" : "{\"headingTag\": \"p\", \"textStyle\": \"body-regular\"}"
                  },
                  "definition" : "dxp_base:textBlock",
                  "id" : "9f066305-5c29-4a49-b01a-e13ed196aec5",
                  "type" : "component"
                } ],
                "id" : "ba03dc44-0ee1-4968-a24c-6b078d61fbef",
                "name" : "subtotalLabel",
                "title" : "Subtotal Label",
                "type" : "region"
              }, {
                "children" : [ {
                  "attributes" : {
                    "backgroundColor" : "",
                    "dxpStyle" : { },
                    "paddingHorizontal" : "none",
                    "paddingVertical" : "none",
                    "text" : "Tax included",
                    "textAlign" : "right",
                    "textDecoration" : "{}",
                    "textDisplayInfo" : "{\"headingTag\": \"p\", \"textStyle\": \"body-regular\"}"
                  },
                  "definition" : "dxp_base:textBlock",
                  "id" : "f711f2f3-7399-4d8c-9cda-5ee6cbe0b2fb",
                  "type" : "component"
                } ],
                "id" : "0208e706-7624-44a4-a222-92ffd7a4174d",
                "name" : "taxIncludedLabel",
                "title" : "Tax Included Label",
                "type" : "region"
              }, {
                "children" : [ {
                  "attributes" : {
                    "backgroundColor" : "",
                    "dxpStyle" : { },
                    "paddingHorizontal" : "none",
                    "paddingVertical" : "none",
                    "text" : "Tax",
                    "textAlign" : "left",
                    "textDecoration" : "{}",
                    "textDisplayInfo" : "{\"headingTag\": \"p\", \"textStyle\": \"body-regular\"}"
                  },
                  "definition" : "dxp_base:textBlock",
                  "id" : "671e90e5-c6a6-46bf-9f9e-b05267787681",
                  "type" : "component"
                } ],
                "id" : "8c101d08-09d4-496d-bc32-d244317cc4f9",
                "name" : "taxLabel",
                "title" : "Tax Label",
                "type" : "region"
              }, {
                "children" : [ {
                  "attributes" : {
                    "backgroundColor" : "",
                    "dxpStyle" : { },
                    "paddingHorizontal" : "none",
                    "paddingVertical" : "none",
                    "text" : "Total",
                    "textAlign" : "left",
                    "textDecoration" : "{\"bold\": true}",
                    "textDisplayInfo" : "{ \"headingTag\": \"p\", \"textStyle\": \"heading-small\"}"
                  },
                  "definition" : "dxp_base:textBlock",
                  "id" : "cc60a250-4369-4f13-9f10-09a97de565bd",
                  "type" : "component"
                } ],
                "id" : "9b8b19c2-37d5-4de3-a158-9cf861241f4a",
                "name" : "totalLabel",
                "title" : "Total Label",
                "type" : "region"
              } ],
              "definition" : "commerce_builder:cartSummary",
              "id" : "7d3e7f17-a13d-4b8a-b6f3-0f3d73647177",
              "type" : "component"
            }, {
              "attributes" : {
                "cartDetails" : "{!Cart.Details}",
                "cartPromotions" : "{!Cart.Promotions}",
                "dxpStyle" : { }
              },
              "children" : [ {
                "children" : [ {
                  "attributes" : {
                    "autoScrollToMostRecent" : false,
                    "backgroundColor" : "",
                    "borderColor" : "",
                    "borderRadius" : 0,
                    "borderWidth" : 0,
                    "dxpStyle" : { },
                    "isOrderReversed" : false,
                    "itemSpacing" : "none",
                    "listType" : "unformatted",
                    "orderedMarkerAlignment" : "middle",
                    "orderedMarkerColor" : "",
                    "orderedMarkerSize" : "body-regular",
                    "orderedMarkerStartValue" : 1,
                    "orderedMarkerStyle" : "numbers",
                    "showPagination" : false,
                    "unorderedMarkerAlignment" : "middle",
                    "unorderedMarkerColor" : "",
                    "unorderedMarkerSize" : "body-regular",
                    "unorderedMarkerStyle" : "filled-dots",
                    "width" : 100
                  },
                  "children" : [ {
                    "children" : [ {
                      "attributes" : {
                        "borderRadius" : 0,
                        "couponCode" : "{!Promotion.couponCode}",
                        "couponId" : "{!Promotion.couponId}",
                        "dxpStyle" : { },
                        "name" : "{!Promotion.name}",
                        "showDiscountAmount" : true,
                        "showTermsAndConditions" : false,
                        "termsAndConditions" : "{!Promotion.termsAndConditions}",
                        "termsAndConditionsTitleText" : "Terms and Conditions"
                      },
                      "children" : [ {
                        "children" : [ {
                          "attributes" : {
                            "alignment" : "left",
                            "dxpStyle" : { },
                            "size" : "standard",
                            "stretch" : "standard",
                            "text" : "Terms & Conditions",
                            "type" : "tertiary",
                            "url" : ""
                          },
                          "definition" : "dxp_base:button",
                          "id" : "90c6c620-25e3-4424-8f9f-ce1d6305996b",
                          "type" : "component"
                        } ],
                        "id" : "439e3337-195a-4610-bf9d-ceb83af58358",
                        "name" : "termsAndConditions",
                        "title" : "Terms and Conditions ",
                        "type" : "region"
                      }, {
                        "children" : [ {
                          "attributes" : {
                            "backgroundColor" : "",
                            "displayAs" : "symbol",
                            "dxpStyle" : { },
                            "paddingHorizontal" : "none",
                            "paddingVertical" : "xx-small",
                            "textAlign" : "left",
                            "textDecoration" : "{}",
                            "textDisplayInfo" : "{\"headingTag\": \"p\", \"textStyle\": \"body-regular\"}",
                            "value" : "{!Promotion.discountAmount}"
                          },
                          "definition" : "commerce_builder:formattedCurrency",
                          "id" : "c178ed4d-d6f4-4860-8dd6-24c5dbcceab3",
                          "type" : "component"
                        } ],
                        "id" : "b5d6e2b9-f684-4a6c-b43d-6ba7716a295c",
                        "name" : "discountAmount",
                        "title" : "discountAmount",
                        "type" : "region"
                      } ],
                      "definition" : "commerce_builder:cartAppliedPromotion",
                      "id" : "a47fa155-36b1-49e8-869d-e15f3683d8f7",
                      "type" : "component"
                    } ],
                    "id" : "8effcd98-fb50-4b47-9045-0e1944b40d93",
                    "name" : "sfdcRepeaterItem",
                    "title" : "sfdcRepeaterItem",
                    "type" : "region"
                  }, {
                    "children" : [ {
                      "attributes" : {
                        "dxpStyle" : { },
                        "paginatorAttributes" : "{\"nested\":{\"componentName\":\"dxp_content_layout:paginatorShowMore\",\"attributes\":{\"label\":\"Show More\",\"textDecoration\":\"{}\",\"buttonStyle\":\"secondary\",\"size\":\"standard\",\"width\":\"standard\",\"verticalPadding\":\"none\",\"horizontalAlignment\":\"center\"}}}",
                        "variant" : "showmore"
                      },
                      "children" : [ {
                        "children" : [ {
                          "attributes" : {
                            "dxpStyle" : { }
                          },
                          "definition" : "dxp_page_layout:placeHolder",
                          "id" : "dcbc0ed7-fab5-4ad7-8b5c-ab26461ffdb9",
                          "type" : "component"
                        } ],
                        "id" : "6e29e1ff-adb7-40cb-9b97-ecebdb738ab1",
                        "name" : "placeholder",
                        "title" : "placeholder",
                        "type" : "region"
                      } ],
                      "definition" : "dxp_content_layout:paginator2",
                      "id" : "5d854b0a-bc53-4268-bdd1-03812dbc6d42",
                      "type" : "component"
                    } ],
                    "id" : "4e80f129-3399-4512-857e-566c9d334b7f",
                    "name" : "pagination",
                    "title" : "pagination",
                    "type" : "region"
                  } ],
                  "definition" : "dxp_content_layout:list",
                  "id" : "1aac6749-206f-44a4-b50f-be32e179e26d",
                  "type" : "component",
                  "dataProviders" : [ {
                    "definition" : "sfdc_cms__expressionDataProvider",
                    "sfdcExpressionKey" : "Promotion",
                    "attributes" : {
                      "listSource" : "{!Cart.Promotions}"
                    }
                  } ]
                } ],
                "id" : "651ab16d-a10f-4a38-a588-f93ba66b3d99",
                "name" : "appliedPromotionRepeater",
                "title" : "appliedPromotionRepeater",
                "type" : "region"
              }, {
                "children" : [ {
                  "attributes" : {
                    "applyCouponButtonProcessingText" : "Applying",
                    "applyCouponButtonText" : "Apply",
                    "couponInputPlaceholderText" : "Enter a coupon code...",
                    "dxpStyle" : { },
                    "showRevealButton" : true
                  },
                  "children" : [ {
                    "children" : [ {
                      "attributes" : {
                        "alignment" : "left",
                        "dxpStyle" : { },
                        "size" : "standard",
                        "stretch" : "standard",
                        "text" : "Enter a coupon code",
                        "type" : "tertiary",
                        "url" : ""
                      },
                      "definition" : "dxp_base:button",
                      "id" : "57d164fc-888e-4f7b-bf6f-a41fd2e5d866",
                      "type" : "component"
                    } ],
                    "id" : "bbad8093-9044-4e63-9b00-cfe7e0bffba9",
                    "name" : "revealButton",
                    "title" : "revealButton",
                    "type" : "region"
                  } ],
                  "definition" : "commerce_builder:cartApplyCoupon",
                  "id" : "d9ebbaba-0996-4db8-9ddd-03602c44f351",
                  "type" : "component"
                } ],
                "id" : "25c96b67-8df6-4811-a30f-b02f32496675",
                "name" : "applyCoupon",
                "title" : "applyCoupon",
                "type" : "region"
              } ],
              "definition" : "commerce_builder:cartPromotions",
              "id" : "921e85db-4e85-4f68-966c-0b65c0eda210",
              "type" : "component"
            }, {
              "attributes" : {
                "dxpStyle" : { }
              },
              "children" : [ {
                "children" : [ {
                  "attributes" : {
                    "alignment" : "center",
                    "dxpStyle" : { },
                    "layoutDesktop" : "label",
                    "layoutMobile" : "price",
                    "size" : "standard",
                    "text" : "Checkout",
                    "variant" : "primary",
                    "width" : "stretch"
                  },
                  "definition" : "commerce_builder:checkoutButton",
                  "id" : "564a4ff6-80fd-4f78-9c24-b100f1b35864",
                  "type" : "component"
                } ],
                "id" : "76b49c31-413b-4b68-9f6b-e82b9d5fe75d",
                "name" : "content",
                "title" : "content",
                "type" : "region"
              } ],
              "definition" : "commerce_builder:stickyContainer",
              "id" : "45618a7a-499d-4017-a6c9-b9fc285f6fd4",
              "type" : "component"
            } ],
            "id" : "8cf44b1a-d3c7-48e8-81f7-915d1de14e6b",
            "name" : "col2",
            "title" : "Column 2",
            "type" : "region"
          } ],
          "definition" : "community_layout:section",
          "id" : "327f5eaa-e266-4255-84d9-49f19d8a078c",
          "type" : "component"
        } ],
        "id" : "d253cf12-3637-4109-9f1b-62e1e89ed633",
        "name" : "content",
        "title" : "Content",
        "type" : "region"
      }, {
        "children" : [ {
          "attributes" : {
            "dxpStyle" : { },
            "recordId" : "{!recordId}"
          },
          "definition" : "community_builder:seoAssistant",
          "id" : "7cbc1a5f-4238-4f79-b6db-b44302e307b1",
          "type" : "component"
        } ],
        "id" : "f5604460-bae2-4bd0-972c-a92aca23e463",
        "name" : "sfdcHiddenRegion",
        "title" : "sfdcHiddenRegion",
        "type" : "region"
      } ],
      "definition" : "community_layout:sldsFlexibleLayout",
      "id" : "dc283496-95c1-4b4b-97f4-ce9003d4d3b8",
      "type" : "component"
    },
    "dataProviders" : [ {
      "definition" : "sfdc_cms__commerceCartDataProvider",
      "sfdcExpressionKey" : "Cart",
      "attributes" : { }
    } ],
    "themeLayoutType" : "Inner",
    "viewType" : "current-cart"
  },
  "urlName" : "cart"
}