{
  "type" : "sfdc_cms__view",
  "title" : "Order",
  "contentBody" : {
    "component" : {
      "children" : [ {
        "children" : [ {
          "attributes" : {
            "backgroundImageConfig" : "",
            "backgroundImageOverlay" : "rgba(0,0,0,0)",
            "dxpStyle" : { },
            "sectionConfig" : "{\"UUID\":\"38998e5b-27e7-4547-a1c8-62a857ad5d9f\",\"columns\":[{\"UUID\":\"8a153e52-ae73-4ca7-9354-3be022979ec7\",\"columnName\":\"Column 1\",\"columnKey\":\"col1\",\"columnWidth\":\"12\",\"seedComponents\":null}]}"
          },
          "children" : [ {
            "children" : [ {
              "attributes" : {
                "bodyText" : "We will send an email with your confirmation number and receipt shortly.",
                "buttonText" : "Continue Shopping",
                "confirmationNumberText" : "Confirmation Number",
                "dxpStyle" : { },
                "headerText" : "Thank you for your order!"
              },
              "definition" : "commerce_unified_checkout:orderConfirmation",
              "id" : "cefe73ae-b04e-49d5-9181-b24454d2fe10",
              "type" : "component"
            } ],
            "id" : "8a153e52-ae73-4ca7-9354-3be022979ec7",
            "name" : "col1",
            "title" : "Column 1",
            "type" : "region"
          } ],
          "definition" : "community_layout:section",
          "id" : "38998e5b-27e7-4547-a1c8-62a857ad5d9f",
          "type" : "component"
        } ],
        "id" : "6f1344c9-b539-4ad3-8ab8-5afa3096e036",
        "name" : "content",
        "title" : "Content",
        "type" : "region"
      }, {
        "children" : [ {
          "attributes" : {
            "dxpStyle" : { },
            "recordId" : "{!recordId}"
          },
          "definition" : "community_builder:seoAssistant",
          "id" : "47bed8be-42bc-4b4a-9a44-fd295b800dfb",
          "type" : "component"
        } ],
        "id" : "c84fb92f-3d5d-4be8-9e05-937f5393f1b0",
        "name" : "sfdcHiddenRegion",
        "title" : "sfdcHiddenRegion",
        "type" : "region"
      } ],
      "definition" : "community_layout:sldsFlexibleLayout",
      "id" : "6c6de30d-5d8f-467e-a832-e437c6917dd6",
      "type" : "component"
    },
    "dataProviders" : [ {
      "definition" : "sfdc_cms__commerceOrderDetailDataProvider",
      "sfdcExpressionKey" : "Order",
      "attributes" : {
        "recordId" : "{!Route.orderNumber}"
      }
    } ],
    "themeLayoutType" : "Inner",
    "viewType" : "order"
  },
  "urlName" : "order"
}