{
  "type" : "sfdc_cms__view",
  "title" : "Product",
  "contentBody" : {
    "component" : {
      "children" : [ {
        "attributes" : {
          "text" : "Information sur les prix"
        },
        "id" : "b7151701-778a-4230-82d4-b1f7560ccf66"
      }, {
        "id" : "826dc084-2534-4671-ade6-e95c2dec8b99",
        "attributes" : {
          "richTextValue" : "<p><span style=\"color: rgb(136, 136, 136); font-size: 12px;\">La TVA due au titre de la loi TVA n'est pas incluse dans nos prix et sera appliquée en conséquence</span></p>"
        }
      }, {
        "id" : "1a5f2630-d454-4d8e-ba13-36c4d2c31f15",
        "attributes" : {
          "addToCartButtonText" : "Ajouter au panier",
          "quantitySelectorLabel" : "QTÉ",
          "outOfStockText" : "En rupture de stock"
        }
      }, {
        "id" : "6deb07ca-9136-4836-8d52-8ff9caea4f4d",
        "attributes" : {
          "text" : "Options du produit :"
        }
      }, {
        "id" : "d92b30fd-cb00-483e-bf00-1499baff6cd3",
        "attributes" : {
          "text" : "Description du produit"
        }
      }, {
        "id" : "ceae1f74-46df-43f9-8890-1de335a8c3c1",
        "attributes" : {
          "text" : "Informations Complémentaires"
        }
      }, {
        "id" : "9ba34d0b-11b7-453d-8a4a-00dffd0c1579",
        "attributes" : {
          "richTextValue" : "<p><strong style=\"font-size: 20px;\">Articles recommandés</strong></p>"
        }
      }, {
        "id" : "31b29664-2629-4278-9cc1-4073ac615db7",
        "attributes" : {
          "productDetailDataContentMapping" : "[{\"name\":\"Ambient_Temperature__c\",\"label\":\"Température ambiante\",\"type\":\"PICKLIST\"},{\"name\":\"Discharge_Temperature__c\",\"label\":\"Température de décharge\",\"type\":\"PICKLIST\"},{\"name\":\"Viscosity__c\",\"label\":\"Viscosité\",\"type\":\"PICKLIST\"},{\"name\":\"Frame_Size__c\",\"label\":\"Frame Size\",\"type\":\"MULTIPICKLIST\"},{\"name\":\"Technology__c\",\"label\":\"Technology\",\"type\":\"MULTIPICKLIST\"}]"
        }
      }, {
        "id" : "65958843-7eb9-46a5-a908-5554d0c96d72",
        "attributes" : {
          "productDetailDataContentMapping" : "[{\"name\":\"Country_Of_Origin__c\",\"label\":\"Pays d'origine\\t\",\"type\":\"PICKLIST\"},{\"name\":\"Manufacturer__c\",\"label\":\"Fabricant\\t\",\"type\":\"PICKLIST\"},{\"name\":\"Warranty_Description__c\",\"label\":\"Description de la garantie\\t\",\"type\":\"PICKLIST\"},{\"name\":\"Item_Weight__c\",\"label\":\"Poids\\t\",\"type\":\"TEXTAREA\"},{\"name\":\"Dimensions__c\",\"label\":\"Dimensions\",\"type\":\"TEXTAREA\"}]"
        }
      } ]
    }
  },
  "urlName" : "product"
}