{
  "type" : "sfdc_cms__themeLayout",
  "title" : "Commerce Layout",
  "contentBody" : {
    "component" : {
      "children" : [ {
        "attributes" : {
          "placeholderText" : "Rechercher dans le catalogue"
        },
        "id" : "bec9a71c-eac2-4a4f-9404-f48537b0659c"
      }, {
        "attributes" : {
          "logOutLabel" : "Se déconnecter",
          "loginLinkText" : "Se connecter"
        },
        "id" : "0fc25a1a-1575-48d0-9da0-262efe0dd413"
      }, {
        "attributes" : {
          "text" : "© Ingersoll Rand"
        },
        "id" : "60e9dff9-1c67-4c4c-b206-e8d7d320b44d"
      } ]
    }
  },
  "urlName" : "commerce-layout"
}