{
  "appPageId" : "326b036c-6d34-4135-bc1a-94e9c2e7aa91",
  "componentName" : "siteforce:sldsOneColLayout",
  "dataProviders" : [ ],
  "id" : "805edb43-47d3-41c2-b5c6-f4d036f9dca2",
  "label" : "Asset Detail",
  "regions" : [ {
    "components" : [ {
      "componentAttributes" : {
        "recordId" : "{!recordId}"
      },
      "componentName" : "forceCommunity:recordHeadline",
      "id" : "af781a9b-96b4-4774-a66a-eb4204dd25b0",
      "renderPriority" : "NEUTRAL",
      "renditionMap" : { },
      "type" : "component"
    } ],
    "id" : "ef508f64-1125-4551-a482-cb5266e79509",
    "regionName" : "header",
    "type" : "region"
  }, {
    "components" : [ {
      "componentAttributes" : {
        "tabsetConfig" : {
          "UUID" : "ca540af9-29fb-4562-a833-6adbea4a2dc7",
          "activeTab" : "",
          "tabs" : [ {
            "UUID" : "5d19bb80-96fe-401e-a34f-6985d7df330f",
            "allowGuestUser" : false,
            "locked" : false,
            "seedComponents" : [ ],
            "tabKey" : "1",
            "tabName" : "Details"
          }, {
            "UUID" : "530e8009-c730-41b8-ad51-820327832744",
            "allowGuestUser" : false,
            "locked" : false,
            "seedComponents" : [ ],
            "tabKey" : "0ccc6",
            "tabName" : "Helix Alarm Events"
          }, {
            "UUID" : "eb42ec9e-802f-4023-a7a5-5a9749a10d87",
            "allowGuestUser" : false,
            "locked" : false,
            "seedComponents" : [ ],
            "tabKey" : "2",
            "tabName" : "Chatter"
          }, {
            "UUID" : "1430521b-3194-479d-a2a6-5dea809cfcb4",
            "allowGuestUser" : false,
            "locked" : false,
            "seedComponents" : [ ],
            "tabKey" : "e70ae",
            "tabName" : "Notification Subscriptions"
          }, {
            "UUID" : "abdf0550-48a6-4be7-b000-ade539b90fb7",
            "allowGuestUser" : false,
            "locked" : false,
            "seedComponents" : [ ],
            "tabKey" : "3",
            "tabName" : "Related Records"
          } ],
          "useOverflowMenu" : false
        }
      },
      "componentName" : "forceCommunity:tabset",
      "id" : "ca540af9-29fb-4562-a833-6adbea4a2dc7",
      "regions" : [ {
        "components" : [ {
          "componentAttributes" : {
            "recordId" : "{!recordId}"
          },
          "componentName" : "forceCommunity:recordDetail",
          "id" : "00b50bb0-d786-4c02-93f2-e582f2bde120",
          "renditionMap" : { },
          "type" : "component"
        } ],
        "id" : "5d19bb80-96fe-401e-a34f-6985d7df330f",
        "regionLabel" : "Details",
        "regionName" : "1",
        "renditionMap" : { },
        "type" : "region"
      }, {
        "components" : [ {
          "componentAttributes" : {
            "recordId" : "{!recordId}"
          },
          "componentName" : "c:cTS_IOT_Asset_Helix_Message",
          "id" : "d7777c9f-937c-4121-a161-24801939a665",
          "renditionMap" : { },
          "type" : "component"
        }, {
          "componentAttributes" : {
            "relatedListApiName" : "RMS_Events__r",
            "relatedListComponentOverride" : "ADVGRID",
            "width" : "MEDIUM"
          },
          "componentName" : "forceCommunity:responsiveRelatedListSingle",
          "id" : "1f4c090c-6133-417d-9921-ad3419158dbd",
          "renditionMap" : { },
          "type" : "component"
        } ],
        "id" : "530e8009-c730-41b8-ad51-820327832744",
        "regionLabel" : "Helix Alarm Events",
        "regionName" : "0ccc6",
        "renditionMap" : { },
        "type" : "region"
      }, {
        "components" : [ {
          "componentAttributes" : {
            "canChangeSorting" : true,
            "defaultFilter" : "",
            "defaultSortOrderHomeFeed" : "Relevance",
            "defaultSortOrderTopicsFeed" : "Relevance",
            "feedDesign" : "DEFAULT",
            "hasFeedSearch" : true,
            "subjectId" : "{!recordId}",
            "type" : "Record"
          },
          "componentName" : "forceCommunity:forceCommunityFeed",
          "id" : "63839eba-86f7-481f-a000-990d841c77c5",
          "renditionMap" : { },
          "type" : "component"
        } ],
        "id" : "eb42ec9e-802f-4023-a7a5-5a9749a10d87",
        "regionLabel" : "Chatter",
        "regionName" : "2",
        "renditionMap" : { },
        "type" : "region"
      }, {
        "components" : [ {
          "componentAttributes" : {
            "recordId" : "{!recordId}",
            "titleActionsPaddingStyleOverride" : " 0px 20px",
            "titlePaddingStyleOverride" : " 0px 20px"
          },
          "componentName" : "c:manage_Notification_Subscriptions",
          "id" : "b163a255-f5e7-4a04-8aea-de220a1cd59a",
          "renditionMap" : { },
          "type" : "component"
        } ],
        "id" : "1430521b-3194-479d-a2a6-5dea809cfcb4",
        "regionLabel" : "Notification Subscriptions",
        "regionName" : "e70ae",
        "renditionMap" : { },
        "type" : "region"
      }, {
        "components" : [ {
          "componentAttributes" : {
            "recordId" : "{!recordId}",
            "width" : "MEDIUM"
          },
          "componentName" : "forceCommunity:relatedRecords",
          "id" : "3dbca3ec-aa52-4924-9af2-86d7b94768c9",
          "renditionMap" : { },
          "type" : "component"
        } ],
        "id" : "abdf0550-48a6-4be7-b000-ade539b90fb7",
        "regionLabel" : "Related Records",
        "regionName" : "3",
        "renditionMap" : { },
        "type" : "region"
      } ],
      "renderPriority" : "NEUTRAL",
      "renditionMap" : { },
      "type" : "component"
    } ],
    "id" : "e934fca3-fa37-4109-9f45-3ad2bf455d1d",
    "regionName" : "content",
    "type" : "region"
  }, {
    "id" : "2c086ef2-5e57-4888-97cc-62ce4737ba85",
    "regionName" : "footer",
    "type" : "region"
  }, {
    "components" : [ {
      "componentAttributes" : {
        "customHeadTags" : "",
        "description" : "",
        "title" : "{!Record._Object}: {!Record._Title}"
      },
      "componentName" : "forceCommunity:seoAssistant",
      "id" : "6dc75bbb-bbd0-423e-bfee-26c9f4d0004d",
      "renditionMap" : { },
      "type" : "component"
    } ],
    "id" : "15c1b8fd-33a9-42a6-b1d7-1aa0b60367ba",
    "regionName" : "sfdcHiddenRegion",
    "type" : "region"
  } ],
  "themeLayoutType" : "Inner",
  "type" : "view",
  "viewType" : "detail-02i"
}