{
  "appPageId" : "326b036c-6d34-4135-bc1a-94e9c2e7aa91",
  "componentName" : "siteforce:sldsOneColLayout",
  "dataProviders" : [ ],
  "id" : "34828496-568b-43c1-8693-98da87941b8e",
  "label" : "Group List",
  "regions" : [ {
    "id" : "f09e0820-5b3b-4d44-8e15-e933f3182f3c",
    "regionName" : "header",
    "type" : "region"
  }, {
    "components" : [ {
      "componentAttributes" : { },
      "componentName" : "forceCommunity:groupObjectHome",
      "id" : "917ec7ee-20fe-4fc2-b89d-08a772d32943",
      "renderPriority" : "NEUTRAL",
      "renditionMap" : { },
      "type" : "component"
    } ],
    "id" : "d57d38ca-9e4d-451f-ad8b-7e4b3dc166f3",
    "regionName" : "content",
    "type" : "region"
  }, {
    "id" : "ba44825f-ab9e-4da4-8916-3bdc2dfadef3",
    "regionName" : "footer",
    "type" : "region"
  } ],
  "themeLayoutType" : "Inner",
  "type" : "view",
  "viewType" : "list-0F9"
}