{
  "appPageId" : "326b036c-6d34-4135-bc1a-94e9c2e7aa91",
  "componentName" : "siteforce:sldsOneColLayout",
  "dataProviders" : [ ],
  "id" : "76f252de-fdf0-419d-8335-107b29f18472",
  "label" : "Group Related List",
  "regions" : [ {
    "id" : "42e68681-474b-4930-aa4c-a489fbbe4c82",
    "regionName" : "header",
    "type" : "region"
  }, {
    "components" : [ {
      "componentAttributes" : {
        "customTitle" : "",
        "parentRecordId" : "{!parentRecordId}",
        "relatedListName" : "{!relatedListName}",
        "showBreadCrumbs" : true,
        "showCustomTitle" : false,
        "showManualRefreshButton" : true,
        "showRowNumbers" : true
      },
      "componentName" : "forceCommunity:relatedList",
      "id" : "8fbb25aa-4d9f-4b05-a633-c50373840b44",
      "renderPriority" : "NEUTRAL",
      "renditionMap" : { },
      "type" : "component"
    } ],
    "id" : "30e7eda6-ae5c-4e37-8f1a-3aa9bad9cfd7",
    "regionName" : "content",
    "type" : "region"
  }, {
    "id" : "adeac408-002d-478b-8092-a8fc87edee40",
    "regionName" : "footer",
    "type" : "region"
  } ],
  "themeLayoutType" : "Inner",
  "type" : "view",
  "viewType" : "relatedlist-0F9"
}