{
  "appPageId" : "d3a2a27f-2c31-4c16-9101-66e825594cd4",
  "componentName" : "siteforce:sldsOneColLayout",
  "dataProviders" : [ ],
  "id" : "e82f856b-d4f6-4737-bf44-f0fc6d102ee6",
  "label" : "Login Error",
  "regions" : [ {
    "id" : "980f3f1e-d1ec-49fe-8002-3478b7b78a98",
    "regionName" : "header",
    "type" : "region"
  }, {
    "components" : [ {
      "componentAttributes" : {
        "richTextValue" : "<div style=\"text-align: center;\">Invalid Page</div>"
      },
      "componentName" : "forceCommunity:richTextInline",
      "id" : "f64bcd9e-8e58-452d-b711-e56119da5612",
      "renderPriority" : "NEUTRAL",
      "renditionMap" : { },
      "type" : "component"
    } ],
    "id" : "c23f8569-b6ae-49bd-bc5f-26d743d08594",
    "regionName" : "content",
    "type" : "region"
  }, {
    "id" : "f028f9af-da59-48e2-88d9-021a7b675cc6",
    "regionName" : "footer",
    "type" : "region"
  }, {
    "components" : [ {
      "componentAttributes" : {
        "customHeadTags" : "",
        "description" : "",
        "title" : "Login Error"
      },
      "componentName" : "forceCommunity:seoAssistant",
      "id" : "d9be05f9-41cd-4f9f-be00-56e820ea811f",
      "renditionMap" : { },
      "type" : "component"
    } ],
    "id" : "46bd93ad-16a2-4db0-a60e-f27be7bec370",
    "regionName" : "sfdcHiddenRegion",
    "type" : "region"
  } ],
  "themeLayoutType" : "Login",
  "type" : "view",
  "viewType" : "login-error"
}