{
  "appPageId" : "326b036c-6d34-4135-bc1a-94e9c2e7aa91",
  "componentName" : "siteforce:sldsOneColLayout",
  "dataProviders" : [ ],
  "id" : "bf6fc54e-5391-4a29-9c73-0b108acdea88",
  "label" : "Record List",
  "regions" : [ {
    "id" : "dac32661-c432-45e3-b3b0-2fd586364421",
    "regionName" : "header",
    "type" : "region"
  }, {
    "components" : [ {
      "componentAttributes" : {
        "filterName" : "{!filterId}",
        "layout" : "FULL",
        "pageSize" : 25,
        "scope" : "{!objectName}",
        "showDisplay" : "showall"
      },
      "componentName" : "forceCommunity:objectHome",
      "id" : "08b2b852-1239-42fe-b0b9-1fcd1a527c22",
      "renderPriority" : "NEUTRAL",
      "renditionMap" : { },
      "type" : "component"
    } ],
    "id" : "256efe73-9eac-4222-90ed-d1970720e100",
    "regionName" : "content",
    "type" : "region"
  }, {
    "id" : "5fc114fd-85e1-459c-8915-b7d660230554",
    "regionName" : "footer",
    "type" : "region"
  } ],
  "themeLayoutType" : "Inner",
  "type" : "view",
  "viewType" : "list"
}