{
  "appPageId" : "326b036c-6d34-4135-bc1a-94e9c2e7aa91",
  "componentName" : "siteforce:sldsOneColLayout",
  "dataProviders" : [ ],
  "id" : "71a8cdc1-bd8a-474b-bba4-bce4b8176695",
  "label" : "Report Detail",
  "regions" : [ {
    "id" : "e41addc1-3f10-4529-ab99-5572ce40aee9",
    "regionName" : "header",
    "type" : "region"
  }, {
    "components" : [ {
      "componentAttributes" : {
        "recordId" : "{!recordId}"
      },
      "componentName" : "forceCommunity:reportPage",
      "id" : "ef55f5bf-627d-4545-a3ee-3fc38f71289c",
      "renderPriority" : "NEUTRAL",
      "renditionMap" : { },
      "type" : "component"
    } ],
    "id" : "a379ba70-349d-4457-acc9-6f6aa97df54a",
    "regionName" : "content",
    "type" : "region"
  }, {
    "id" : "98f6c75b-e37a-4936-926b-4b359a801fd7",
    "regionName" : "footer",
    "type" : "region"
  }, {
    "components" : [ {
      "componentAttributes" : {
        "customHeadTags" : "",
        "description" : "",
        "title" : "{!Record._Object}: {!Record._Title}"
      },
      "componentName" : "forceCommunity:seoAssistant",
      "id" : "c7443955-2640-4d6e-9658-5da0c1836a1e",
      "renditionMap" : { },
      "type" : "component"
    } ],
    "id" : "37037b11-c015-4bb5-9235-fed05071b9b3",
    "regionName" : "sfdcHiddenRegion",
    "type" : "region"
  } ],
  "themeLayoutType" : "Inner",
  "type" : "view",
  "viewType" : "detail-00O"
}