{
  "appPageId" : "326b036c-6d34-4135-bc1a-94e9c2e7aa91",
  "componentName" : "siteforce:sldsTwoCol84Layout",
  "dataProviders" : [ ],
  "id" : "df203acc-7b61-4676-9423-65a03ff0e3f9",
  "label" : "Topic Detail",
  "regions" : [ {
    "components" : [ {
      "componentAttributes" : {
        "recordId" : "{!recordId}"
      },
      "componentName" : "forceCommunity:recordHeadline",
      "id" : "5f4bd730-3fd3-4141-919c-4e7164d8a70f",
      "renderPriority" : "NEUTRAL",
      "renditionMap" : { },
      "type" : "component"
    } ],
    "id" : "d51527b4-79fa-4078-bacb-741e8ffd1fc7",
    "regionName" : "header",
    "type" : "region"
  }, {
    "components" : [ {
      "componentAttributes" : {
        "canChangeSorting" : false,
        "defaultFilter" : "",
        "feedDesign" : "DEFAULT",
        "hasFeedSearch" : false,
        "subjectId" : "{!recordId}",
        "type" : "Topics"
      },
      "componentName" : "forceCommunity:forceCommunityFeed",
      "id" : "8fb8dbfa-5a7b-4339-8977-5bae7bdca791",
      "renderPriority" : "NEUTRAL",
      "renditionMap" : { },
      "type" : "component"
    } ],
    "id" : "3e0ccdbd-8c3a-4f23-9c96-917152ae8e25",
    "regionName" : "content",
    "type" : "region"
  }, {
    "components" : [ {
      "componentAttributes" : {
        "recordId" : "{!recordId}"
      },
      "componentName" : "forceCommunity:recordDetail",
      "id" : "b5bd14a0-72e2-4dc0-9a9b-53e091a50074",
      "renderPriority" : "NEUTRAL",
      "renditionMap" : { },
      "type" : "component"
    } ],
    "id" : "2652540a-88fc-4961-ad9a-8ed61fa119ba",
    "regionName" : "sidebar",
    "type" : "region"
  }, {
    "id" : "c1ce8c60-9945-4a7f-8ea7-c5de0c6cdf86",
    "regionName" : "footer",
    "type" : "region"
  }, {
    "components" : [ {
      "componentAttributes" : {
        "customHeadTags" : "",
        "description" : "{!Record.Description}",
        "title" : "{!Record._Title}"
      },
      "componentName" : "forceCommunity:seoAssistant",
      "id" : "c9ef6421-9df3-459b-8736-b83138b97bdb",
      "renditionMap" : { },
      "type" : "component"
    } ],
    "id" : "8b4caab8-749c-41bc-8f30-62cc18239725",
    "regionName" : "sfdcHiddenRegion",
    "type" : "region"
  } ],
  "themeLayoutType" : "Inner",
  "type" : "view",
  "viewType" : "topic"
}