{
  "appPageId" : "326b036c-6d34-4135-bc1a-94e9c2e7aa91",
  "componentName" : "siteforce:sldsOneColLayout",
  "dataProviders" : [ ],
  "id" : "e4788046-279a-4de3-9e1c-8ece2bd26aaa",
  "label" : "User Settings",
  "regions" : [ {
    "id" : "f38636c8-b7c3-470a-8773-a35f57982454",
    "regionName" : "header",
    "type" : "region"
  }, {
    "components" : [ {
      "componentAttributes" : {
        "hideConnectedSources" : false,
        "hideEmailNotificationSettings" : false,
        "id" : "{!userId}"
      },
      "componentName" : "forceCommunity:userSettings",
      "id" : "0bec3bf8-289d-46ce-9be2-8cc3a251a944",
      "renderPriority" : "NEUTRAL",
      "renditionMap" : { },
      "type" : "component"
    } ],
    "id" : "2e175517-c532-49fe-af78-4ac6f4e3ce54",
    "regionName" : "content",
    "type" : "region"
  }, {
    "id" : "70449204-f856-4e8e-a4fb-79d13c2090c2",
    "regionName" : "footer",
    "type" : "region"
  } ],
  "themeLayoutType" : "Inner",
  "type" : "view",
  "viewType" : "usersettings"
}