{
  "activeViewId" : "0eaa1f85-cfe2-4279-a9c6-c0d76996d90b",
  "appPageId" : "5c8bb251-9c34-40d6-ae9f-1b0b775e2bf5",
  "configurationTags" : [ ],
  "devName" : "Forgot_Password",
  "id" : "5096976f-a15f-40bb-91f3-67dd511b9c4a",
  "label" : "Forgot Password",
  "routeType" : "forgot-password",
  "type" : "route",
  "urlPrefix" : "ForgotPassword"
}