{
  "appPageId" : "484e374f-a2dc-4341-b436-4fe8fed9ea1e",
  "componentName" : "siteforce:sldsOneColLayout",
  "dataProviders" : [ ],
  "id" : "3682235f-392e-43c5-9854-82662f69fd21",
  "label" : "Content Document Related List",
  "regions" : [ {
    "id" : "fcd3c6f2-2740-4b76-abc1-8934fa8b31ee",
    "regionName" : "header",
    "type" : "region"
  }, {
    "components" : [ {
      "componentAttributes" : {
        "customTitle" : "",
        "parentRecordId" : "{!recordId}",
        "relatedListName" : "{!relationshipApiName}",
        "showBreadCrumbs" : true,
        "showCustomTitle" : false,
        "showManualRefreshButton" : true,
        "showRowNumbers" : true
      },
      "componentName" : "forceCommunity:relatedList",
      "id" : "8b06137a-860a-4b22-8029-25c1cb4a4223",
      "renderPriority" : "NEUTRAL",
      "renditionMap" : { },
      "type" : "component"
    } ],
    "id" : "e52dbfec-bcd8-4eae-b92d-85e6b6ff1a9c",
    "regionName" : "content",
    "type" : "region"
  }, {
    "id" : "9e00a818-98b5-4d58-921f-1f3009368480",
    "regionName" : "footer",
    "type" : "region"
  } ],
  "themeLayoutType" : "Inner",
  "type" : "view",
  "viewType" : "relatedlist-069"
}