{
  "appPageId" : "484e374f-a2dc-4341-b436-4fe8fed9ea1e",
  "componentName" : "siteforce:sldsOneColLayout",
  "dataProviders" : [ ],
  "id" : "7c904c3f-2bd9-4bf3-8f82-5a10afdd4dba",
  "label" : "Related Record List",
  "regions" : [ {
    "id" : "d2b5e9f5-5362-425e-b90f-1dc3edc09d61",
    "regionName" : "header",
    "type" : "region"
  }, {
    "components" : [ {
      "componentAttributes" : {
        "customTitle" : "",
        "parentRecordId" : "{!recordId}",
        "relatedListName" : "{!relationshipApiName}",
        "showBreadCrumbs" : true,
        "showCustomTitle" : false,
        "showManualRefreshButton" : true,
        "showRowNumbers" : true
      },
      "componentName" : "forceCommunity:relatedList",
      "id" : "b6928885-69da-40ee-bbcd-0a7d5a343f71",
      "renderPriority" : "NEUTRAL",
      "renditionMap" : { },
      "type" : "component"
    } ],
    "id" : "53b98525-7320-455e-83a4-bb72b45ad6d1",
    "regionName" : "content",
    "type" : "region"
  }, {
    "id" : "9cf978e4-08c9-4715-a37b-e9ff4ce4b603",
    "regionName" : "footer",
    "type" : "region"
  } ],
  "themeLayoutType" : "Inner",
  "type" : "view",
  "viewType" : "relatedlist"
}