{
  "type" : "sfdc_cms__view",
  "title" : "News Detail",
  "contentBody" : {
    "component" : {
      "children" : [ {
        "children" : [ {
          "attributes" : {
            "backgroundImageConfig" : "",
            "backgroundImageOverlay" : "rgba(0,0,0,0)",
            "componentSpacerSize" : "",
            "layoutDirectionDesktop" : "row",
            "layoutDirectionMobile" : "column",
            "layoutDirectionTablet" : "column",
            "maxContentWidth" : "",
            "sectionColumnGutterWidth" : "",
            "sectionConfig" : "{\"UUID\":\"3fab02b7-b20d-4370-b157-e1974cb3e18c\",\"columns\":[{\"UUID\":\"6283fbbf-d31e-41ba-85f1-6d2211288da4\",\"columnName\":\"Column 1\",\"columnKey\":\"col1\",\"columnWidth\":\"12\",\"seedComponents\":[]}]}",
            "sectionMinHeight" : "",
            "sectionVerticalAlign" : "flex-start"
          },
          "children" : [ {
            "id" : "6283fbbf-d31e-41ba-85f1-6d2211288da4",
            "name" : "col1",
            "title" : "Column 1",
            "type" : "region"
          } ],
          "definition" : "community_layout:section",
          "id" : "3fab02b7-b20d-4370-b157-e1974cb3e18c",
          "type" : "component"
        } ],
        "id" : "dbad67bc-7ef6-41c1-8693-2847abf70da0",
        "name" : "content",
        "title" : "Content",
        "type" : "region"
      }, {
        "children" : [ {
          "attributes" : {
            "customHeadTags" : "",
            "description" : "",
            "pageTitle" : "{!Content.contentTypeLabel}.{!Content.title}",
            "recordId" : "{!recordId}"
          },
          "definition" : "community_builder:seoAssistant",
          "id" : "4d659a9f-d0e7-40b5-b7e2-25ab7320d640",
          "type" : "component"
        } ],
        "id" : "c847b186-d3cc-41b1-ac55-3c7ef92c14fd",
        "name" : "sfdcHiddenRegion",
        "title" : "sfdcHiddenRegion",
        "type" : "region"
      } ],
      "definition" : "community_layout:sldsFlexibleLayout",
      "id" : "64563643-e5cb-4307-899e-b9ec2d85c892",
      "type" : "component"
    },
    "dataProviders" : [ ],
    "themeLayoutType" : "Inner",
    "viewType" : "managed-content-sfdc_cms__news"
  },
  "urlName" : "news-detail"
}