{
  "type" : "sfdc_cms__view",
  "title" : "Register",
  "contentBody" : {
    "component" : {
      "children" : [ {
        "attributes" : {
          "billingAddressInfo" : "[{\"labelText\": \"Adresse de facturation\",\"helperText\": \"Entrez l'adresse légale de votre entreprise à laquelle envoyer nos factures\"}]",
          "billingCountryLabel" : "Pays",
          "billingStreetAddressLabel" : "Rue",
          "billingPostalCodeLabel" : "Code postal",
          "billingCityLabel" : "Ville",
          "billingStateLabel" : "État/Province",
          "shippingAddressEqualBillingAddressInfo" : "[{\"labelText\": \"L'adresse de livraison est la même que l'adresse de facturation\",\"helperText\": \"Vérifiez si l'adresse de livraison est la même que l'adresse de facturation\"}]",
          "shippingAddressInfo" : "[{\"labelText\": \"Adresse de livraison\",\"helperText\": \"Entrez l'adresse d'expédition (si différente de l'adresse de facturation)\"}]",
          "accountNameInfo" : "[{\"labelText\": \"Nom de l'entreprise\",\"helperText\": \"Entrez le nom de votre entreprise\"}]",
          "accountVATNumberInfo" : "[{\"labelText\": \"Numéro de TVA\",\"helperText\": \"Entrez le numéro de TVA de votre entreprise\"}]",
          "accountFiscalCodeInfo" : "[{\"labelText\": \"Numéro SIRET\",\"helperText\": \"En France - un identifiant à 14 chiffres qui comprend le numéro SIREN et un numéro supplémentaire à cinq chiffres qui représente le lieu ou l'établissement spécifique de l'entreprise\"}]",
          "accountInvoiceEmailInfo" : "[{\"labelText\": \"E-mail de la facture\",\"helperText\": \"Entrez l'e-mail de la facture de votre achat\"}]",
          "contactFirstNameInfo" : "[{\"labelText\": \"Prénom\",\"helperText\": \"Entrez le prénom\"}]",
          "contactLastNameInfo" : "[{\"labelText\": \"Nom de famille\",\"helperText\": \"Entrez le nom de famille\"}]",
          "contactPhoneNumberInfo" : "[{\"labelText\": \"Numéro de téléphone\",\"helperText\": \"Entrez le numéro de téléphone avec le code du pays\"}]",
          "contactEmailInfo" : "[{\"labelText\": \"Email\",\"helperText\": \"Entrez votre adresse e-mail\"}]",
          "passwordInfo" : "[{\"labelText\": \"Mot de passe\",\"helperText\": \"Le mot de passe doit comporter au moins 10 caractères, contenir des caractères alphanumériques majuscules et minuscules et des caractères spéciaux\"}]",
          "passwordConfirmationInfo" : "[{\"labelText\": \"Confirmation du mot de passe\",\"helperText\": \"Veuillez saisir à nouveau le mot de passe pour confirmation\"}]",
          "acceptLabel" : "J'accepte",
          "generalTermsConditionsLabel" : "les conditions générales et je comprends la déclaration de confidentialité des données",
          "submitButtonLabel" : "Créer un compte"
        },
        "id" : "d0147aa0-80e4-42cc-a95c-ce7b3365d638"
      } ]
    }
  },
  "urlName" : "register"
}