{
  "activeViewId" : "8d4a5fb9-fcf1-4ad7-8948-781c1a25d9ef",
  "appPageId" : "37c689f1-e7d8-4710-bbf9-086787e4b949",
  "configurationTags" : [ ],
  "devName" : "Case_Related_List",
  "id" : "bc5859ab-e0c1-47bb-810d-ba6233f06feb",
  "label" : "Case Related List",
  "routeType" : "relatedlist-500",
  "type" : "route",
  "urlPrefix" : "case"
}