{
  "activeViewId" : "4c752f56-d9b6-4465-b3b5-f3a8bb5e1127",
  "appPageId" : "37c689f1-e7d8-4710-bbf9-086787e4b949",
  "configurationTags" : [ ],
  "devName" : "Group_Detail",
  "id" : "e464557b-1fa9-4d53-a06a-e51cc6eacebd",
  "label" : "Group Detail",
  "routeType" : "detail-0F9",
  "type" : "route",
  "urlPrefix" : "group"
}