{
  "activeViewId" : "bb7c0255-f093-4734-a20d-e813a4a85b7f",
  "appPageId" : "37c689f1-e7d8-4710-bbf9-086787e4b949",
  "configurationTags" : [ ],
  "devName" : "Topic_Detail",
  "id" : "800e81ef-8377-4092-a080-a4758b247c91",
  "label" : "Topic Detail",
  "routeType" : "topic",
  "type" : "route",
  "urlPrefix" : "topic"
}