{
  "appPageId" : "0737d108-46a1-4a98-8087-a854820a7e35",
  "componentName" : "siteforce:sldsOneColLayout",
  "dataProviders" : [ ],
  "id" : "efb94b2a-3845-4a4d-ba9d-f8a71387f727",
  "label" : "Asset Detail (1)",
  "regions" : [ {
    "id" : "4ab91564-8976-4fd8-8e5e-4847b8984e2e",
    "regionName" : "header",
    "type" : "region"
  }, {
    "components" : [ {
      "componentAttributes" : {
        "recordId" : "{!recordId}"
      },
      "componentName" : "forceCommunity:recordHeadline",
      "id" : "69e1e289-a4e8-4a9a-b490-7ccc23282eb3",
      "renderPriority" : "NEUTRAL",
      "renditionMap" : { },
      "type" : "component"
    }, {
      "componentAttributes" : {
        "tabsetConfig" : {
          "UUID" : "ab2e600c-3af7-4bb3-9a5c-d335f4f5dfeb",
          "activeTab" : "",
          "tabs" : [ {
            "UUID" : "c6690bf0-4847-4d83-8bce-2b8381966b53",
            "allowGuestUser" : false,
            "locked" : false,
            "seedComponents" : [ ],
            "tabKey" : "1",
            "tabName" : "Details"
          }, {
            "UUID" : "cb2e4792-bab8-4043-91e4-e0e7cc2a82e2",
            "allowGuestUser" : false,
            "locked" : false,
            "seedComponents" : [ ],
            "tabKey" : "719d7",
            "tabName" : "Real-Time Data"
          }, {
            "UUID" : "c262125e-c939-4dd7-89b7-6a985681bfe2",
            "allowGuestUser" : false,
            "locked" : false,
            "seedComponents" : [ ],
            "tabKey" : "aa396",
            "tabName" : "Service Activities"
          }, {
            "UUID" : "25057765-8a22-4347-8bbd-c30f53740ec8",
            "allowGuestUser" : false,
            "locked" : false,
            "seedComponents" : [ ],
            "tabKey" : "bd690",
            "tabName" : "Helix Alarm Events"
          }, {
            "UUID" : "45b9e3ec-c304-481d-a54e-b2bce286dbd2",
            "allowGuestUser" : false,
            "locked" : false,
            "seedComponents" : [ ],
            "tabKey" : "2",
            "tabName" : "Notification Subscriptions"
          }, {
            "UUID" : "e0d25ffc-5172-44ef-b9b4-97927d844d75",
            "allowGuestUser" : false,
            "locked" : false,
            "seedComponents" : [ ],
            "tabKey" : "6c575",
            "tabName" : "Related Records"
          } ],
          "useOverflowMenu" : false
        }
      },
      "componentName" : "forceCommunity:tabset",
      "id" : "ab2e600c-3af7-4bb3-9a5c-d335f4f5dfeb",
      "regions" : [ {
        "components" : [ {
          "componentAttributes" : {
            "detailsTabLabel" : "Details",
            "discussionsTabLabel" : "Feed",
            "recordId" : "{!recordId}",
            "relatedTabLabel" : "Related",
            "tab1Type" : "details",
            "tab2Type" : "none",
            "tab3Type" : "none",
            "tab4Type" : "none",
            "timelineTabLabel" : "Activity"
          },
          "componentName" : "forceCommunity:recordHomeTabs",
          "id" : "fdb15ce3-dbdd-47b5-be2c-4f82775ba900",
          "renditionMap" : { },
          "type" : "component"
        } ],
        "id" : "c6690bf0-4847-4d83-8bce-2b8381966b53",
        "regionLabel" : "Details",
        "regionName" : "1",
        "renditionMap" : { },
        "type" : "region"
      }, {
        "components" : [ {
          "componentAttributes" : { },
          "componentName" : "c:CTS_IOT_Asset_Losant_Detail",
          "id" : "2851d644-4d87-4846-8412-c6818ac11ff5",
          "renditionMap" : { },
          "type" : "component"
        } ],
        "id" : "cb2e4792-bab8-4043-91e4-e0e7cc2a82e2",
        "regionLabel" : "Real-Time Data",
        "regionName" : "719d7",
        "renditionMap" : { },
        "type" : "region"
      }, {
        "components" : [ {
          "componentAttributes" : {
            "relatedListApiName" : "Service_Activities__r",
            "relatedListComponentOverride" : "GRID",
            "width" : "MEDIUM"
          },
          "componentName" : "forceCommunity:responsiveRelatedListSingle",
          "id" : "a0904e17-8731-4ccf-a2d2-3788fc22fc82",
          "renditionMap" : { },
          "type" : "component"
        } ],
        "id" : "c262125e-c939-4dd7-89b7-6a985681bfe2",
        "regionLabel" : "Service Activities",
        "regionName" : "aa396",
        "renditionMap" : { },
        "type" : "region"
      }, {
        "components" : [ {
          "componentAttributes" : {
            "recordId" : "{!recordId}"
          },
          "componentName" : "c:cTS_IOT_Asset_Helix_Message",
          "id" : "403793a9-198a-4129-bf2f-505b18dbe02b",
          "renditionMap" : { },
          "type" : "component"
        }, {
          "componentAttributes" : {
            "relatedListApiName" : "RMS_Events__r",
            "relatedListComponentOverride" : "GRID",
            "width" : "MEDIUM"
          },
          "componentName" : "forceCommunity:responsiveRelatedListSingle",
          "id" : "50d22ce8-4563-4a7b-a3b4-539c81ad3053",
          "renditionMap" : { },
          "type" : "component"
        } ],
        "id" : "25057765-8a22-4347-8bbd-c30f53740ec8",
        "regionLabel" : "Helix Alarm Events",
        "regionName" : "bd690",
        "renditionMap" : { },
        "type" : "region"
      }, {
        "components" : [ {
          "componentAttributes" : { },
          "componentName" : "c:manage_Notification_Subscriptions",
          "id" : "8e4abaa7-2bc9-48bf-9171-769c40875015",
          "renditionMap" : { },
          "type" : "component"
        } ],
        "id" : "45b9e3ec-c304-481d-a54e-b2bce286dbd2",
        "regionLabel" : "Notification Subscriptions",
        "regionName" : "2",
        "renditionMap" : { },
        "type" : "region"
      }, {
        "components" : [ {
          "componentAttributes" : {
            "recordId" : "{!recordId}",
            "width" : "MEDIUM"
          },
          "componentName" : "forceCommunity:relatedRecords",
          "id" : "2db338b6-ed1a-4b6c-beee-727ff8f28972",
          "renditionMap" : { },
          "type" : "component"
        } ],
        "id" : "e0d25ffc-5172-44ef-b9b4-97927d844d75",
        "regionLabel" : "Related Records",
        "regionName" : "6c575",
        "renditionMap" : { },
        "type" : "region"
      } ],
      "renderPriority" : "NEUTRAL",
      "renditionMap" : { },
      "type" : "component"
    } ],
    "id" : "dd717790-4473-4c2f-a994-5094b912f720",
    "regionName" : "content",
    "type" : "region"
  }, {
    "id" : "30c5115b-c87c-4886-87c4-18ac9a516d71",
    "regionName" : "footer",
    "type" : "region"
  }, {
    "components" : [ {
      "componentAttributes" : {
        "customHeadTags" : "",
        "description" : "",
        "title" : "{!Record._Object}: {!Record._Title}"
      },
      "componentName" : "forceCommunity:seoAssistant",
      "id" : "9b4ad7a3-c81d-4854-9aad-1062dd7daa35",
      "renditionMap" : { },
      "type" : "component"
    } ],
    "id" : "8d8f7bd4-cc73-4dc0-8458-e897eb8534cd",
    "regionName" : "sfdcHiddenRegion",
    "type" : "region"
  } ],
  "themeLayoutType" : "Inner",
  "type" : "view",
  "viewType" : "detail-02i"
}