{
  "appPageId" : "0737d108-46a1-4a98-8087-a854820a7e35",
  "componentName" : "siteforce:sldsOneColLayout",
  "dataProviders" : [ ],
  "id" : "89fe20c1-e969-498c-94ae-e2b7adfc8df8",
  "label" : "Case Related List",
  "regions" : [ {
    "id" : "42c475c4-2b8e-4624-b202-9ce4ed61f894",
    "regionName" : "header",
    "type" : "region"
  }, {
    "components" : [ {
      "componentAttributes" : {
        "customTitle" : "",
        "parentRecordId" : "{!recordId}",
        "relatedListName" : "{!relationshipApiName}",
        "showBreadCrumbs" : true,
        "showCustomTitle" : false,
        "showManualRefreshButton" : true,
        "showRowNumbers" : true
      },
      "componentName" : "forceCommunity:relatedList",
      "id" : "ba4d8854-a22b-4eb2-8d5f-cbadbc086035",
      "renderPriority" : "NEUTRAL",
      "renditionMap" : { },
      "type" : "component"
    } ],
    "id" : "af447eda-21a6-479e-9352-f7f9fecc4b55",
    "regionName" : "content",
    "type" : "region"
  }, {
    "id" : "ffd755a5-56e7-41d1-a808-83d6be313fe5",
    "regionName" : "footer",
    "type" : "region"
  } ],
  "themeLayoutType" : "Inner",
  "type" : "view",
  "viewType" : "relatedlist-500"
}