{
  "appPageId" : "c98fa2c8-b049-4c9b-a2a5-4f05c7e1eb5d",
  "componentName" : "siteforce:sldsOneColLayout",
  "dataProviders" : [ ],
  "id" : "32b5d8dc-7454-45dd-9311-676a4fc90138",
  "label" : "Forgot Password",
  "regions" : [ {
    "components" : [ {
      "componentAttributes" : { },
      "componentName" : "salesforceIdentity:communityLogo2",
      "id" : "d74bf790-a5f6-4356-8806-eac3c11c6969",
      "renderPriority" : "NEUTRAL",
      "renditionMap" : { },
      "type" : "component"
    }, {
      "componentAttributes" : {
        "richTextValue" : "<p style=\"text-align: center;\"><b style=\"font-size: 22px;\">Password Reset</b></p>"
      },
      "componentName" : "forceCommunity:richTextInline",
      "id" : "06746636-cb4a-4223-b9a4-439a0844d026",
      "renderPriority" : "NEUTRAL",
      "renditionMap" : { },
      "type" : "component"
    }, {
      "componentAttributes" : {
        "richTextValue" : "<div style=\"text-align: center;\">To reset your password, we'll need your username.<br/> We'll send password reset instructions to the email address associated with your account.</div>"
      },
      "componentName" : "forceCommunity:richTextInline",
      "id" : "0578056c-a9dc-4b36-920f-ed8c28b80e6b",
      "renderPriority" : "NEUTRAL",
      "renditionMap" : { },
      "type" : "component"
    }, {
      "componentAttributes" : {
        "checkEmailUrl" : "./CheckPasswordResetEmail",
        "submitButtonLabel" : "Reset Password",
        "usernameLabel" : "Email/User ID"
      },
      "componentName" : "salesforceIdentity:forgotPassword2",
      "id" : "4bbf6c60-9a18-4da8-bc35-853a9f9e433b",
      "renderPriority" : "NEUTRAL",
      "renditionMap" : { },
      "type" : "component"
    }, {
      "componentAttributes" : {
        "richTextValue" : "<p style=\"text-align: center;\"><a href=\"./\" target=\"_blank\">Return to Login</a></p>"
      },
      "componentName" : "forceCommunity:richTextInline",
      "id" : "918a5e4a-e1c7-42b2-85af-2f5242f4fb73",
      "renderPriority" : "NEUTRAL",
      "renditionMap" : { },
      "type" : "component"
    } ],
    "id" : "6caa5ddb-ed25-43fc-9174-9f6c68aab433",
    "regionName" : "content",
    "type" : "region"
  }, {
    "components" : [ {
      "componentAttributes" : {
        "customHeadTags" : "",
        "description" : "",
        "title" : "Forgot Password"
      },
      "componentName" : "forceCommunity:seoAssistant",
      "id" : "16a2d0ff-679d-47ac-890b-85c719725e75",
      "renditionMap" : { },
      "type" : "component"
    } ],
    "id" : "8b2a205b-11cf-49e9-9808-2b2ad6db7a54",
    "regionName" : "sfdcHiddenRegion",
    "type" : "region"
  } ],
  "themeLayoutType" : "Login",
  "type" : "view",
  "viewType" : "forgot-password"
}