{
  "appPageId" : "0737d108-46a1-4a98-8087-a854820a7e35",
  "componentName" : "siteforce:sldsOneColLayout",
  "dataProviders" : [ ],
  "id" : "a4eaa9d6-a294-4a6d-821b-7be6ef4d6670",
  "label" : "Group List",
  "regions" : [ {
    "id" : "077679d7-0811-4284-9489-da496adbd716",
    "regionName" : "header",
    "type" : "region"
  }, {
    "components" : [ {
      "componentAttributes" : { },
      "componentName" : "forceCommunity:groupObjectHome",
      "id" : "47cc87df-bbb7-47f9-8c64-fe899643406c",
      "renderPriority" : "NEUTRAL",
      "renditionMap" : { },
      "type" : "component"
    } ],
    "id" : "dd0c6070-f424-4f6c-bacd-9659a94f19d8",
    "regionName" : "content",
    "type" : "region"
  }, {
    "id" : "c1a48dcf-5c1e-44a2-b9e3-97d8340f5269",
    "regionName" : "footer",
    "type" : "region"
  } ],
  "themeLayoutType" : "Inner",
  "type" : "view",
  "viewType" : "list-0F9"
}