{
  "appPageId" : "0737d108-46a1-4a98-8087-a854820a7e35",
  "componentName" : "siteforce:sldsOneColLayout",
  "dataProviders" : [ ],
  "id" : "97909d5b-84d8-4dcc-a60a-65db564aafc8",
  "label" : "Report Builder",
  "regions" : [ {
    "id" : "238da7af-d09d-466e-8086-42ddd9f204bf",
    "regionName" : "header",
    "type" : "region"
  }, {
    "components" : [ {
      "componentAttributes" : {
        "recordId" : "{!recordId}"
      },
      "componentName" : "forceCommunity:reportBuilder",
      "id" : "cc2aebe2-ef2e-4688-a23c-06a567ee619c",
      "renderPriority" : "NEUTRAL",
      "renditionMap" : { },
      "type" : "component"
    } ],
    "id" : "a1afe55b-8d68-4cae-b389-c2538fb276fe",
    "regionName" : "content",
    "type" : "region"
  }, {
    "id" : "0209260e-8707-42d8-9c2c-d3a797a961a6",
    "regionName" : "footer",
    "type" : "region"
  } ],
  "themeLayoutType" : "Inner",
  "type" : "view",
  "viewType" : "createreport"
}