{
  "appPageId" : "0737d108-46a1-4a98-8087-a854820a7e35",
  "componentName" : "siteforce:sldsOneColLayout",
  "dataProviders" : [ ],
  "id" : "83b96f90-29ce-4201-9017-99d9e5a6a46a",
  "label" : "User Profile",
  "regions" : [ {
    "id" : "55e48e47-5e7c-4d72-8ed0-066d236bf70c",
    "regionName" : "header",
    "type" : "region"
  }, {
    "components" : [ {
      "componentAttributes" : {
        "caseCreateLabel" : "",
        "caseFilterName" : "",
        "caseHeaderLabel" : "",
        "casesTabLabel" : "",
        "detailsTabLabel" : "Details",
        "feedTabLabel" : "",
        "knowledgeableAboutTitle" : "Knows About",
        "maxTopics" : 5,
        "recognitionbuttonLabel" : "",
        "relatedTabLabel" : "",
        "showAllUpdates" : false,
        "showBadges" : false,
        "showFullPhotoAsCircle" : true,
        "showKnowledgeableAbout" : false,
        "showRelatedList" : false,
        "showReputationInInfluenceCard" : false,
        "showStats" : false,
        "userBadgesTitle" : "",
        "userId" : "{!recordId}",
        "userStatsTitle" : ""
      },
      "componentName" : "forceCommunity:userRecordHome",
      "id" : "ade8cc71-e4f2-49f0-a43c-e7a943d07b4d",
      "renderPriority" : "NEUTRAL",
      "renditionMap" : { },
      "type" : "component"
    } ],
    "id" : "e4953941-00cf-47c5-a82c-35ed4b43da4b",
    "regionName" : "content",
    "type" : "region"
  }, {
    "id" : "26e66e60-2aa1-4164-a733-7a7cfdb0439d",
    "regionName" : "footer",
    "type" : "region"
  } ],
  "themeLayoutType" : "Inner",
  "type" : "view",
  "viewType" : "detail-005"
}