{
  "appPageId" : "0737d108-46a1-4a98-8087-a854820a7e35",
  "componentName" : "siteforce:sldsOneColLayout",
  "dataProviders" : [ ],
  "id" : "2475482c-5308-4039-9567-752295a9e72c",
  "label" : "User List",
  "regions" : [ {
    "id" : "7d8a4caf-55c3-43e2-b83e-3fb6baecc3af",
    "regionName" : "header",
    "type" : "region"
  }, {
    "id" : "a2d751c0-259c-4232-932a-00bcce052f97",
    "regionName" : "content",
    "type" : "region"
  }, {
    "id" : "47843c16-4a04-4515-9216-547acc99dc7f",
    "regionName" : "footer",
    "type" : "region"
  } ],
  "themeLayoutType" : "Inner",
  "type" : "view",
  "viewType" : "list-005"
}