{
  "activeViewId" : "8817063b-db0f-4dee-82c7-5fdb748481bb",
  "appPageId" : "0737d108-46a1-4a98-8087-a854820a7e35",
  "configurationTags" : [ ],
  "devName" : "Asset_Related_List__c",
  "id" : "e43cba7d-75c0-4753-a2f8-d5a2b1202cf2",
  "label" : "Asset Related List",
  "routeType" : "relatedlist-02i",
  "type" : "route",
  "urlPrefix" : "asset"
}