{
  "activeViewId" : "ae30bf54-8529-4061-973e-661ccc703e43",
  "appPageId" : "0737d108-46a1-4a98-8087-a854820a7e35",
  "configurationTags" : [ ],
  "devName" : "Dashboard_List",
  "id" : "922055a3-fa7b-4310-974d-365b1c5f72e1",
  "label" : "Dashboard List",
  "routeType" : "list-01Z",
  "type" : "route",
  "urlPrefix" : "dashboard"
}