{
  "activeViewId" : "dbfcf7f7-f07d-462a-b586-3e4cdecf898d",
  "appPageId" : "0737d108-46a1-4a98-8087-a854820a7e35",
  "configurationTags" : [ ],
  "devName" : "Group_Related_List",
  "id" : "083e526d-983d-4ee5-9a4d-24ec03757199",
  "label" : "Group Related List",
  "routeType" : "relatedlist-0F9",
  "type" : "route",
  "urlPrefix" : "group"
}