{
  "activeViewId" : "21864ccd-b310-4323-b56a-04008680fd3a",
  "appPageId" : "0737d108-46a1-4a98-8087-a854820a7e35",
  "configurationTags" : [ ],
  "devName" : "IOT_Dashboard2__c",
  "id" : "e1f4ff41-a749-4578-8a71-b8e08faf9fd1",
  "label" : "IOT Dashboard2",
  "pageAccess" : "UseParent",
  "routeType" : "custom-iot-dashboard2",
  "type" : "route",
  "urlPrefix" : "iot-dashboard2"
}