{
  "activeViewId" : "95a63278-0d35-48a2-8cf2-53fd15830357",
  "appPageId" : "0737d108-46a1-4a98-8087-a854820a7e35",
  "configurationTags" : [ ],
  "devName" : "Stream_List",
  "id" : "aeff7795-de0e-42f3-843e-0b782dd8c57c",
  "label" : "Stream List",
  "routeType" : "list-0Fq",
  "type" : "route",
  "urlPrefix" : "streams"
}