{
  "activeViewId" : "1d3308fe-0956-415a-9cd9-58b094bc32be",
  "appPageId" : "0737d108-46a1-4a98-8087-a854820a7e35",
  "configurationTags" : [ ],
  "devName" : "Top_Articles",
  "id" : "01274aa0-e6da-49ce-95c3-03859f0d027a",
  "label" : "Top Articles",
  "pageAccess" : "UseParent",
  "routeType" : "top-articles",
  "type" : "route",
  "urlPrefix" : "toparticles"
}