{
  "type" : "sfdc_cms__view",
  "title" : "Home",
  "contentBody" : {
    "component" : {
      "children" : [ {
        "attributes" : {
          "headerText" : "Trouvez les pièces de rechange en quelques clics"
        },
        "id" : "5d99b4ea-c298-43ad-bc47-0deacdf5f635"
      }, {
        "attributes" : {
          "pageTitle" : "Maison"
        },
        "id" : "98e4db65-a2ed-4e07-a0f0-855a752ceab5"
      }, {
        "id" : "da940cd1-175f-4df3-8019-4b2e2a9cc398",
        "attributes" : {
          "pageTitle" : "Recherchez des pièces par modèle de machine, taille de châssis # et par taille d'extrémité d'air #",
          "partsForRoboxLobeMachineLabel" : "Pièces pour machines EL/ES",
          "partsForRoboxScrew_f_MachineLabel" : "Pièces pour machines RSW WL/WS (F)",
          "partsForRoboxScrew_s_MachineLabel" : "Pièces pour machines RSW WL/WS (S)",
          "partsForRoboxLobeMachineLegacyLabel" : "Pièces de rechange pour d'autres modèles ES/EL:",
          "allRoboxLobefilterLabel" : "Toutes les pièces Robox Lobe EL/ES",
          "allRoboxScrewfilterLabel" : "Toutes les pièces Robox Screw RSW"
        }
      }, {
        "id" : "4b5a2997-0ee2-47ed-a224-afaf3ef4e622",
        "attributes" : {
          "noOrderMessageText" : "Après avoir passé une commande, elle apparaît ici.",
          "noResultsText" : "Pour afficher les articles achetés, ajustez vos filtres.",
          "showMoreLabel" : "Montre plus",
          "viewDetailsLinkLabel" : "Voir les détails",
          "reorderLabel" : "Racheter",
          "orderSummaryFieldMapping" : "[{\"entity\":\"OrderSummary\",\"name\":\"OrderNumber\",\"label\":\"Le numéro de commande\",\"type\":\"Text(255)\",\"expression\":\"{!OrderSummary.OrderSummary.OrderNumber}\"},{\"entity\":\"OrderSummary\",\"name\":\"OrderedDate\",\"label\":\"Date d'achat\",\"type\":\"Date/Time\",\"expression\":\"{!OrderSummary.OrderSummary.OrderedDate}\"},{\"entity\":\"OrderSummary\",\"name\":\"Status\",\"label\":\"Statu\",\"type\":\"Picklist\",\"expression\":\"{!OrderSummary.OrderSummary.Status}\"},{\"entity\":\"OrderSummary\",\"name\":\"GrandTotalAmount\",\"label\":\"Total\",\"type\":\"Formula (Currency)\",\"expression\":\"{!OrderSummary.OrderSummary.GrandTotalAmount}\"}]"
        }
      } ]
    }
  },
  "urlName" : "home"
}