{
  "type" : "sfdc_cms__view",
  "title" : "Split Shipment",
  "contentBody" : {
    "component" : {
      "children" : [ {
        "children" : [ {
          "attributes" : {
            "backgroundImageConfig" : "",
            "backgroundImageOverlay" : "rgba(0,0,0,0)",
            "componentSpacerSize" : "",
            "dxpStyle" : { },
            "maxContentWidth" : "",
            "sectionColumnGutterWidth" : "",
            "sectionConfig" : "{\"UUID\":\"167d7cbc-b565-4940-b2c9-5ca90337cc8a\",\"columns\":[{\"UUID\":\"984debee-75f3-4fc9-9470-67602be6ba1c\",\"columnName\":\"Column 1\",\"columnKey\":\"col1\",\"columnWidth\":\"12\",\"seedComponents\":[]}]}"
          },
          "children" : [ {
            "children" : [ {
              "attributes" : {
                "dxpStyle" : { }
              },
              "children" : [ {
                "children" : [ {
                  "attributes" : {
                    "backgroundColor" : "",
                    "dxpStyle" : { },
                    "isLinkable" : false,
                    "linkAssistiveText" : "",
                    "paddingHorizontal" : "none",
                    "paddingVertical" : "none",
                    "text" : "Split Shipment",
                    "textAlign" : "left",
                    "textDecoration" : "{\"bold\": true}",
                    "textDisplayInfo" : "{\"headingTag\": \"h3\", \"textStyle\": \"heading-medium\"}"
                  },
                  "definition" : "dxp_base:textBlock",
                  "id" : "9506bb06-e09a-4cfe-8b53-ca936295c3bc",
                  "type" : "component"
                } ],
                "id" : "a125b04d-db3e-4291-9c16-b5b2ead6166d",
                "name" : "splitShipmentTitle",
                "title" : "splitShipmentTitle",
                "type" : "region"
              }, {
                "children" : [ {
                  "attributes" : {
                    "dxpStyle" : { },
                    "size" : "standard",
                    "text" : "Save & Checkout",
                    "variant" : "primary",
                    "width" : "stretch"
                  },
                  "definition" : "commerce_builder:actionButton",
                  "id" : "1fdfc3b5-f9cd-4584-a24c-5fcaab82ec5e",
                  "type" : "component"
                } ],
                "id" : "ed18f6f8-942f-49ce-9268-ea91ecb9ef5d",
                "name" : "saveAndCheckoutButton",
                "title" : "saveAndCheckoutButton",
                "type" : "region"
              } ],
              "definition" : "commerce_builder:splitShipmentHeader",
              "id" : "308b98cc-4ebc-4c9a-89d7-be794598aed8",
              "type" : "component"
            }, {
              "attributes" : {
                "addresses" : "{!SplitShipment.Addresses.items}",
                "deliveryGroups" : "{!SplitShipment.DeliveryGroups.items}",
                "dxpStyle" : { },
                "incrementValueGuideText" : "Sold in increments of {0}",
                "maximumValueGuideText" : "Maximum quantity is {0}",
                "minimumValueGuideText" : "Minimum quantity is {0}",
                "priceTextSize" : "small",
                "products" : "{!SplitShipment.Cart.items}",
                "showProductImage" : true,
                "showProductVariants" : true,
                "showSku" : false,
                "skuLabel" : "SKU# {0}",
                "splitShipPagination" : "{!SplitShipment.Cart.pagination}"
              },
              "definition" : "commerce_builder:splitShipmentCartContents",
              "id" : "69b37ca2-75a9-4c48-8447-f0e5e5831cc8",
              "type" : "component"
            } ],
            "id" : "984debee-75f3-4fc9-9470-67602be6ba1c",
            "name" : "col1",
            "title" : "Column 1",
            "type" : "region"
          } ],
          "definition" : "community_layout:section",
          "id" : "167d7cbc-b565-4940-b2c9-5ca90337cc8a",
          "type" : "component"
        } ],
        "id" : "a59cd38b-a43d-425d-8e71-09c029f41dee",
        "name" : "content",
        "title" : "Content",
        "type" : "region"
      }, {
        "children" : [ {
          "attributes" : {
            "dxpStyle" : { },
            "recordId" : "{!recordId}"
          },
          "definition" : "community_builder:seoAssistant",
          "id" : "b27671e5-5018-4f13-b876-0fec58661d78",
          "type" : "component"
        } ],
        "id" : "016bc7a3-5f23-4dac-b7ad-2a9d3db2fcc7",
        "name" : "sfdcHiddenRegion",
        "title" : "sfdcHiddenRegion",
        "type" : "region"
      } ],
      "definition" : "community_layout:sldsFlexibleLayout",
      "id" : "ab4b6543-29ac-45c4-a743-3f0dfcbb5b0f",
      "type" : "component"
    },
    "dataProviders" : [ {
      "definition" : "sfdc_cms__commerceSplitShipmentDataProvider",
      "sfdcExpressionKey" : "SplitShipment",
      "attributes" : { }
    } ],
    "themeLayoutType" : "Checkout",
    "viewType" : "split-shipment"
  },
  "urlName" : "split-shipment"
}