{
  "appPageId" : "339f12b0-03f7-4df0-918f-cd6cbae9ddc8",
  "componentName" : "siteforce:sldsOneColLayout",
  "dataProviders" : [ ],
  "id" : "bdc37bbd-337b-4807-a8a8-b6219e5278e3",
  "label" : "Campaign List",
  "regions" : [ {
    "id" : "e1f706a2-cb01-4a43-a9fa-f8392708781a",
    "regionName" : "header",
    "type" : "region"
  }, {
    "components" : [ {
      "componentAttributes" : {
        "tabsetConfig" : {
          "UUID" : "6efe4987-0d23-4d73-a167-e130cd5711d0",
          "activeTab" : "tab1",
          "tabs" : [ {
            "UUID" : "830e9652-0d32-4d87-8bf4-692bf6022dd0",
            "allowGuestUser" : true,
            "locked" : false,
            "seedComponents" : [ {
              "attributes" : {
                "richTextValue" : "                                  <p><br/></p>                                <p style=&quot;text-align:left;&quot;>                                     Use these campaigns to generate leads and grow your business                                 </p>                       "
              },
              "fqn" : "forceCommunity:richTextInline"
            }, {
              "attributes" : { },
              "fqn" : "forceCommunity:campaignTileList"
            } ],
            "tabKey" : "tab1",
            "tabName" : "Campaign Marketplace"
          }, {
            "UUID" : "6bf36fd6-9828-4c86-8c47-3a128f7d65c4",
            "allowGuestUser" : true,
            "locked" : false,
            "seedComponents" : [ {
              "attributes" : {
                "filterName" : "Recent",
                "scope" : "Campaign"
              },
              "fqn" : "forceCommunity:objectHome"
            } ],
            "tabKey" : "tab2",
            "tabName" : "All Campaigns"
          } ],
          "useOverflowMenu" : false
        }
      },
      "componentName" : "forceCommunity:tabLayout",
      "id" : "6efe4987-0d23-4d73-a167-e130cd5711d0",
      "regions" : [ {
        "components" : [ {
          "componentAttributes" : {
            "richTextValue" : "                                  <p><br/></p>                                <p style=&quot;text-align:left;&quot;>                                     Use these campaigns to generate leads and grow your business                                 </p>                       "
          },
          "componentName" : "forceCommunity:richTextInline",
          "id" : "b0f4fc2c-bb2b-4b1a-bc84-3e50431d2c73",
          "renderPriority" : "NEUTRAL",
          "renditionMap" : { },
          "type" : "component"
        }, {
          "componentAttributes" : {
            "bodyField" : "Description",
            "categoryField" : "Type",
            "dataFieldsConfig" : "",
            "highlight" : "__",
            "highlightColor" : "#007DB8",
            "listLabel" : "",
            "listViewName" : "AllActiveCampaigns",
            "showImage" : true,
            "sortBy" : "Name",
            "sortOrder" : "Ascending",
            "titleField" : "Name"
          },
          "componentName" : "forceCommunity:campaignTileList",
          "id" : "a49373c5-6368-4cc3-8f54-85064dfef85c",
          "renderPriority" : "NEUTRAL",
          "renditionMap" : { },
          "type" : "component"
        } ],
        "id" : "830e9652-0d32-4d87-8bf4-692bf6022dd0",
        "regionLabel" : "Campaign Marketplace",
        "regionName" : "tab1",
        "renditionMap" : { },
        "type" : "region"
      }, {
        "components" : [ {
          "componentAttributes" : {
            "enableInlineEdit" : true,
            "filterName" : "Recent",
            "layout" : "FULL",
            "pageSize" : 25,
            "scope" : "Campaign",
            "showActionBar" : true,
            "showChartsPanel" : true,
            "showDisplay" : "showall",
            "showFilterPanel" : true,
            "showImageIcon" : true,
            "showManualRefreshButton" : true,
            "showObjectName" : true,
            "showPinnedList" : true,
            "showSearchBar" : true
          },
          "componentName" : "forceCommunity:objectHome",
          "id" : "529b65bb-c084-4aee-b80f-0b89fe014ce8",
          "renderPriority" : "NEUTRAL",
          "renditionMap" : { },
          "type" : "component"
        } ],
        "id" : "6bf36fd6-9828-4c86-8c47-3a128f7d65c4",
        "regionLabel" : "All Campaigns",
        "regionName" : "tab2",
        "renditionMap" : { },
        "type" : "region"
      } ],
      "renderPriority" : "NEUTRAL",
      "renditionMap" : { },
      "type" : "component"
    } ],
    "id" : "a01deb8f-4f5b-4f04-bd29-d680f12ce0a9",
    "regionName" : "content",
    "type" : "region"
  }, {
    "id" : "736c9037-77d9-427e-9ee3-e9fc85a605a6",
    "regionName" : "footer",
    "type" : "region"
  } ],
  "themeLayoutType" : "Inner",
  "type" : "view",
  "viewType" : "list-701"
}