{
  "appPageId" : "339f12b0-03f7-4df0-918f-cd6cbae9ddc8",
  "componentName" : "siteforce:sldsOneColLayout",
  "dataProviders" : [ ],
  "id" : "9cd90265-ae65-4204-911b-08154248e25b",
  "label" : "Campaign Related List",
  "regions" : [ {
    "id" : "9bced587-774b-49f1-96cb-871e790f03b3",
    "regionName" : "header",
    "type" : "region"
  }, {
    "components" : [ {
      "componentAttributes" : {
        "customTitle" : "",
        "parentRecordId" : "{!recordId}",
        "relatedListName" : "{!relationshipApiName}",
        "showBreadCrumbs" : true,
        "showCustomTitle" : false,
        "showManualRefreshButton" : true,
        "showRowNumbers" : true
      },
      "componentName" : "forceCommunity:relatedList",
      "id" : "ca1aadaf-2a38-4313-a9d9-e1352a15cc9a",
      "renderPriority" : "NEUTRAL",
      "renditionMap" : { },
      "type" : "component"
    } ],
    "id" : "aeb9f680-5246-4ba3-a5f2-373cc9559ae2",
    "regionName" : "content",
    "type" : "region"
  }, {
    "id" : "5da75493-3832-46cd-9d78-e73f78f59b72",
    "regionName" : "footer",
    "type" : "region"
  } ],
  "themeLayoutType" : "Inner",
  "type" : "view",
  "viewType" : "relatedlist-701"
}