{
  "appPageId" : "339f12b0-03f7-4df0-918f-cd6cbae9ddc8",
  "componentName" : "siteforce:sldsOneColLayout",
  "dataProviders" : [ ],
  "id" : "37528986-5013-4256-9c3f-48b61af67667",
  "label" : "Create Record",
  "regions" : [ {
    "id" : "b66aab36-661c-4e33-bc7c-3cadefcce079",
    "regionName" : "header",
    "type" : "region"
  }, {
    "components" : [ {
      "componentAttributes" : {
        "actionApiName" : "{!actionApiName}",
        "isMicrobatch" : false
      },
      "componentName" : "forceCommunity:createRecordForm",
      "id" : "eb0f1f9e-a322-4cf0-87b5-7ba7770f8a6b",
      "renderPriority" : "NEUTRAL",
      "renditionMap" : { },
      "type" : "component"
    } ],
    "id" : "3187613f-e706-4a65-8c04-45570fd5412d",
    "regionName" : "content",
    "type" : "region"
  }, {
    "id" : "247913c0-6d69-43a5-ba2f-2ffa6405d449",
    "regionName" : "footer",
    "type" : "region"
  } ],
  "themeLayoutType" : "Inner",
  "type" : "view",
  "viewType" : "createrecord"
}