{
  "appPageId" : "339f12b0-03f7-4df0-918f-cd6cbae9ddc8",
  "componentName" : "siteforce:sldsOneColLayout",
  "dataProviders" : [ ],
  "id" : "0bd79ced-6ec2-4250-af6a-e3c24614f974",
  "label" : "Feed Detail",
  "regions" : [ {
    "id" : "2c8dcb98-dd79-4cf2-9a2c-f9981698786e",
    "regionName" : "header",
    "type" : "region"
  }, {
    "components" : [ {
      "componentAttributes" : {
        "id" : "{!recordId}"
      },
      "componentName" : "forceCommunity:feedItemDetail",
      "id" : "0ee88863-ea04-4c68-80d0-d3e013c13354",
      "renderPriority" : "NEUTRAL",
      "renditionMap" : { },
      "type" : "component"
    } ],
    "id" : "cfe1c2ed-90c2-472d-b076-a103df7c78ff",
    "regionName" : "content",
    "type" : "region"
  }, {
    "id" : "458493e4-cf59-439c-b51b-a2852b717788",
    "regionName" : "footer",
    "type" : "region"
  } ],
  "themeLayoutType" : "Inner",
  "type" : "view",
  "viewType" : "feeditem-generic"
}