{
  "appPageId" : "339f12b0-03f7-4df0-918f-cd6cbae9ddc8",
  "componentName" : "siteforce:sldsOneColLayout",
  "dataProviders" : [ ],
  "id" : "e2e9427d-79f9-46ea-8a93-3e3942815bda",
  "label" : "Lead Inspection",
  "regions" : [ {
    "id" : "7ec14cfc-dcc8-4487-a854-0aec869ee6c7",
    "regionName" : "header",
    "type" : "region"
  }, {
    "components" : [ {
      "componentAttributes" : {
        "objectApiName" : "Lead"
      },
      "componentName" : "runtime_pipeline_inspector:pipelineInspectorHomeExperienceContainer",
      "id" : "4eaf1e91-fc70-4281-ad19-2741ee4f1222",
      "renderPriority" : "NEUTRAL",
      "renditionMap" : { },
      "type" : "component"
    } ],
    "id" : "86670406-5e69-433b-9037-f80656260a2d",
    "regionName" : "content",
    "type" : "region"
  }, {
    "id" : "80266cf1-a23b-4a9b-87aa-cf358273f51b",
    "regionName" : "footer",
    "type" : "region"
  } ],
  "themeLayoutType" : "Inner",
  "type" : "view",
  "viewType" : "lead-inspection"
}