{
  "appPageId" : "339f12b0-03f7-4df0-918f-cd6cbae9ddc8",
  "componentName" : "siteforce:sldsOneColLayout",
  "dataProviders" : [ ],
  "id" : "51b2ef48-79a3-4bc1-bb6e-db0bef52d712",
  "label" : "Pipeline Inspection",
  "regions" : [ {
    "id" : "4546f565-af32-40af-ba12-059117da36a7",
    "regionName" : "header",
    "type" : "region"
  }, {
    "components" : [ {
      "componentAttributes" : {
        "objectApiName" : "Opportunity"
      },
      "componentName" : "runtime_pipeline_inspector:pipelineInspectorHomeExperienceContainer",
      "id" : "fef42790-c940-4ea6-aa2c-b2cc30bbc139",
      "renderPriority" : "NEUTRAL",
      "renditionMap" : { },
      "type" : "component"
    } ],
    "id" : "a101771d-4c67-401e-ae17-5c03ff78e39a",
    "regionName" : "content",
    "type" : "region"
  }, {
    "id" : "7acb940e-6a4e-4bbc-8651-f817c0da6f40",
    "regionName" : "footer",
    "type" : "region"
  } ],
  "themeLayoutType" : "Inner",
  "type" : "view",
  "viewType" : "pipeline-inspection"
}