{
  "appPageId" : "339f12b0-03f7-4df0-918f-cd6cbae9ddc8",
  "componentName" : "siteforce:sldsOneColLayout",
  "dataProviders" : [ ],
  "id" : "c090a66d-1816-43fb-a2ad-7392e563cc47",
  "label" : "Record Detail",
  "regions" : [ {
    "components" : [ {
      "componentAttributes" : {
        "richTextValue" : "<p style=\"text-align: center;\"><img class=\"sfdcCbImage\" src=\"{!contentAsset.IR_HeaderLatest3.1}\" alt=\"\"></p>"
      },
      "componentName" : "forceCommunity:richTextInline",
      "id" : "1e7e21f7-eaae-4ad8-b553-89bbd5066630",
      "renderPriority" : "NEUTRAL",
      "renditionMap" : { },
      "type" : "component"
    }, {
      "componentAttributes" : {
        "recordId" : "{!recordId}"
      },
      "componentName" : "forceCommunity:recordHeadline",
      "id" : "e0414cce-8f1d-45f4-af28-5b0574f7ffd5",
      "renderPriority" : "NEUTRAL",
      "renditionMap" : { },
      "type" : "component"
    }, {
      "componentAttributes" : {
        "tabsetConfig" : {
          "UUID" : "2767f0cc-acdd-40f0-94e6-45b186161999",
          "activeTab" : "",
          "tabs" : [ {
            "UUID" : "a1e778a6-1bd1-4a99-9b3d-e459686fd676",
            "allowGuestUser" : false,
            "locked" : false,
            "seedComponents" : [ ],
            "tabKey" : "1",
            "tabName" : "Details"
          }, {
            "UUID" : "a7575134-eafa-444e-a3e2-4c9553f7de45",
            "allowGuestUser" : false,
            "locked" : false,
            "seedComponents" : [ ],
            "tabKey" : "2",
            "tabName" : "Activities"
          }, {
            "UUID" : "be8982c3-338c-4788-8e6f-8085877d2a96",
            "allowGuestUser" : false,
            "locked" : false,
            "seedComponents" : [ ],
            "tabKey" : "3",
            "tabName" : "Related"
          }, {
            "UUID" : "c117b41a-df1d-4660-89ff-0ed1adbb8b95",
            "allowGuestUser" : false,
            "locked" : false,
            "seedComponents" : [ ],
            "tabKey" : "23fbc",
            "tabName" : "Feed"
          } ],
          "useOverflowMenu" : false
        }
      },
      "componentName" : "forceCommunity:tabset",
      "id" : "2767f0cc-acdd-40f0-94e6-45b186161999",
      "regions" : [ {
        "components" : [ {
          "componentAttributes" : {
            "recordId" : "{!recordId}"
          },
          "componentName" : "forceCommunity:recordDetail",
          "id" : "41696dd5-33cd-4bfc-b5a6-3bbb33cf6100",
          "renditionMap" : { },
          "type" : "component"
        } ],
        "id" : "a1e778a6-1bd1-4a99-9b3d-e459686fd676",
        "regionLabel" : "Details",
        "regionName" : "1",
        "renditionMap" : { },
        "type" : "region"
      }, {
        "components" : [ {
          "componentAttributes" : {
            "recordId" : "{!recordId}",
            "showLegacyActivityComposer" : false
          },
          "componentName" : "forceCommunity:activityPanel",
          "id" : "cb072d9f-0e6d-400b-8660-f3727005095f",
          "renditionMap" : { },
          "type" : "component"
        } ],
        "id" : "a7575134-eafa-444e-a3e2-4c9553f7de45",
        "regionLabel" : "Activities",
        "regionName" : "2",
        "renditionMap" : { },
        "type" : "region"
      }, {
        "components" : [ {
          "componentAttributes" : {
            "recordId" : "{!recordId}",
            "width" : "MEDIUM"
          },
          "componentName" : "forceCommunity:relatedRecords",
          "id" : "4ccd5e55-5ce0-401d-9346-89e67b637392",
          "renditionMap" : { },
          "type" : "component"
        } ],
        "id" : "be8982c3-338c-4788-8e6f-8085877d2a96",
        "regionLabel" : "Related",
        "regionName" : "3",
        "renditionMap" : { },
        "type" : "region"
      }, {
        "components" : [ {
          "componentAttributes" : {
            "canChangeSorting" : true,
            "defaultFilter" : "",
            "defaultSortOrderHomeFeed" : "Relevance",
            "defaultSortOrderTopicsFeed" : "Relevance",
            "feedDesign" : "DEFAULT",
            "hasFeedSearch" : true,
            "subjectId" : "{!recordId}",
            "type" : "Record"
          },
          "componentName" : "forceCommunity:forceCommunityFeed",
          "id" : "82d20cbf-0406-4912-b41c-c210d68435c0",
          "renditionMap" : { },
          "type" : "component"
        }, {
          "componentAttributes" : {
            "canChangeSorting" : true,
            "defaultFilter" : "",
            "defaultSortOrderHomeFeed" : "Relevance",
            "defaultSortOrderTopicsFeed" : "Relevance",
            "feedDesign" : "DEFAULT",
            "hasFeedSearch" : true,
            "subjectId" : "{!recordId}",
            "type" : "Record"
          },
          "componentName" : "forceCommunity:forceCommunityFeed",
          "id" : "f5c50f2b-c061-41cf-8a9d-de75b24fe3eb",
          "renditionMap" : { },
          "type" : "component"
        } ],
        "id" : "c117b41a-df1d-4660-89ff-0ed1adbb8b95",
        "regionLabel" : "Feed",
        "regionName" : "23fbc",
        "renditionMap" : { },
        "type" : "region"
      } ],
      "renderPriority" : "NEUTRAL",
      "renditionMap" : { },
      "type" : "component"
    }, {
      "componentAttributes" : {
        "richTextValue" : "<p> </p>"
      },
      "componentName" : "forceCommunity:richTextInline",
      "id" : "4400deef-fafb-470f-b979-5869ee5e4874",
      "renderPriority" : "NEUTRAL",
      "renditionMap" : { },
      "type" : "component"
    } ],
    "id" : "95232067-9212-423e-bf9e-fd4892c626b1",
    "regionName" : "header",
    "type" : "region"
  }, {
    "id" : "3649b366-fae6-4409-a522-2c82cfd3c9df",
    "regionName" : "content",
    "type" : "region"
  }, {
    "id" : "c1b88891-fbe4-4673-b8b0-ef25c7e0511d",
    "regionName" : "footer",
    "type" : "region"
  }, {
    "components" : [ {
      "componentAttributes" : {
        "customHeadTags" : "",
        "description" : "",
        "title" : "{!Record._Object}: {!Record._Title}"
      },
      "componentName" : "forceCommunity:seoAssistant",
      "id" : "d5c0051d-7ece-47a6-bcc0-f12dd17a756d",
      "renditionMap" : { },
      "type" : "component"
    } ],
    "id" : "7952f727-fe27-44a5-b73a-aca04ffafe44",
    "regionName" : "sfdcHiddenRegion",
    "type" : "region"
  } ],
  "themeLayoutType" : "Inner",
  "type" : "view",
  "viewType" : "detail"
}