{
  "appPageId" : "339f12b0-03f7-4df0-918f-cd6cbae9ddc8",
  "componentName" : "siteforce:sldsTwoCol84Layout",
  "dataProviders" : [ ],
  "id" : "6d861892-6287-4557-b1e4-d617393787f5",
  "label" : "Resources",
  "regions" : [ {
    "id" : "c5eae410-79a3-4197-b914-1d288eafd2da",
    "regionName" : "header",
    "type" : "region"
  }, {
    "components" : [ {
      "componentAttributes" : {
        "librariesHeaderLabel" : "Libraries",
        "showWorkspaceImage" : true
      },
      "componentName" : "forceCommunity:workspacesList",
      "id" : "f97cdd6e-b423-4266-8672-17460f8ebc05",
      "renderPriority" : "NEUTRAL",
      "renditionMap" : { },
      "type" : "component"
    } ],
    "id" : "5ecba6f4-2495-463d-967c-c85100870fd1",
    "regionName" : "content",
    "type" : "region"
  }, {
    "components" : [ {
      "componentAttributes" : {
        "title" : "Popular Now"
      },
      "componentName" : "forceChatter:recommendationsBig",
      "id" : "f765bbb2-0fda-450b-81d7-4a635ecd2381",
      "renderPriority" : "NEUTRAL",
      "renditionMap" : { },
      "type" : "component"
    } ],
    "id" : "571dc8f9-f759-45b7-a42a-6963febecdff",
    "regionName" : "sidebar",
    "type" : "region"
  }, {
    "id" : "4e798bc6-9f73-4d54-b587-44bc7ef63957",
    "regionName" : "footer",
    "type" : "region"
  }, {
    "components" : [ {
      "componentAttributes" : {
        "customHeadTags" : "",
        "description" : "",
        "title" : "Resources"
      },
      "componentName" : "forceCommunity:seoAssistant",
      "id" : "8f2251a6-83aa-4a22-9f07-cb00621f858c",
      "renditionMap" : { },
      "type" : "component"
    } ],
    "id" : "cacfb1e0-9168-4dca-a441-97e3f7cb15cb",
    "regionName" : "sfdcHiddenRegion",
    "type" : "region"
  } ],
  "themeLayoutType" : "Inner",
  "type" : "view",
  "viewType" : "files"
}