{
  "appPageId" : "339f12b0-03f7-4df0-918f-cd6cbae9ddc8",
  "componentName" : "siteforce:sldsOneColLayout",
  "dataProviders" : [ ],
  "id" : "210e9c65-db46-4367-a751-b369d8e3ed28",
  "label" : "Stream List",
  "regions" : [ {
    "components" : [ {
      "componentAttributes" : { },
      "componentName" : "forceCommunity:streamList",
      "id" : "c382b379-4855-4328-be7e-847ea95403ca",
      "renderPriority" : "NEUTRAL",
      "renditionMap" : { },
      "type" : "component"
    } ],
    "id" : "767ce90a-c32a-4c14-a0da-7228bf075846",
    "regionName" : "content",
    "type" : "region"
  } ],
  "themeLayoutType" : "Inner",
  "type" : "view",
  "viewType" : "list-0Fq"
}