{
  "appPageId" : "37c689f1-e7d8-4710-bbf9-086787e4b949",
  "componentName" : "siteforce:sldsOneColLayout",
  "dataProviders" : [ ],
  "id" : "6f114f3e-961d-4724-bf80-bb38a340a5cd",
  "label" : "Create Record",
  "regions" : [ {
    "id" : "94adc411-1b74-4290-b2d9-d049fddb5de4",
    "regionName" : "header",
    "type" : "region"
  }, {
    "components" : [ {
      "componentAttributes" : {
        "actionApiName" : "{!actionApiName}"
      },
      "componentName" : "forceCommunity:createRecordForm",
      "id" : "d8cc3c8c-c7f9-45ed-a0a3-bc76d72a09ad",
      "renderPriority" : "NEUTRAL",
      "renditionMap" : { },
      "type" : "component"
    } ],
    "id" : "3fab4203-24d1-48a8-99fe-a5752a2c3f29",
    "regionName" : "content",
    "type" : "region"
  }, {
    "id" : "3ade558e-e5ba-4a2f-a15b-3038119ff647",
    "regionName" : "footer",
    "type" : "region"
  } ],
  "themeLayoutType" : "Inner",
  "type" : "view",
  "viewType" : "createrecord"
}