{
  "appPageId" : "37c689f1-e7d8-4710-bbf9-086787e4b949",
  "componentName" : "siteforce:sldsOneColLayout",
  "dataProviders" : [ ],
  "id" : "708a4a2c-4c89-4238-b6d3-7884105bd51e",
  "label" : "File List",
  "regions" : [ {
    "id" : "40c7bbfc-9c47-4b36-b407-4bf1032c5507",
    "regionName" : "header",
    "type" : "region"
  }, {
    "components" : [ {
      "componentAttributes" : {
        "pageSize" : 25
      },
      "componentName" : "forceCommunity:filesList",
      "id" : "ea78846a-8f62-4dc2-a6ef-8c4760930ecd",
      "renderPriority" : "NEUTRAL",
      "renditionMap" : { },
      "type" : "component"
    } ],
    "id" : "4464b7da-d873-48e3-a960-cd52c8050753",
    "regionName" : "content",
    "type" : "region"
  }, {
    "id" : "8c924a32-6955-458c-804b-06f4ff44b39f",
    "regionName" : "footer",
    "type" : "region"
  } ],
  "themeLayoutType" : "Inner",
  "type" : "view",
  "viewType" : "list-069"
}