{
  "appPageId" : "37c689f1-e7d8-4710-bbf9-086787e4b949",
  "componentName" : "siteforce:sldsOneColLayout",
  "dataProviders" : [ ],
  "id" : "ca2d81fb-e119-4a55-90dc-47bf94f21124",
  "label" : "Report Builder",
  "regions" : [ {
    "id" : "d68b1099-0b5c-4a5d-a7dc-c825624cd5e2",
    "regionName" : "header",
    "type" : "region"
  }, {
    "components" : [ {
      "componentAttributes" : {
        "recordId" : "{!recordId}"
      },
      "componentName" : "forceCommunity:reportBuilder",
      "id" : "40daeffb-977f-443a-8918-a57fa51cdb57",
      "renderPriority" : "NEUTRAL",
      "renditionMap" : { },
      "type" : "component"
    } ],
    "id" : "d5769857-879b-430a-9982-2fd55f221afa",
    "regionName" : "content",
    "type" : "region"
  }, {
    "id" : "2355cfd2-56f7-4070-af67-8b2300edfc6c",
    "regionName" : "footer",
    "type" : "region"
  } ],
  "themeLayoutType" : "Inner",
  "type" : "view",
  "viewType" : "createreport"
}