{
  "appPageId" : "37c689f1-e7d8-4710-bbf9-086787e4b949",
  "componentName" : "siteforce:sldsOneColLayout",
  "dataProviders" : [ ],
  "id" : "692daa46-4938-41a6-bde1-200e5e3868c1",
  "label" : "Stream List",
  "regions" : [ {
    "components" : [ {
      "componentAttributes" : { },
      "componentName" : "forceCommunity:streamList",
      "id" : "c1f42c9e-36b2-4518-885d-0a870f8586ad",
      "renderPriority" : "NEUTRAL",
      "renditionMap" : { },
      "type" : "component"
    } ],
    "id" : "ec99db7a-b043-49e2-a909-1bde83f21875",
    "regionName" : "content",
    "type" : "region"
  } ],
  "themeLayoutType" : "Inner",
  "type" : "view",
  "viewType" : "list-0Fq"
}