{
  "type" : "sfdc_cms__route",
  "title" : "Order Related List",
  "contentBody" : {
    "activeViewId" : "Order_Related_List",
    "configurationTags" : [ ],
    "pageAccess" : "UseParent",
    "routeType" : "relatedlist-801",
    "urlPrefix" : "order"
  },
  "urlName" : "order-related-list"
}