{
  "appPageId" : "881cfdc2-0294-412a-b93c-88caf2d8dc09",
  "componentName" : "siteforce:sldsOneColLayout",
  "dataProviders" : [ ],
  "id" : "492a7408-cea7-4d05-b6cf-18caa7f5f7e1",
  "label" : "Account Management",
  "regions" : [ {
    "id" : "20f9cde5-215e-43be-a6d3-d5f7c0846274",
    "regionName" : "header",
    "type" : "region"
  }, {
    "components" : [ {
      "componentAttributes" : {
        "tabsetConfig" : {
          "UUID" : "239d56ed-2a40-49bc-a5da-6a4b8d34eb52",
          "activeTab" : "tab1",
          "tabs" : [ {
            "UUID" : "c7456aed-40b7-45cf-b600-52ee0c55afaf",
            "allowGuestUser" : false,
            "locked" : false,
            "seedComponents" : [ {
              "attributes" : {
                "customTitle" : "Members",
                "parentRecordId" : "{!CurrentUser.effectiveAccountId}",
                "relatedListName" : "Users",
                "showBreadCrumbs" : "false",
                "showCustomTitle" : "true",
                "showManualRefreshButton" : "false",
                "showRowNumbers" : "false"
              },
              "fqn" : "forceCommunity:relatedList"
            } ],
            "tabKey" : "tab1",
            "tabName" : "Members"
          }, {
            "UUID" : "2569647b-73ac-4371-9a9b-762b170ae4a5",
            "allowGuestUser" : false,
            "locked" : false,
            "seedComponents" : [ {
              "attributes" : {
                "parentRecordId" : "{!CurrentUser.effectiveAccountId}",
                "relatedListName" : "Carts",
                "showBreadCrumbs" : "false",
                "showCustomTitle" : "false",
                "showManualRefreshButton" : "false",
                "showRowNumbers" : "false"
              },
              "fqn" : "forceCommunity:relatedList"
            } ],
            "tabKey" : "tab2",
            "tabName" : "Carts"
          } ],
          "useOverflowMenu" : false
        }
      },
      "componentName" : "forceCommunity:tabset",
      "id" : "239d56ed-2a40-49bc-a5da-6a4b8d34eb52",
      "regions" : [ {
        "components" : [ {
          "componentAttributes" : {
            "customTitle" : "Members",
            "parentRecordId" : "{!CurrentUser.effectiveAccountId}",
            "relatedListName" : "Users",
            "showBreadCrumbs" : false,
            "showCustomTitle" : true,
            "showManualRefreshButton" : false,
            "showRowNumbers" : false
          },
          "componentName" : "forceCommunity:relatedList",
          "id" : "9590a04f-7aaf-4773-b728-2d239193b335",
          "renditionMap" : { },
          "type" : "component"
        } ],
        "id" : "c7456aed-40b7-45cf-b600-52ee0c55afaf",
        "regionLabel" : "Members",
        "regionName" : "tab1",
        "renditionMap" : { },
        "type" : "region"
      }, {
        "components" : [ {
          "componentAttributes" : {
            "customTitle" : "",
            "parentRecordId" : "{!CurrentUser.effectiveAccountId}",
            "relatedListName" : "Carts",
            "showBreadCrumbs" : false,
            "showCustomTitle" : false,
            "showManualRefreshButton" : false,
            "showRowNumbers" : false
          },
          "componentName" : "forceCommunity:relatedList",
          "id" : "11286029-0ba5-489f-9830-d882f7d53470",
          "renditionMap" : { },
          "type" : "component"
        } ],
        "id" : "2569647b-73ac-4371-9a9b-762b170ae4a5",
        "regionLabel" : "Carts",
        "regionName" : "tab2",
        "renditionMap" : { },
        "type" : "region"
      } ],
      "renderPriority" : "NEUTRAL",
      "renditionMap" : { },
      "type" : "component"
    } ],
    "id" : "108888e2-dd92-4ed5-8a13-fb9253c2d40f",
    "regionName" : "content",
    "type" : "region"
  }, {
    "id" : "47cd214c-ee31-4316-82c5-09865351f26c",
    "regionName" : "footer",
    "type" : "region"
  }, {
    "components" : [ {
      "componentAttributes" : {
        "customHeadTags" : "",
        "description" : "",
        "title" : "Account Management"
      },
      "componentName" : "forceCommunity:seoAssistant",
      "id" : "67b6bbb7-56a3-485b-bcc8-fbe6243aa37b",
      "renditionMap" : { },
      "type" : "component"
    } ],
    "id" : "1dd43db0-f2b4-4931-a308-2f7cb2710845",
    "regionName" : "sfdcHiddenRegion",
    "type" : "region"
  } ],
  "themeLayoutType" : "Inner",
  "type" : "view",
  "viewType" : "account-management"
}