{
  "appPageId" : "881cfdc2-0294-412a-b93c-88caf2d8dc09",
  "componentName" : "siteforce:sldsOneColLayout",
  "dataProviders" : [ ],
  "id" : "d6e9388d-ee1c-48df-81e2-a83a9b14a621",
  "label" : "Checkout",
  "regions" : [ {
    "id" : "3e61ca28-2f1d-47a1-966e-fd4eae8ea68a",
    "regionName" : "header",
    "type" : "region"
  }, {
    "components" : [ {
      "componentAttributes" : {
        "checkoutFlowName" : "Welch_New_Checkout"
      },
      "componentName" : "forceCommunity:checkoutFlow",
      "id" : "2d8cfcd0-d611-419a-b353-970252a47c1f",
      "renderPriority" : "NEUTRAL",
      "renditionMap" : { },
      "type" : "component"
    } ],
    "id" : "466a5fbd-65cc-400c-beef-9e4e3706dadb",
    "regionName" : "content",
    "type" : "region"
  }, {
    "id" : "dd4950a8-94ea-47d7-86e0-78956656e245",
    "regionName" : "footer",
    "type" : "region"
  } ],
  "themeLayoutType" : "Checkout",
  "type" : "view",
  "viewType" : "checkout"
}