{
  "appPageId" : "881cfdc2-0294-412a-b93c-88caf2d8dc09",
  "componentName" : "siteforce:dynamicLayout",
  "dataProviders" : [ ],
  "id" : "c8a196f8-fe3d-4eac-b9e8-2c5d20e9ffc7",
  "label" : "Glove Boxes",
  "regions" : [ {
    "components" : [ {
      "componentAttributes" : {
        "background" : "background: rgba(0,0,0,0)",
        "backgroundOverlay" : "rgba(0,0,0,0.5)",
        "contentAreaWidth" : 100,
        "sectionConfig" : {
          "UUID" : "39075300-99fe-4047-961c-f75eb2014694",
          "columns" : [ {
            "UUID" : "ae86ef6d-9425-4a9b-aa46-af000617fe5b",
            "columnKey" : "1",
            "columnName" : "Column 1",
            "columnWidth" : "12",
            "seedComponents" : [ ]
          } ]
        },
        "sectionHeight" : 300
      },
      "componentName" : "forceCommunity:section",
      "id" : "39075300-99fe-4047-961c-f75eb2014694",
      "regions" : [ {
        "components" : [ {
          "componentAttributes" : {
            "richTextValue" : "<p>Glove boxes are used to create a controlled environment, either for isolation of sensitive substances, or to protect users from hazardous materials. The boxes feature built-in gloves for safe handling of the contents.</p>\n<br />\n<p>A vacuum pump is used to remove ambient air from the glove box, which is backfilled with a dry inert gas, such as nitrogen or argon. This process can be repeated to further lower oxygen concentration. The transfer chambers should also be evacuated to prevent external atmosphere from entering the glove box. </p>"
          },
          "componentName" : "forceCommunity:htmlBlock",
          "id" : "b76118db-feef-42e7-ad6c-c2e0d0a5d09b",
          "renderPriority" : "NEUTRAL",
          "renditionMap" : { },
          "type" : "component"
        } ],
        "id" : "ae86ef6d-9425-4a9b-aa46-af000617fe5b",
        "regionLabel" : "Column 1",
        "regionName" : "1",
        "renditionMap" : { },
        "type" : "region"
      } ],
      "renderPriority" : "NEUTRAL",
      "renditionMap" : { },
      "type" : "component"
    } ],
    "id" : "17c41df3-6aab-48cd-a07a-3f223ee849bd",
    "regionName" : "content",
    "type" : "region"
  }, {
    "components" : [ {
      "componentAttributes" : {
        "customHeadTags" : "",
        "description" : "",
        "title" : "Glove Boxes"
      },
      "componentName" : "forceCommunity:seoAssistant",
      "id" : "d2ed7159-b43e-47ae-a37b-7356d4b60898",
      "renditionMap" : { },
      "type" : "component"
    } ],
    "id" : "3a8c530d-1a58-4ec1-bcb0-ee214ae14a37",
    "regionName" : "sfdcHiddenRegion",
    "type" : "region"
  } ],
  "themeLayoutType" : "Inner",
  "type" : "view",
  "viewType" : "custom-glove-boxes"
}