{
  "appPageId" : "881cfdc2-0294-412a-b93c-88caf2d8dc09",
  "componentName" : "siteforce:dynamicLayout",
  "dataProviders" : [ ],
  "id" : "3e50bac3-130e-4797-9972-fee58d23a738",
  "label" : "Mass Spectroscopy",
  "regions" : [ {
    "components" : [ {
      "componentAttributes" : {
        "background" : "background: rgba(0,0,0,0)",
        "backgroundOverlay" : "rgba(0,0,0,0.5)",
        "contentAreaWidth" : 100,
        "sectionConfig" : {
          "UUID" : "90dd5a07-0c3a-4f2f-9fc4-b240f358ca32",
          "columns" : [ {
            "UUID" : "2c167e6d-1a08-4aa1-a87c-4853385528e8",
            "columnKey" : "1",
            "columnName" : "Column 1",
            "columnWidth" : "12",
            "seedComponents" : [ ]
          } ]
        },
        "sectionHeight" : 300
      },
      "componentName" : "forceCommunity:section",
      "id" : "90dd5a07-0c3a-4f2f-9fc4-b240f358ca32",
      "regions" : [ {
        "components" : [ {
          "componentAttributes" : {
            "richTextValue" : "<H2>About Mass Spectrometry</H2>\nMass Spectrometry is used for many analytical purposes including:\n<ul><li>Identify unknown compounds</li>\n<li>Determine elemental composition</li>\n<li>Determine the abundance of a compound in a sample</li>\n<li>Determine the structure of a molecule</li>\n<li>Measure the physical, chemical, or biological properties of a great variety of compounds</li></ul>\n<br>In analytical laboratories, the most common applications involving a mass spectrometer are Pharmaceutical, Biopharma, Drug screening, Environmental testing, Food & beverage testing, Petrochemical. \n<br>\n<br>\nThe vacuum system in a mass spectrometer typically operates below in the micron range to allow the free flight of molecular fragments to travel to the detector.\n<br>\n<br>\nMass spectrometers can analyze atoms, molecules and biological material ranging in size from protons to macro-compounds such as DNA. Compounds injected into Mass Spectrometer are fragmented into molecular fragments.\n<br><br>\n<H3>Selecting Vacuum Pumps and Systems for Mass Spectrometers</H3>\nCommon issues in vacuum pumps backing a mass spectrometer include hot running pumps, contamination of the oil, and chemical attack of pump internal components. Welch’s CRVpro series operates at lower operating temperature which reduces oil breakdown. The large oil reservoir in the pump dilutes chemical contaminants, which reduces chemical attack of the pump internal components. The hardened internal pump components resist chemical attack by chemical contaminants.\n\nWelch offers a variety of rotary vane pumps to be used as backing pumps for various types of Mass Specs."
          },
          "componentName" : "forceCommunity:htmlBlock",
          "id" : "f61dfd2d-2088-43fb-820b-888252f997cb",
          "renderPriority" : "NEUTRAL",
          "renditionMap" : { },
          "type" : "component"
        } ],
        "id" : "2c167e6d-1a08-4aa1-a87c-4853385528e8",
        "regionLabel" : "Column 1",
        "regionName" : "1",
        "renditionMap" : { },
        "type" : "region"
      } ],
      "renderPriority" : "NEUTRAL",
      "renditionMap" : { },
      "type" : "component"
    } ],
    "id" : "2e511f66-99e7-4084-a9ca-9c54556e3026",
    "regionName" : "content",
    "type" : "region"
  }, {
    "components" : [ {
      "componentAttributes" : {
        "customHeadTags" : "",
        "description" : "",
        "title" : "Mass Spectroscopy"
      },
      "componentName" : "forceCommunity:seoAssistant",
      "id" : "9429b9bb-8730-40ff-8e7a-f911cda052e3",
      "renditionMap" : { },
      "type" : "component"
    } ],
    "id" : "2e67d594-8cb2-4a4d-af35-145853269f2c",
    "regionName" : "sfdcHiddenRegion",
    "type" : "region"
  } ],
  "themeLayoutType" : "Inner",
  "type" : "view",
  "viewType" : "custom-mass-spectroscopy"
}