{
  "appPageId" : "881cfdc2-0294-412a-b93c-88caf2d8dc09",
  "componentName" : "siteforce:sldsOneColLayout",
  "dataProviders" : [ ],
  "id" : "bffa592c-a112-48ec-a5fa-f337c255706e",
  "label" : "Related Record List",
  "regions" : [ {
    "id" : "06de30a1-c7cb-44f1-9944-d647ed13bc40",
    "regionName" : "header",
    "type" : "region"
  }, {
    "components" : [ {
      "componentAttributes" : {
        "customTitle" : "",
        "parentRecordId" : "{!recordId}",
        "relatedListName" : "{!relationshipApiName}",
        "showBreadCrumbs" : true,
        "showCustomTitle" : false,
        "showManualRefreshButton" : true,
        "showRowNumbers" : true
      },
      "componentName" : "forceCommunity:relatedList",
      "id" : "3d58bc01-4cdd-451d-85c1-d8d82c5c3787",
      "renderPriority" : "NEUTRAL",
      "renditionMap" : { },
      "type" : "component"
    } ],
    "id" : "65a4e7c0-6f1f-4733-b822-638eb15a7b8c",
    "regionName" : "content",
    "type" : "region"
  }, {
    "id" : "73363512-5680-4fcb-9460-56ac766bb7ed",
    "regionName" : "footer",
    "type" : "region"
  } ],
  "themeLayoutType" : "Inner",
  "type" : "view",
  "viewType" : "relatedlist"
}