{
  "appPageId" : "881cfdc2-0294-412a-b93c-88caf2d8dc09",
  "componentName" : "siteforce:sldsOneColLayout",
  "dataProviders" : [ ],
  "id" : "3860a366-6904-4ecc-ba54-12d18b5eb9fa",
  "label" : "Search Results",
  "regions" : [ {
    "id" : "169febb3-45f1-4510-b44e-877ebda01e88",
    "regionName" : "header",
    "type" : "region"
  }, {
    "components" : [ {
      "componentAttributes" : {
        "addToCartButtonBackgroundColor" : "",
        "addToCartButtonBackgroundHoverColor" : "",
        "addToCartButtonBorderColor" : "",
        "addToCartButtonBorderRadius" : "0",
        "addToCartButtonText" : "ADD TO CART",
        "addToCartButtonTextColor" : "",
        "addToCartButtonTextHoverColor" : "",
        "breadcrumbsColor" : "",
        "breadcrumbsFontSize" : "small",
        "cardAlignment" : "center",
        "cardBackgroundColor" : "",
        "cardBorderColor" : "rgba(255, 255, 255, 0)",
        "cardBorderRadius" : "0",
        "cardContentMapping" : "[{\"name\":\"Name\",\"showLabel\":false,\"label\":\"Product Name\",\"displayName\":\"Product Name\",\"type\":\"STRING\",\"fontSize\":\"medium\",\"fontColor\":\"rgb(51, 71, 91)\"},{\"name\":\"VariationAttributes\",\"showLabel\":false,\"label\":\"Variation Attributes\",\"displayName\":\"More options available\",\"type\":\"VARIATION\",\"fontSize\":\"medium\",\"fontColor\":\"rgb(51, 71, 91)\"}]",
        "cardDividerColor" : "rgb(221, 219, 218)",
        "gridColumnSpacing" : "small",
        "gridMaxColumnsDisplayed" : "4",
        "gridRowSpacing" : "large",
        "incrementQuantityGuideText" : "Sold in increments of {0}",
        "listRowSpacing" : "small",
        "maximumQuantityGuideText" : "Maximum quantity is {0}",
        "minimumQuantityGuideText" : "Minimum quantity is {0}",
        "negotiatedPriceTextColor" : "",
        "negotiatedPriceTextSize" : "medium",
        "noResultsRichText" : "<br><br><h1> No results found </h1><br><h2>Try these search tips instead:</h2><br><ol><li>Check your spelling</li><li>Search by product type, SKU, or feature</li><li>Broaden your search using fewer or more general words</li></ol>",
        "originalPriceTextColor" : "",
        "originalPriceTextSize" : "small",
        "pageResultsType" : "searchResults",
        "pageTitleFontColor" : "",
        "pageTitleFontSize" : "large",
        "quantitySelectorLabelText" : "QTY",
        "resultsLayout" : "grid",
        "showAddToCartButton" : true,
        "showBreadCrumbs" : true,
        "showNegotiatedPrice" : true,
        "showNoSearchResults" : true,
        "showOriginalPrice" : true,
        "showProductImage" : true,
        "showQuantityRulesSetup" : true,
        "showQuantityRulesText" : true,
        "showSearchSortingMenuSetup" : true,
        "viewOptionsButtonText" : "VIEW OPTIONS"
      },
      "componentName" : "b2b_search_builder:resultsDisplay",
      "id" : "830f2d1a-17ae-4f9a-a5af-1afd0e367ab4",
      "renderPriority" : "NEUTRAL",
      "renditionMap" : { },
      "type" : "component"
    } ],
    "id" : "17a4ba85-a07d-4e0b-9802-87baa6637540",
    "regionName" : "content",
    "type" : "region"
  }, {
    "id" : "933da4e3-bdb3-47dd-8789-5d48941b8bdd",
    "regionName" : "footer",
    "type" : "region"
  } ],
  "themeLayoutType" : "Inner",
  "type" : "view",
  "viewType" : "global-search"
}