{
  "appPageId" : "881cfdc2-0294-412a-b93c-88caf2d8dc09",
  "componentName" : "siteforce:dynamicLayout",
  "dataProviders" : [ ],
  "id" : "059dccd7-05a9-41ee-801d-dd2f3da595d3",
  "label" : "Vacuum Distillation",
  "regions" : [ {
    "components" : [ {
      "componentAttributes" : {
        "background" : "background: rgba(0,0,0,0)",
        "backgroundOverlay" : "rgba(0,0,0,0.5)",
        "contentAreaWidth" : 100,
        "sectionConfig" : {
          "UUID" : "bd5a94f5-022a-4396-b656-5a3f0ac2d775",
          "columns" : [ {
            "UUID" : "609c3bc8-4890-44e7-8dd5-fa7147a65ca5",
            "columnKey" : "1",
            "columnName" : "Column 1",
            "columnWidth" : "12",
            "seedComponents" : [ ]
          } ]
        },
        "sectionHeight" : 300
      },
      "componentName" : "forceCommunity:section",
      "id" : "bd5a94f5-022a-4396-b656-5a3f0ac2d775",
      "regions" : [ {
        "components" : [ {
          "componentAttributes" : {
            "richTextValue" : "<h2>About Vacuum Distillation</h2>\n<p>Vacuum distillation is the process of separating a mixture of liquids by evaporation and condensation. This is normally performed by heating the liquid until boiling occurs. A vacuum pump is used to lower the boiling point of the liquid.</p>\n\n<p>Welch recommends chemical duty diaphragm pumps or rotary vane vacuum pumps for vacuum distillation applications</p>"
          },
          "componentName" : "forceCommunity:htmlBlock",
          "id" : "1b2cc5b9-b2eb-43cb-9408-49866bd8c096",
          "renderPriority" : "NEUTRAL",
          "renditionMap" : { },
          "type" : "component"
        } ],
        "id" : "609c3bc8-4890-44e7-8dd5-fa7147a65ca5",
        "regionLabel" : "Column 1",
        "regionName" : "1",
        "renditionMap" : { },
        "type" : "region"
      } ],
      "renderPriority" : "NEUTRAL",
      "renditionMap" : { },
      "type" : "component"
    } ],
    "id" : "4056ccec-1a33-474b-94e2-25527ebd9ecb",
    "regionName" : "content",
    "type" : "region"
  }, {
    "components" : [ {
      "componentAttributes" : {
        "customHeadTags" : "",
        "description" : "",
        "title" : "Vacuum Distillation"
      },
      "componentName" : "forceCommunity:seoAssistant",
      "id" : "6e11ed53-526f-4017-9234-43e24392b303",
      "renditionMap" : { },
      "type" : "component"
    } ],
    "id" : "90460dd3-7592-4b6a-8b59-f030d730ea8d",
    "regionName" : "sfdcHiddenRegion",
    "type" : "region"
  } ],
  "themeLayoutType" : "Inner",
  "type" : "view",
  "viewType" : "custom-vacuum-distillation"
}