<?xml version="1.0" encoding="UTF-8"?>
<CustomTab xmlns="http://soap.sforce.com/2006/04/metadata">
    <description>Chatter-to-Case Quickstart Guide</description>
    <frameHeight>600</frameHeight>
    <hasSidebar>false</hasSidebar>
    <label>Chatter-to-Case</label>
    <motif>Custom45: Ticket</motif>
    <url>http://ch2c-developer-edition.na12.force.com</url>
    <urlEncodingKey>UTF-8</urlEncodingKey>
</CustomTab>
