{
  "appPageId" : "57efa534-6679-4737-892e-03104a5cd637",
  "componentName" : "siteforce:sldsOneColLayout",
  "dataProviders" : [ ],
  "id" : "9bd0f3b8-4520-4f04-86d8-db74c7719d43",
  "label" : "Error",
  "regions" : [ {
    "id" : "cdfc2827-97b5-4809-8f41-5aede80de541",
    "regionName" : "header",
    "type" : "region"
  }, {
    "components" : [ {
      "componentAttributes" : {
        "richTextValue" : "<div style='text-align: center;'>Invalid Page</div>"
      },
      "componentName" : "forceCommunity:richTextInline",
      "id" : "cc3cffe8-72ea-49e6-a67c-4176226ac7fb",
      "renderPriority" : "NEUTRAL",
      "renditionMap" : { },
      "type" : "component"
    } ],
    "id" : "a4b7dc31-39cb-4f31-b743-cbdd26bb7eaa",
    "regionName" : "content",
    "type" : "region"
  }, {
    "id" : "66096bee-b877-4592-9cef-c9aa016c1325",
    "regionName" : "footer",
    "type" : "region"
  }, {
    "components" : [ {
      "componentAttributes" : {
        "customHeadTags" : "",
        "description" : "",
        "title" : "Error"
      },
      "componentName" : "forceCommunity:seoAssistant",
      "id" : "2ed79c7c-56a4-479f-9f6d-1fbbf399ebaf",
      "renditionMap" : { },
      "type" : "component"
    } ],
    "id" : "ea421c1e-55c7-492b-896e-86a41290228b",
    "regionName" : "sfdcHiddenRegion",
    "type" : "region"
  } ],
  "themeLayoutType" : "Inner",
  "type" : "view",
  "viewType" : "error"
}