{
  "appPageId" : "57efa534-6679-4737-892e-03104a5cd637",
  "componentName" : "siteforce:sldsOneColLayout",
  "dataProviders" : [ ],
  "id" : "e30ad92f-6326-48de-b628-b10a725a7a07",
  "label" : "Stream Related List",
  "regions" : [ {
    "id" : "8b7576b7-36db-44d0-92dc-801eedf2179d",
    "regionName" : "header",
    "type" : "region"
  }, {
    "id" : "f9be06b2-5eee-4ae7-a05d-2671326dd5a8",
    "regionName" : "content",
    "type" : "region"
  }, {
    "id" : "7bbf26f1-a84c-4b9b-b249-4d12b23d1a0f",
    "regionName" : "footer",
    "type" : "region"
  } ],
  "themeLayoutType" : "Inner",
  "type" : "view",
  "viewType" : "relatedlist-0Fq"
}