{
  "appPageId" : "57efa534-6679-4737-892e-03104a5cd637",
  "componentName" : "siteforce:sldsOneColLayout",
  "dataProviders" : [ ],
  "id" : "8618b9bc-7869-4148-a4fa-d574fda5c867",
  "label" : "User Profile",
  "regions" : [ {
    "id" : "62a7687a-06a0-448c-9fff-d888c19bc27f",
    "regionName" : "header",
    "type" : "region"
  }, {
    "components" : [ {
      "componentAttributes" : {
        "caseCreateLabel" : "Create Case",
        "caseFilterName" : "AllOpenCases",
        "caseHeaderLabel" : "My Cases",
        "casesTabLabel" : "Cases",
        "detailsTabLabel" : "Details",
        "feedTabLabel" : "Feed",
        "knowledgeableAboutTitle" : "Knows About",
        "maxTopics" : 5,
        "relatedTabLabel" : "Related",
        "showFullPhotoAsCircle" : true,
        "showKnowledgeableAbout" : true,
        "showRelatedList" : true,
        "showReputationInInfluenceCard" : false,
        "showStats" : true,
        "userId" : "{!recordId}",
        "userStatsTitle" : "Influence"
      },
      "componentName" : "forceCommunity:userRecordHome",
      "id" : "ea85a710-f5ff-4cff-ae70-6849f8b14955",
      "renderPriority" : "NEUTRAL",
      "renditionMap" : { },
      "type" : "component"
    } ],
    "id" : "dcd02f0d-b061-4547-8952-a1977f472752",
    "regionName" : "content",
    "type" : "region"
  }, {
    "id" : "87b5f03f-1058-4a81-8129-192069b1dc98",
    "regionName" : "footer",
    "type" : "region"
  } ],
  "themeLayoutType" : "Inner",
  "type" : "view",
  "viewType" : "detail-005"
}