{
  "activeViewId" : "5e1efa36-a489-4efc-b8cb-ad204a4d3460",
  "appPageId" : "3316471d-77fc-43a6-a234-b2d255994859",
  "configurationTags" : [ ],
  "devName" : "Article_Detail",
  "id" : "20e12ff8-17e7-43a3-90e4-44219c1bd8a2",
  "label" : "Article Detail",
  "routeType" : "article",
  "type" : "route",
  "urlPrefix" : "article"
}