{
  "activeViewId" : "4029b10c-bb98-4088-a269-d246f5867d2d",
  "appPageId" : "3316471d-77fc-43a6-a234-b2d255994859",
  "configurationTags" : [ ],
  "devName" : "Group_Detail",
  "id" : "eb79d0a3-7176-45be-95f5-6806498409b2",
  "label" : "Group Detail",
  "routeType" : "detail-0F9",
  "type" : "route",
  "urlPrefix" : "group"
}