{
  "activeViewId" : "1dad99ac-f346-4869-a0f1-7bfa012b2e0c",
  "appPageId" : "3316471d-77fc-43a6-a234-b2d255994859",
  "configurationTags" : [ "allow-in-static-site", "too-many-requests" ],
  "devName" : "Too_Many_Requests",
  "id" : "ec48d98e-404a-487d-9497-444afd5351e1",
  "label" : "Too Many Requests",
  "routeType" : "too-many-requests",
  "type" : "route",
  "urlPrefix" : "too-many-requests"
}