{
  "activeViewId" : "700ba299-3969-42aa-9dec-547e5ae9b088",
  "appPageId" : "3316471d-77fc-43a6-a234-b2d255994859",
  "configurationTags" : [ ],
  "devName" : "Top_Articles",
  "id" : "e2c5d01f-7442-4859-ba7b-b911c5721288",
  "label" : "Top Articles",
  "pageAccess" : "UseParent",
  "routeType" : "top-articles",
  "type" : "route",
  "urlPrefix" : "toparticles"
}