{
  "activeViewId" : "671a09fa-99f0-4fa8-b20b-6f23c21ecc0b",
  "appPageId" : "881cfdc2-0294-412a-b93c-88caf2d8dc09",
  "configurationTags" : [ ],
  "devName" : "My_Account",
  "id" : "7f424b12-e854-4743-b372-c6ad4dea32d1",
  "label" : "My Account",
  "routeType" : "my-account",
  "type" : "route",
  "urlPrefix" : "comm-my-account"
}