{
  "activeViewId" : "b07d77ff-a75b-49f5-98ea-cdd8ac26113e",
  "appPageId" : "881cfdc2-0294-412a-b93c-88caf2d8dc09",
  "configurationTags" : [ ],
  "devName" : "My_Lists",
  "id" : "a55a3b1f-3292-424c-b61e-d511539dcb62",
  "label" : "My Lists",
  "routeType" : "wishlist",
  "type" : "route",
  "urlPrefix" : "mylists"
}