{
  "activeViewId" : "dfd01a1b-6caa-4452-99da-9e7b1dfa1e05",
  "appPageId" : "881cfdc2-0294-412a-b93c-88caf2d8dc09",
  "configurationTags" : [ ],
  "devName" : "User_Profile",
  "id" : "0c8864de-8a39-49a8-9664-880dec5fc691",
  "label" : "User Profile",
  "routeType" : "detail-005",
  "type" : "route",
  "urlPrefix" : "profile"
}