{
  "activeViewId" : "9ac57eeb-7cb3-4baf-bdb8-8dbd19a729b1",
  "appPageId" : "881cfdc2-0294-412a-b93c-88caf2d8dc09",
  "configurationTags" : [ ],
  "devName" : "Vacuum_Networks__c",
  "id" : "1822b37b-88b7-4c6d-8040-5db9abaa307f",
  "label" : "Vacuum Networks",
  "pageAccess" : "UseParent",
  "routeType" : "custom-vacuum-networks",
  "type" : "route",
  "urlPrefix" : "vacuum-networks"
}