{
  "activeViewId" : "37528986-5013-4256-9c3f-48b61af67667",
  "appPageId" : "339f12b0-03f7-4df0-918f-cd6cbae9ddc8",
  "configurationTags" : [ ],
  "devName" : "Create_Record",
  "id" : "fbb3baff-ffbc-48f7-b9b7-7934daafc0ce",
  "label" : "Create Record",
  "routeType" : "createrecord",
  "type" : "route",
  "urlPrefix" : "createrecord"
}