{
  "activeViewId" : "5ef89f78-535d-4ed7-87cd-b458a428b11c",
  "appPageId" : "339f12b0-03f7-4df0-918f-cd6cbae9ddc8",
  "configurationTags" : [ ],
  "devName" : "Error",
  "id" : "5187ee72-bf21-48df-9642-e7f1992596c1",
  "label" : "Error",
  "pageAccess" : "UseParent",
  "routeType" : "error",
  "type" : "route",
  "urlPrefix" : "error"
}