{
  "activeViewId" : "106b3500-5f9b-480e-92e4-07db5e8e37b9",
  "appPageId" : "339f12b0-03f7-4df0-918f-cd6cbae9ddc8",
  "configurationTags" : [ ],
  "devName" : "File_List",
  "id" : "e7a793ed-3957-4ec1-b78a-52756e71dc08",
  "label" : "File List",
  "routeType" : "list-069",
  "type" : "route",
  "urlPrefix" : "contentdocument"
}