{
  "activeViewId" : "180a7180-240c-4f82-8278-6517102ad56a",
  "appPageId" : "339f12b0-03f7-4df0-918f-cd6cbae9ddc8",
  "configurationTags" : [ ],
  "devName" : "Flow",
  "id" : "0fff780e-ac1d-4435-b1d6-1a54d73c8b2e",
  "label" : "Flow",
  "pageAccess" : "UseParent",
  "routeType" : "flow",
  "type" : "route",
  "urlPrefix" : "flow"
}