{
  "activeViewId" : "d4edd552-52d6-4c4c-9d2b-ae4f85538735",
  "appPageId" : "339f12b0-03f7-4df0-918f-cd6cbae9ddc8",
  "configurationTags" : [ ],
  "devName" : "Messages",
  "id" : "d07cfc5d-e843-4f7a-b3ea-b5c05277c620",
  "label" : "Messages",
  "routeType" : "messages",
  "type" : "route",
  "urlPrefix" : "messages"
}