{
  "activeViewId" : "0e384616-9f62-4aec-8b2e-26ed2e5e5437",
  "appPageId" : "339f12b0-03f7-4df0-918f-cd6cbae9ddc8",
  "configurationTags" : [ ],
  "devName" : "Opportunity_Related_List__c",
  "id" : "79848588-a420-4a8e-919e-54890073ac65",
  "label" : "Opportunity Related List",
  "routeType" : "relatedlist-006",
  "type" : "route",
  "urlPrefix" : "opportunity"
}