{
  "activeViewId" : "80a65945-1170-4f66-bf8d-8fca7b788528",
  "appPageId" : "339f12b0-03f7-4df0-918f-cd6cbae9ddc8",
  "configurationTags" : [ ],
  "devName" : "Stream_Detail",
  "id" : "a18d046c-6f89-4027-96a9-746ea9ea4e6e",
  "label" : "Stream Detail",
  "routeType" : "detail-0Fq",
  "type" : "route",
  "urlPrefix" : "streams"
}