{
  "activeViewId" : "32999cd9-1c89-432f-9ce1-472580877277",
  "appPageId" : "339f12b0-03f7-4df0-918f-cd6cbae9ddc8",
  "configurationTags" : [ ],
  "devName" : "User_Profile",
  "id" : "b24c7b96-42d6-4d26-b5dd-366a5da71104",
  "label" : "User Profile",
  "routeType" : "detail-005",
  "type" : "route",
  "urlPrefix" : "profile"
}