{
  "componentVariants" : [ {
    "id" : "c6da4d2a-982a-4820-92d7-d29743ce9765",
    "propertyOverrides" : {
      "isVisible" : true
    },
    "targetId" : "6689eef0-8a0a-4a77-be9d-7845df1dea5c",
    "type" : "componentVariant"
  } ],
  "developerName" : "Ask_a_Question_Rich_Content_Editor_5_Component",
  "id" : "96d48bf6-7aab-41fe-98cb-73f56dcd7cd2",
  "type" : "experienceVariation"
}