{
  "componentVariants" : [ {
    "id" : "d9195b62-5a2d-4488-a5f4-929000029501",
    "propertyOverrides" : {
      "isVisible" : true
    },
    "targetId" : "02f50c08-da0f-497f-be8c-fa9c18e5882a",
    "type" : "componentVariant"
  } ],
  "developerName" : "Escalate_Issue_Rich_Content_Editor_5_Component",
  "id" : "b6232031-e581-42db-80da-28c6722dc310",
  "type" : "experienceVariation"
}