{
  "componentVariants" : [ {
    "id" : "01426c38-7545-40ff-a4e3-eacbc57b9d27",
    "propertyOverrides" : {
      "isVisible" : true
    },
    "targetId" : "4ab90a2d-6337-4ae8-93bc-dc77e135b5b0",
    "type" : "componentVariant"
  } ],
  "developerName" : "Escalate_Issue_Rich_Content_Editor_7_Component",
  "id" : "0f729941-13a8-4d27-b981-3443d5361b3b",
  "type" : "experienceVariation"
}