{
  "componentVariants" : [ {
    "id" : "ecaaac77-4920-485b-96af-ef70b64f2fc3",
    "propertyOverrides" : {
      "isVisible" : true
    },
    "targetId" : "25ccdc2c-bde7-4ab7-832a-71f2ab8b4af1",
    "type" : "componentVariant"
  } ],
  "developerName" : "Escalate_Issue_Rich_Content_Editor_8_Component",
  "id" : "252c01b5-d553-4672-9566-977a76f27dee",
  "type" : "experienceVariation"
}