{
  "componentVariants" : [ {
    "id" : "6db3611c-1e29-41f0-80f1-d62c8f0f4828",
    "propertyOverrides" : {
      "isVisible" : true
    },
    "targetId" : "6729295a-86ad-4918-88b2-4d2c4eae24b5",
    "type" : "componentVariant"
  } ],
  "developerName" : "Escalate_Issue_Rich_Content_Editor_12_Component",
  "id" : "803207a6-e2de-4af8-bb24-1697e35b0da6",
  "type" : "experienceVariation"
}