{
  "componentVariants" : [ {
    "id" : "af6227ea-2224-40df-ba64-8f7b3fba94d8",
    "propertyOverrides" : {
      "isVisible" : true
    },
    "targetId" : "bb8014ba-6e25-4172-9b47-d41a24fc23f0",
    "type" : "componentVariant"
  } ],
  "developerName" : "Home_Trending_Articles_by_Topic_Component",
  "id" : "0804cffa-3736-4aab-aae4-220526829b10",
  "type" : "experienceVariation"
}