{
  "componentVariants" : [ {
    "id" : "9142efa5-9321-4631-bc0e-04c12def0ff5",
    "propertyOverrides" : {
      "isVisible" : true
    },
    "targetId" : "4a37713d-2d03-49eb-bc22-6665480f6e07",
    "type" : "componentVariant"
  } ],
  "developerName" : "Home_Rich_Content_Editor_3_Component",
  "id" : "71346fa8-57a1-4967-aa0e-ca3683cfa8a2",
  "type" : "experienceVariation"
}