{
  "componentVariants" : [ {
    "id" : "5eb44c3f-96ef-40c1-88c5-c80b8460fcf9",
    "propertyOverrides" : {
      "isVisible" : true
    },
    "targetId" : "bb3663ce-1234-421c-bad1-1f9f9c45bb26",
    "type" : "componentVariant"
  } ],
  "developerName" : "Links_Rich_Content_Editor_16_Component",
  "id" : "d59a7f9b-1c01-4897-b11e-c8b6c2caa4e9",
  "type" : "experienceVariation"
}