{
  "componentVariants" : [ {
    "id" : "fa6f0d4e-ff41-43fa-9df9-884151260675",
    "propertyOverrides" : {
      "isVisible" : true
    },
    "targetId" : "df2dd4ae-80cf-4dcd-a4de-c3f36d7743f1",
    "type" : "componentVariant"
  } ],
  "developerName" : "Warranty_Rich_Content_Editor_8_Component",
  "id" : "32ac5a32-6e2b-44c1-a063-7c8e7b56a18c",
  "type" : "experienceVariation"
}