{
  "appPageId" : "5b0560c2-c145-4b79-8776-427fd0deba06",
  "componentName" : "siteforce:sldsOneColLayout",
  "dataProviders" : [ ],
  "id" : "d6f6d0a2-b5f1-4664-ab2a-a42f09c8fcbe",
  "label" : "Account Management",
  "regions" : [ {
    "id" : "88130c5b-3915-4471-a06a-57ea8d4fc477",
    "regionName" : "header",
    "type" : "region"
  }, {
    "components" : [ {
      "componentAttributes" : {
        "tabsetConfig" : {
          "UUID" : "91e32d70-8841-4e9e-98a1-6b3b4c84a27e",
          "activeTab" : "tab1",
          "tabs" : [ {
            "UUID" : "46e9c20b-6dec-4582-9bfb-d083c66d473e",
            "allowGuestUser" : false,
            "locked" : false,
            "seedComponents" : [ {
              "attributes" : {
                "customTitle" : "Members",
                "parentRecordId" : "{!CurrentUser.accountId}",
                "relatedListName" : "Users",
                "showBreadCrumbs" : "false",
                "showCustomTitle" : "true",
                "showManualRefreshButton" : "false",
                "showRowNumbers" : "false"
              },
              "fqn" : "forceCommunity:relatedList"
            } ],
            "tabKey" : "tab1",
            "tabName" : "Members"
          }, {
            "UUID" : "70fcb242-74e2-4db3-b74e-eb09eefe1f07",
            "allowGuestUser" : false,
            "locked" : false,
            "seedComponents" : [ {
              "attributes" : {
                "recordId" : "{!CurrentUser.accountId}"
              },
              "fqn" : "forceCommunity:accountBrandRecord"
            } ],
            "tabKey" : "tab2",
            "tabName" : "Branding"
          } ],
          "useOverflowMenu" : false
        }
      },
      "componentName" : "forceCommunity:tabset",
      "id" : "91e32d70-8841-4e9e-98a1-6b3b4c84a27e",
      "regions" : [ {
        "components" : [ {
          "componentAttributes" : {
            "customTitle" : "Members",
            "parentRecordId" : "{!CurrentUser.accountId}",
            "relatedListName" : "Users",
            "showBreadCrumbs" : false,
            "showCustomTitle" : true,
            "showManualRefreshButton" : false,
            "showRowNumbers" : false
          },
          "componentName" : "forceCommunity:relatedList",
          "id" : "40465c8e-1170-4a60-937b-b2004737da5a",
          "renditionMap" : { },
          "type" : "component"
        } ],
        "id" : "46e9c20b-6dec-4582-9bfb-d083c66d473e",
        "regionLabel" : "Members",
        "regionName" : "tab1",
        "renditionMap" : { },
        "type" : "region"
      }, {
        "components" : [ {
          "componentAttributes" : {
            "recordId" : "{!CurrentUser.accountId}"
          },
          "componentName" : "forceCommunity:accountBrandRecord",
          "id" : "e8b4e77c-44b3-40a9-830b-97868891cc20",
          "renditionMap" : { },
          "type" : "component"
        } ],
        "id" : "70fcb242-74e2-4db3-b74e-eb09eefe1f07",
        "regionLabel" : "Branding",
        "regionName" : "tab2",
        "renditionMap" : { },
        "type" : "region"
      } ],
      "renderPriority" : "NEUTRAL",
      "renditionMap" : { },
      "type" : "component"
    } ],
    "id" : "50a74c18-7bb4-4b97-8d0b-7fece3802fd7",
    "regionName" : "content",
    "type" : "region"
  }, {
    "id" : "f12b8ed0-87d3-4b89-99de-ae21f5f40747",
    "regionName" : "footer",
    "type" : "region"
  }, {
    "components" : [ {
      "componentAttributes" : {
        "customHeadTags" : "",
        "description" : "",
        "title" : "Account Management"
      },
      "componentName" : "forceCommunity:seoAssistant",
      "id" : "7c282086-d410-41b5-a05d-8878cb2fd1e9",
      "renditionMap" : { },
      "type" : "component"
    } ],
    "id" : "7a2a0992-4fef-450c-b84e-25770eba62cf",
    "regionName" : "sfdcHiddenRegion",
    "type" : "region"
  } ],
  "themeLayoutType" : "Inner",
  "type" : "view",
  "viewType" : "account-management"
}