{
  "appPageId" : "5b0560c2-c145-4b79-8776-427fd0deba06",
  "componentName" : "siteforce:sldsOneColLayout",
  "dataProviders" : [ ],
  "id" : "a4e31ac6-87e1-4a0c-9879-fe0c891214ff",
  "label" : "My Cases",
  "regions" : [ {
    "id" : "1418c580-0265-4d32-b749-f17f4b949177",
    "regionName" : "header",
    "type" : "region"
  }, {
    "components" : [ {
      "componentAttributes" : {
        "richTextValue" : "<h3 style=\"text-align: center;\">Use the Search bar at the top of the page to find a specific case.</h3><h3 style=\"text-align: center;\">You can also search for cases submitted by other users on your team.</h3><p>&nbsp;</p>"
      },
      "componentName" : "forceCommunity:richTextInline",
      "id" : "3d31ea95-9a96-4175-be68-1d2504569426",
      "renderPriority" : "NEUTRAL",
      "renditionMap" : { },
      "type" : "component"
    }, {
      "componentAttributes" : {
        "enableInlineEdit" : true,
        "filterName" : "00B4Q00000B0AkWUAV",
        "layout" : "STANDARD",
        "pageSize" : 25,
        "scope" : "Case",
        "showActionBar" : false,
        "showChartsPanel" : false,
        "showDisplay" : "grid",
        "showFilterPanel" : false,
        "showImageIcon" : false,
        "showManualRefreshButton" : true,
        "showObjectName" : false,
        "showPinnedList" : true,
        "showSearchBar" : true
      },
      "componentName" : "forceCommunity:objectHome",
      "id" : "2733cc37-e046-49bb-a895-11f6d9a09688",
      "renderPriority" : "NEUTRAL",
      "renditionMap" : { },
      "type" : "component"
    }, {
      "componentAttributes" : {
        "richTextValue" : "<hr style=\"border-top:3px solid; color:#FFD701\"></hr>"
      },
      "componentName" : "forceCommunity:htmlBlock",
      "id" : "ca951b67-95bf-43c6-8823-442c33fb98ad",
      "renderPriority" : "NEUTRAL",
      "renditionMap" : { },
      "type" : "component"
    }, {
      "componentAttributes" : {
        "enableInlineEdit" : true,
        "filterName" : "00B4Q00000B0AkgUAF",
        "layout" : "STANDARD",
        "pageSize" : 25,
        "scope" : "Case",
        "showActionBar" : true,
        "showChartsPanel" : true,
        "showDisplay" : "showall",
        "showFilterPanel" : true,
        "showImageIcon" : true,
        "showManualRefreshButton" : true,
        "showObjectName" : true,
        "showPinnedList" : true,
        "showSearchBar" : true
      },
      "componentName" : "forceCommunity:objectHome",
      "id" : "e344f5ba-57f6-4ff4-8372-cc588837781d",
      "renderPriority" : "NEUTRAL",
      "renditionMap" : { },
      "type" : "component"
    } ],
    "id" : "abcd7363-9f21-4f7f-9f64-5201028e4144",
    "regionName" : "content",
    "type" : "region"
  }, {
    "id" : "4bb40ab4-c24b-4e48-b989-108b3a7d5e81",
    "regionName" : "footer",
    "type" : "region"
  }, {
    "components" : [ {
      "componentAttributes" : {
        "customHeadTags" : "",
        "description" : "",
        "title" : "My Cases"
      },
      "componentName" : "forceCommunity:seoAssistant",
      "id" : "2657c7e3-37b8-443b-927c-a7df7069c44d",
      "renditionMap" : { },
      "type" : "component"
    } ],
    "id" : "fd3fefd2-a5c1-4d34-bb83-c0e4095d805c",
    "regionName" : "sfdcHiddenRegion",
    "type" : "region"
  } ],
  "themeLayoutType" : "Inner",
  "type" : "view",
  "viewType" : "custom-my-cases"
}