{
  "type" : "sfdc_cms__view",
  "title" : "Order Summary Details",
  "contentBody" : {
    "component" : {
      "children" : [ {
        "attributes" : {
          "buttonText" : "Nachbestellen"
        },
        "id" : "c417da43-8524-4945-9cfc-79d646c4b50e"
      }, {
        "id" : "67e8a790-67eb-450e-a0c2-3a0260168995",
        "attributes" : {
          "highlightsTitle" : "Bestelldetails",
          "orderSummaryHighlightsFieldMapping" : "[{\"entity\":\"OrderSummary\",\"name\":\"OrderedDate\",\"label\":\"Bestellung aufgegeben\",\"type\":\"Date/Time\",\"expression\":\"{!Order.OrderSummary.OrderedDate}\"},{\"entity\":\"OrderSummary\",\"name\":\"AccountId\",\"label\":\"Konto\",\"type\":\"Lookup(Account)\",\"expression\":\"{!Order.OrderSummary.AccountId}\"},{\"entity\":\"OrderSummary\",\"name\":\"OwnerId\",\"label\":\"Platziert von\",\"type\":\"Lookup(User,Group)\",\"expression\":\"{!Order.OrderSummary.OwnerId}\"},{\"entity\":\"OrderSummary\",\"name\":\"Status\",\"label\":\"Status\",\"type\":\"Picklist\",\"expression\":\"{!Order.OrderSummary.Status}\"}]"
        }
      }, {
        "id" : "d0c7e422-5408-454b-8404-3cdf6d8ae04d",
        "attributes" : {
          "totalsCardTitle" : "Bestellübersicht",
          "netTaxOrdersFieldMapping" : "[{\"entity\":\"OrderSummary\",\"name\":\"TotalProductAmount\",\"label\":\"Zwischensumme\",\"type\":\"Roll-Up Summary ( Order Product Summary)\",\"expression\":\"{!Order.OrderSummary.TotalProductAmount}\"},{\"entity\":\"OrderAdjustmentAggregateSummary\",\"name\":\"TotalProductPromotionAmount\",\"label\":\"Promotions\",\"type\":\"Currency\",\"expression\":\"{!Order.OrderAdjustmentAggregateSummary.TotalProductPromotionAmount}\"},{\"entity\":\"OrderSummary\",\"name\":\"TotalAdjustedDeliveryAmount\",\"label\":\"Versand und Bearbeitung\",\"type\":\"Roll-Up Summary ( Order Product Summary)\",\"expression\":\"{!Order.OrderSummary.TotalAdjustedDeliveryAmount}\"},{\"entity\":\"OrderSummary\",\"name\":\"TotalTaxAmount\",\"label\":\"Steuer\",\"type\":\"Roll-Up Summary (SUM Order Product Summary)\",\"expression\":\"{!Order.OrderSummary.TotalTaxAmount}\"},{\"entity\":\"OrderSummary\",\"name\":\"GrandTotalAmount\",\"label\":\"Auftragssumme\",\"type\":\"Formula (Currency)\",\"expression\":\"{!Order.OrderSummary.GrandTotalAmount}\"}]",
          "grossTaxOrdersFieldMapping" : "[{\"entity\":\"OrderSummary\",\"name\":\"TotalProductAmountWithTax\",\"label\":\"Subtotale\",\"type\":\"Formula (Currency)\",\"expression\":\"{!Order.OrderSummary.TotalProductAmountWithTax}\"},{\"entity\":\"OrderAdjustmentAggregateSummary\",\"name\":\"TotalProductPromotionAmount\",\"label\":\"Promozioni\",\"type\":\"Currency\",\"expression\":\"{!Order.OrderAdjustmentAggregateSummary.TotalProductPromotionAmount}\"},{\"entity\":\"OrderSummary\",\"name\":\"TotalAdjDeliveryAmtWithTax\",\"label\":\"Spedizione\",\"type\":\"Formula (Currency)\",\"expression\":\"{!Order.OrderSummary.TotalAdjDeliveryAmtWithTax}\"},{\"entity\":\"OrderSummary\",\"name\":\"TotalTaxAmount\",\"label\":\"Imposto IVA\",\"type\":\"Roll-Up Summary (SUM Order Product Summary)\",\"expression\":\"{!Order.OrderSummary.TotalTaxAmount}\"},{\"entity\":\"OrderSummary\",\"name\":\"GrandTotalAmount\",\"label\":\"Gesamt vor Steuern\",\"type\":\"Formula (Currency)\",\"expression\":\"{!Order.OrderSummary.GrandTotalAmount}\"}]"
        }
      }, {
        "id" : "b8d6ea0f-67bd-4131-b16b-727cd0ac75b6",
        "attributes" : {
          "shippingGroupFieldMapping" : "[{\"entity\":\"OrderDeliveryMethod\",\"name\":\"Name\",\"label\":\"Name\",\"type\":\"Text(255)\",\"expression\":\"{!Order.OrderDeliveryMethod.Name}\"},{\"entity\":\"OrderDeliveryGroupSummary\",\"name\":\"TotalLineAmount\",\"label\":\"Versand-Zwischensumme:\",\"type\":\"Currency(16, 2)\",\"expression\":\"{!Order.OrderDeliveryGroupSummary.TotalLineAmount}\"}]",
          "prefixToShippingGroup" : "Versand an:",
          "productFieldMapping" : "[{\"entity\":\"OrderItemSummary\",\"name\":\"StockKeepingUnit\",\"label\":\"Product SKU\",\"type\":\"Text(255)\",\"expression\":\"{!Order.OrderItemSummary.StockKeepingUnit}\"},{\"entity\":\"OrderItemSummary\",\"name\":\"Quantity\",\"label\":\"Menge\",\"type\":\"Number(18, 0)\",\"expression\":\"{!Order.OrderItemSummary.Quantity}\"},{\"entity\":\"OrderItemSummary\",\"name\":\"TotalLineAdjustmentAmount\",\"label\":\"Linienanpassungen\",\"type\":\"Roll-Up Summary ( Order Product Adjustment Line Item Summary)\",\"expression\":\"{!Order.OrderItemSummary.TotalLineAdjustmentAmount}\"},{\"entity\":\"OrderItemSummary\",\"name\":\"AdjustedLineAmount\",\"label\":\"Subtotal\",\"type\":\"Formula (Currency)\",\"expression\":\"{!Order.OrderItemSummary.AdjustedLineAmount}\"}]"
        }
      }, {
        "id" : "78ec96ad-a229-43fc-b8da-530fec70404f",
        "attributes" : {
          "richTextValue" : "<p><span style=\"font-size: 12px;\">Die gemäß Umsatzsteuergesetz zu zahlende Mehrwertsteuer wird entsprechend in der Rechnung ausgewiesen.</span></p><p><span style=\"font-size: 12px;\">Die Rechnungspreise und -summen für die verifizierten Kundenkonten verstehen sich zu den bestehenden Kundenkonditionen (gilt nicht für Kreditkartenzahlungen).</span></p>"
        }
      } ]
    }
  },
  "urlName" : "order-summary-details"
}