{
  "type" : "sfdc_cms__themeLayout",
  "title" : "Commerce Layout",
  "contentBody" : {
    "component" : {
      "attributes" : { },
      "children" : [ {
        "children" : [ {
          "attributes" : {
            "dxpStyle" : { },
            "hidePromoBanner" : false,
            "hideWishlistShortcut" : true
          },
          "children" : [ {
            "children" : [ {
              "attributes" : {
                "dxpStyle" : { },
                "sectionConfig" : "{\"UUID\":\"2756ae73-9d5c-4631-884b-b977d09749d0\",\"columns\":[{\"UUID\":\"cd7c105a-b262-48e2-ba9a-470ed7c7533b\",\"columnName\":\"Column 1\",\"columnKey\":\"col1\",\"columnWidth\":\"12\",\"seedComponents\":null}]}"
              },
              "children" : [ {
                "children" : [ {
                  "attributes" : {
                    "dxpStyle" : { },
                    "richTextValue" : "Free Shipping on Orders Over $200"
                  },
                  "definition" : "community_builder:richTextEditor",
                  "id" : "03551503-1470-4481-8e08-6a5877fa1dd0",
                  "type" : "component"
                } ],
                "id" : "cd7c105a-b262-48e2-ba9a-470ed7c7533b",
                "name" : "col1",
                "title" : "Column 1",
                "type" : "region"
              } ],
              "definition" : "dxp_layout:columns",
              "id" : "2756ae73-9d5c-4631-884b-b977d09749d0",
              "type" : "component"
            } ],
            "id" : "73bbeb7f-bc6f-4372-a7a9-2fcf06267839",
            "name" : "promoBanner",
            "title" : "Rich Text Editor (Promo Banner)",
            "type" : "region"
          }, {
            "children" : [ {
              "attributes" : {
                "alignment" : "left",
                "dxpStyle" : { },
                "imageInfo" : "",
                "logoWidth" : 250
              },
              "definition" : "dxp_content_layout:siteLogo",
              "id" : "7b99af35-743e-4bc8-a217-2fe49dda41c7",
              "type" : "component"
            } ],
            "id" : "48356c00-04c3-4056-b716-14d180af8c49",
            "name" : "storeLogo",
            "title" : "Site Logo",
            "type" : "region"
          }, {
            "children" : [ {
              "attributes" : {
                "alignment" : "left",
                "dxpStyle" : { },
                "showBackLabel" : true,
                "showHomeLink" : true
              },
              "definition" : "commerce_builder:drilldownNavigation",
              "id" : "2594762e-60f7-41b1-ab35-d1b17376b05d",
              "type" : "component"
            } ],
            "id" : "acb2f8ce-5ad4-4de5-9ef6-8c039a2a8855",
            "name" : "navigation",
            "title" : "Multilevel Navigation Menu",
            "type" : "region"
          }, {
            "children" : [ {
              "attributes" : {
                "borderRadius" : 0,
                "dxpStyle" : { },
                "placeholderText" : "Enter keyword",
                "showSearchButton" : true,
                "showSearchSuggestionsSetup" : true
              },
              "definition" : "commerce_builder:searchInput",
              "id" : "09f9b777-7427-41d4-badb-585628b99cc5",
              "type" : "component"
            } ],
            "id" : "b320b6e1-7112-4e24-9da7-5756c570b41b",
            "name" : "searchInput",
            "title" : "Search Bar",
            "type" : "region"
          }, {
            "children" : [ {
              "attributes" : {
                "dxpStyle" : { },
                "iconStyle" : "userIcon",
                "includeCompanyName" : false,
                "logOutLabel" : "Log Out",
                "loginLinkText" : "Log In",
                "loginLinkTextDecoration" : "{\"underline\":true}",
                "loginLinkTextOrientation" : "leftOfIcon",
                "menuStyle" : "iconAndName",
                "userNameTextOrientation" : "leftOfIcon",
                "userProfileMenuNavigationMenuEditor" : "Default_User_Profile_Menu3"
              },
              "definition" : "commerce_builder:userProfileMenu",
              "id" : "7ceb7b23-ce3f-479f-998e-7d2ca410e18d",
              "type" : "component"
            } ],
            "id" : "1fe9cf95-5051-44e0-a60c-742666774a14",
            "name" : "myAccount",
            "title" : "Profile Menu",
            "type" : "region"
          }, {
            "children" : [ {
              "attributes" : {
                "dxpStyle" : { },
                "iconType" : "heart"
              },
              "definition" : "commerce_builder:wishlistShortcut",
              "id" : "21c2bab9-4ff7-4c54-a30a-867df1521a86",
              "type" : "component"
            } ],
            "id" : "65ea2c40-d08c-463e-a463-a79bad4c196c",
            "name" : "wishlist",
            "title" : "List Badge",
            "type" : "region"
          }, {
            "children" : [ {
              "attributes" : {
                "countType" : "TotalProductCount",
                "dxpStyle" : { },
                "showCount" : true
              },
              "definition" : "commerce_builder:cartBadge",
              "id" : "8e1daef0-9217-4f9d-9f91-50d9c28d313e",
              "type" : "component"
            } ],
            "id" : "4943ff7c-3cb0-4d8c-b029-ef0a3c1b5a72",
            "name" : "cart",
            "title" : "Cart Badge",
            "type" : "region"
          } ],
          "definition" : "commerce_builder:layoutHeader",
          "id" : "593de248-0f5b-442d-b4a2-2143da0a472e",
          "type" : "component"
        } ],
        "id" : "62a702e9-063a-4a99-a6fe-e2bf36050948",
        "name" : "header",
        "title" : "Header",
        "type" : "region"
      }, {
        "children" : [ {
          "attributes" : {
            "backgroundColor" : "rgb(28, 28, 28)",
            "dxpStyle" : { }
          },
          "children" : [ {
            "children" : [ {
              "attributes" : {
                "backgroundImageConfig" : "",
                "backgroundImageOverlay" : "rgba(0,0,0,0)",
                "dxpStyle" : { },
                "sectionConfig" : "{\"UUID\":\"9619e27a-60bb-4955-be70-97b2f9f5fb30\",\"columns\":[{\"UUID\":\"7735f6c0-a888-4aff-aba5-8be12fee9bc4\",\"columnName\":\"Column 1\",\"columnKey\":\"col1\",\"columnWidth\":\"4\",\"seedComponents\":null},{\"UUID\":\"d5094b00-5575-41ef-a16d-bf0511c34ecc\",\"columnName\":\"Column 2\",\"columnKey\":\"col2\",\"columnWidth\":\"4\",\"seedComponents\":null},{\"UUID\":\"836de443-0840-4d78-bd80-0c7032d84700\",\"columnName\":\"Column 3\",\"columnKey\":\"col3\",\"columnWidth\":\"4\",\"seedComponents\":null}]}"
              },
              "children" : [ {
                "children" : [ {
                  "attributes" : {
                    "dxpStyle" : { },
                    "linkColor" : "rgb(255, 255, 255)",
                    "linkSpacing" : "small",
                    "maxDepth" : "1",
                    "textAlign" : "left",
                    "textDecoration" : "{}",
                    "textDisplayInfo" : "{\"textStyle\": \"body-regular\"}"
                  },
                  "children" : [ {
                    "children" : [ {
                      "attributes" : {
                        "backgroundColor" : "",
                        "dxpStyle" : { },
                        "paddingHorizontal" : "none",
                        "paddingVertical" : "none",
                        "text" : "Categories",
                        "textAlign" : "left",
                        "textDecoration" : "{\"bold\": true}",
                        "textDisplayInfo" : "{\"textStyle\": \"heading-large\"}"
                      },
                      "definition" : "dxp_base:textBlock",
                      "id" : "a180f822-27b9-481b-a0e6-f4366e17e3bf",
                      "type" : "component"
                    } ],
                    "id" : "5c70b502-4915-4e08-ba0d-f5014bac0820",
                    "name" : "header",
                    "title" : "Header",
                    "type" : "region"
                  } ],
                  "definition" : "commerce_builder:linkList",
                  "id" : "c64642d1-28ae-4308-98b3-a2b1394ea0d4",
                  "type" : "component"
                } ],
                "id" : "7735f6c0-a888-4aff-aba5-8be12fee9bc4",
                "name" : "col1",
                "title" : "Column 1",
                "type" : "region"
              }, {
                "children" : [ {
                  "attributes" : {
                    "dxpStyle" : { },
                    "linkColor" : "rgb(255, 255, 255)",
                    "linkSpacing" : "small",
                    "maxDepth" : "1",
                    "textAlign" : "left",
                    "textDecoration" : "{}",
                    "textDisplayInfo" : "{\"textStyle\": \"body-regular\"}"
                  },
                  "children" : [ {
                    "children" : [ {
                      "attributes" : {
                        "backgroundColor" : "",
                        "dxpStyle" : { },
                        "paddingHorizontal" : "none",
                        "paddingVertical" : "none",
                        "text" : "Categories",
                        "textAlign" : "left",
                        "textColor" : "rgb(255, 255, 255)",
                        "textDecoration" : "{\"bold\": true}",
                        "textDisplayInfo" : "{\"textStyle\": \"heading-large\"}"
                      },
                      "definition" : "dxp_base:textBlock",
                      "id" : "692e73cd-e5db-43f9-9313-697267a34369",
                      "type" : "component"
                    } ],
                    "id" : "bb6cacbd-f24a-4f66-8a18-68bdd53e8801",
                    "name" : "header",
                    "title" : "Header",
                    "type" : "region"
                  } ],
                  "definition" : "commerce_builder:linkList",
                  "id" : "a4309e83-6064-45c2-a74d-b470408d1cc3",
                  "type" : "component"
                } ],
                "id" : "d5094b00-5575-41ef-a16d-bf0511c34ecc",
                "name" : "col2",
                "title" : "Column 2",
                "type" : "region"
              }, {
                "children" : [ {
                  "attributes" : {
                    "alignment" : "right",
                    "dxpStyle" : { },
                    "imageInfo" : "{\"imageInfoV1\":{\"url\":\"assets/images/logo-alpine-group_white.svg\",\"altText\":\"Store Logo\",\"contentKey\":\"\"}}",
                    "logoWidth" : 250
                  },
                  "definition" : "dxp_content_layout:siteLogo",
                  "id" : "0ed2221c-6234-4f0f-8d10-c87fd9ae92ea",
                  "type" : "component"
                } ],
                "id" : "836de443-0840-4d78-bd80-0c7032d84700",
                "name" : "col3",
                "title" : "Column 3",
                "type" : "region"
              } ],
              "definition" : "community_layout:section",
              "id" : "9619e27a-60bb-4955-be70-97b2f9f5fb30",
              "type" : "component"
            }, {
              "attributes" : {
                "backgroundImageConfig" : "",
                "backgroundImageOverlay" : "rgba(0,0,0,0)",
                "dxpStyle" : { },
                "sectionConfig" : "{\"UUID\":\"9ae15b19-efb0-4c7f-b09a-5c42873f52d4\",\"columns\":[{\"UUID\":\"f1798284-1904-4b98-8359-d3cd92b612d4\",\"columnName\":\"Column 1\",\"columnKey\":\"col1\",\"columnWidth\":\"12\",\"seedComponents\":null}]}"
              },
              "children" : [ {
                "children" : [ {
                  "attributes" : {
                    "alignment" : "center",
                    "dxpStyle" : { },
                    "lineStyle" : "solid",
                    "size" : 1,
                    "width" : 100
                  },
                  "definition" : "dxp_base:horizontalLine",
                  "id" : "2a8c4dc7-39d3-430b-8441-e9f51cfe0045",
                  "type" : "component"
                } ],
                "id" : "f1798284-1904-4b98-8359-d3cd92b612d4",
                "name" : "col1",
                "title" : "Column 1",
                "type" : "region"
              } ],
              "definition" : "community_layout:section",
              "id" : "9ae15b19-efb0-4c7f-b09a-5c42873f52d4",
              "type" : "component"
            }, {
              "attributes" : {
                "backgroundImageConfig" : "",
                "backgroundImageOverlay" : "rgba(0,0,0,0)",
                "dxpStyle" : { },
                "sectionConfig" : "{\"UUID\":\"caaf8121-a4da-4e86-a77a-8109f9dbf67b\",\"columns\":[{\"UUID\":\"916c5419-9213-4c80-a6ed-9d7c149de2cf\",\"columnName\":\"Column 1\",\"columnKey\":\"col1\",\"columnWidth\":\"2\",\"seedComponents\":null},{\"UUID\":\"3ef75aff-df6c-4946-81bc-2b259c2a2e5a\",\"columnName\":\"Column 2\",\"columnKey\":\"col2\",\"columnWidth\":\"10\",\"seedComponents\":null}]}"
              },
              "children" : [ {
                "children" : [ {
                  "attributes" : {
                    "countryTextAlignment" : "left",
                    "dxpStyle" : { },
                    "headingLabelText" : "Select Your Location",
                    "headingPaddingVertical" : "none",
                    "headingTextAlignment" : "center",
                    "headingTextDisplayInfo" : "{\"textStyle\": \"heading-large\", \"headingTag\": \"h2\"}",
                    "languageDisplayType" : "short",
                    "pickerButtonLabelText" : "Change Location",
                    "pickerButtonSize" : "small",
                    "pickerButtonStyle" : "primary",
                    "showGlobeIcon" : true,
                    "sort" : "country"
                  },
                  "definition" : "commerce_builder:countryPicker",
                  "id" : "d0adb842-bfd5-44ba-8ea3-e893898085a7",
                  "type" : "component"
                } ],
                "id" : "916c5419-9213-4c80-a6ed-9d7c149de2cf",
                "name" : "col1",
                "title" : "Column 1",
                "type" : "region"
              }, {
                "children" : [ {
                  "attributes" : {
                    "backgroundColor" : "",
                    "dxpStyle" : { },
                    "paddingHorizontal" : "none",
                    "paddingVertical" : "none",
                    "text" : "© Alpinegroup.com",
                    "textAlign" : "right",
                    "textColor" : "rgb(255, 255, 255)",
                    "textDecoration" : "{}",
                    "textDisplayInfo" : "{}"
                  },
                  "definition" : "dxp_base:textBlock",
                  "id" : "e306b2ab-7746-4923-96e9-41aad9b36dfb",
                  "type" : "component"
                } ],
                "id" : "3ef75aff-df6c-4946-81bc-2b259c2a2e5a",
                "name" : "col2",
                "title" : "Column 2",
                "type" : "region"
              } ],
              "definition" : "community_layout:section",
              "id" : "caaf8121-a4da-4e86-a77a-8109f9dbf67b",
              "type" : "component"
            } ],
            "id" : "ff63dfa9-080a-4237-8234-c4ea07783e27",
            "name" : "content",
            "title" : "Content",
            "type" : "region"
          } ],
          "definition" : "commerce_builder:layoutFooter",
          "id" : "c1e4b8eb-576b-4b46-9f00-cc398494c42b",
          "type" : "component"
        } ],
        "id" : "ee5bb7fa-9d15-4fcb-aaae-8ea441b5e1ba",
        "name" : "footer",
        "title" : "Footer",
        "type" : "region"
      } ],
      "definition" : "commerce:layoutSite",
      "id" : "463c10e7-5dc3-48ea-b3dc-d8a096ae442f",
      "type" : "component"
    }
  },
  "urlName" : "commerce-layout"
}