{
  "type" : "sfdc_cms__view",
  "title" : "Login",
  "contentBody" : {
    "component" : {
      "children" : [ {
        "attributes" : {
          "richTextValue" : "<p style=\"text-align: center;\"><strong style=\"font-size: 28px;\">Bienvenue dans notre boutique en ligne</strong></p><p style=\"text-align: center;\">Votre passerelle vers des produits de rechange efficaces et de qualité conçus pour améliorer vos opérations industrielles.</p>"
        },
        "id" : "a2bd81ff-2288-4d91-8896-458238d8bb8e"
      }, {
        "id" : "f4c9fcec-efe4-4995-8232-d67bad1efefe",
        "attributes" : {
          "usernameLabel" : "Nom d'utilisateur",
          "passwordLabel" : "Mot de passe",
          "forgotPasswordLabel" : "Réinitialiser le mot de passe ?",
          "selfRegisterLabel" : "Inscription",
          "loginButtonLabel" : "Connexion"
        }
      }, {
        "id" : "69cc1e9b-b349-4c7d-95ed-bd42b8c45954",
        "attributes" : {
          "text" : "Mon compte"
        }
      }, {
        "id" : "10ca5a58-7879-4792-8ceb-89906b53d9c8",
        "attributes" : {
          "text" : "Catégories"
        }
      }, {
        "id" : "d22a4648-b5e1-4f1c-8ef5-7329cece67a5",
        "attributes" : {
          "text" : "Autres"
        }
      }, {
        "id" : "2665742b-09ac-4014-989f-da6fba42bd80",
        "attributes" : {
          "text" : "Gardner Denver Srl. All rights reserved"
        }
      }, {
        "id" : "c0f384d0-a127-4b7d-9026-9fd0fe3988fe",
        "attributes" : {
          "text" : "Vous cherchez quelque chose de spécifique ?"
        }
      }, {
        "id" : "ae472526-58a2-437b-85e5-3be130ec97c0",
        "attributes" : {
          "placeholderText" : "Veuillez saisir votre terme de recherche"
        }
      }, {
        "id" : "c1eb20ab-7c4d-4ca8-9919-7933dcaaa063",
        "attributes" : {
          "text" : "Choisissez votre langue et votre région"
        }
      }, {
        "id" : "ad4157c5-0520-48c0-9136-6dbce046a847",
        "attributes" : {
          "pickerButtonLabelText" : "Changer de langue"
        }
      } ]
    }
  },
  "urlName" : "login"
}