{
  "type" : "sfdc_cms__themeLayout",
  "title" : "My Account Layout",
  "contentBody" : {
    "component" : {
      "children" : [ {
        "attributes" : {
          "text" : "ⓒ 2024. Robuschi S.p.A. All rights reserved."
        },
        "id" : "272a9075-8f66-4d34-b00a-0b2ff5a044ab"
      }, {
        "attributes" : {
          "text" : "Ciao {!User.Record.Name}"
        },
        "id" : "78553294-95d3-4ff1-8a67-9470cf154920"
      }, {
        "id" : "02182b91-5ba6-41a6-8cde-d0c93cd205eb",
        "attributes" : {
          "placeholderText" : "Inserire la parola chiave"
        }
      }, {
        "id" : "cc32e2a6-ecfa-47ec-a188-5040b8ad740c",
        "attributes" : {
          "loginLinkText" : "Login",
          "logOutLabel" : "Disconnettersi"
        }
      }, {
        "id" : "9af9f7e8-263e-4e0f-af73-e50c5a377c25",
        "attributes" : {
          "text" : "Categorie"
        }
      }, {
        "id" : "2de7a920-dadd-4f6d-b701-1785b0b704a1",
        "attributes" : {
          "text" : "Il mio conto"
        }
      }, {
        "id" : "8edad5ad-e58e-4206-9316-c18c26833032",
        "attributes" : {
          "text" : "Altro"
        }
      }, {
        "id" : "dee0ec10-36fb-43f9-8455-d2f20569dc1d",
        "attributes" : {
          "text" : "Cerchi qualcosa di specifico?"
        }
      }, {
        "id" : "9a1b47e0-d787-4fa7-bea9-75db4165e8f8",
        "attributes" : {
          "placeholderText" : "Inserire la parola chiave"
        }
      }, {
        "id" : "d8826e43-8fc0-40b1-b493-bbbdfae05a0c",
        "attributes" : {
          "text" : "Scegli la tua lingua e la tua regione"
        }
      }, {
        "id" : "3b7e8b7b-c807-48c1-b3e8-a133d72cbc65",
        "attributes" : {
          "pickerButtonLabelText" : "Cambia posizione",
          "headingLabelText" : "Seleziona la tua posizione"
        }
      } ]
    }
  },
  "urlName" : "my-account-layout"
}