{
  "type" : "sfdc_cms__view",
  "title" : "Category",
  "contentBody" : {
    "component" : {
      "children" : [ {
        "attributes" : {
          "addToCartButtonText" : "Aggiungi",
          "addToCartButtonProcessingText" : "Aggiunta...",
          "viewOptionsButtonText" : "Visualizza le opzioni",
          "quantitySelectorLabel" : "QUANTITÀ",
          "subscriptionOptionsText" : "Opzioni di abbonamento disponibili"
        },
        "id" : "be091729-f519-491f-bc98-fdc8d8186aab"
      }, {
        "id" : "f4bc8a46-0aa3-41dd-a026-4117fddeb338",
        "attributes" : {
          "headerText" : "Acquista per categoria"
        }
      }, {
        "id" : "0bfcdfcd-0ef1-4cd3-aed5-60383ae7b3c5",
        "attributes" : {
          "richTextValue" : "<p><img src=\"{!cmsMedia.MC6VNZ55ODSJFWDEP7YBP25YRKSQ}\" alt=\"\"></p>"
        }
      } ]
    }
  },
  "urlName" : "category"
}