{
  "forgotPasswordRouteId" : "696f72ca-7552-414b-8dfc-e8d5fc3f0053",
  "isAvailableToGuests" : true,
  "isFilteredComponentsView" : true,
  "isProgressiveRenderingEnabled" : false,
  "loginAppPageId" : "48c43831-546a-4258-8ea1-4a4efb88e4b6",
  "mainAppPageId" : "57efa534-6679-4737-892e-03104a5cd637",
  "preferredDomain" : "none",
  "selfRegistrationRouteId" : "020881ac-efe7-497d-87c4-b169ada64d95",
  "type" : "site"
}