{
  "appPageId" : "d2dce9c2-624d-425f-b62f-516865c2bf61",
  "componentName" : "siteforce:sldsOneColLayout",
  "dataProviders" : [ ],
  "id" : "1525b2c6-0a9d-40b8-9198-2ec75ab1c200",
  "label" : "Related Record List",
  "regions" : [ {
    "id" : "7761d398-e231-4c4c-bf19-0c995070644b",
    "regionName" : "header",
    "type" : "region"
  }, {
    "components" : [ {
      "componentAttributes" : {
        "parentRecordId" : "{!parentRecordId}",
        "relatedListName" : "{!relatedListName}"
      },
      "componentName" : "forceCommunity:relatedList",
      "id" : "600ad840-5825-4ed6-b791-4533f94a3b86",
      "renderPriority" : "NEUTRAL",
      "renditionMap" : { },
      "type" : "component"
    } ],
    "id" : "ba6e6724-2306-41d3-b287-f580c23e4147",
    "regionName" : "content",
    "type" : "region"
  }, {
    "id" : "db2a1451-728a-48b5-a2d5-823d795f2d86",
    "regionName" : "footer",
    "type" : "region"
  } ],
  "themeLayoutType" : "Inner",
  "type" : "view",
  "viewType" : "relatedlist"
}