{
  "appPageId" : "7f298501-0bcb-49cf-9fb2-48395fb98f07",
  "componentName" : "siteforce:sldsOneColLayout",
  "dataProviders" : [ ],
  "id" : "3bd51ce2-8fce-4193-a565-a31ef913fcbc",
  "label" : "Account Management",
  "regions" : [ {
    "id" : "20ed2f66-4e35-4e26-ad6d-92b528ce314f",
    "regionName" : "header",
    "type" : "region"
  }, {
    "components" : [ {
      "componentAttributes" : {
        "richTextValue" : "             <h1 style=\"text-align: center;\">                 <b style=\"font-size: 20px; color: #1e2443;\">Account Management</b>             </h1>             "
      },
      "componentName" : "forceCommunity:richTextInline",
      "id" : "d9564655-267e-437d-a34a-00aaf5950097",
      "renderPriority" : "NEUTRAL",
      "renditionMap" : { },
      "type" : "component"
    }, {
      "componentAttributes" : {
        "tabsetConfig" : {
          "UUID" : "a996455d-0bbc-4019-8267-86f5e891b7e2",
          "activeTab" : "tab1",
          "tabs" : [ {
            "UUID" : "0d541dbb-043d-49a6-80c7-0f8f8fa8d706",
            "allowGuestUser" : false,
            "locked" : false,
            "seedComponents" : [ {
              "attributes" : {
                "customTitle" : "Members",
                "parentRecordId" : "{!CurrentUser.accountId}",
                "relatedListName" : "Users",
                "showBreadCrumbs" : "false",
                "showCustomTitle" : "true",
                "showManualRefreshButton" : "false",
                "showRowNumbers" : "false"
              },
              "fqn" : "forceCommunity:relatedList"
            } ],
            "tabKey" : "tab1",
            "tabName" : "Members"
          }, {
            "UUID" : "b753c596-c477-4595-ac70-a64e4de5f36b",
            "allowGuestUser" : false,
            "locked" : false,
            "seedComponents" : [ {
              "attributes" : {
                "recordId" : "{!CurrentUser.accountId}"
              },
              "fqn" : "forceCommunity:accountBrandRecord"
            } ],
            "tabKey" : "tab2",
            "tabName" : "Branding"
          } ],
          "useOverflowMenu" : false
        }
      },
      "componentName" : "forceCommunity:tabset",
      "id" : "a996455d-0bbc-4019-8267-86f5e891b7e2",
      "regions" : [ {
        "components" : [ {
          "componentAttributes" : {
            "customTitle" : "Members",
            "parentRecordId" : "{!CurrentUser.accountId}",
            "relatedListName" : "Users",
            "showBreadCrumbs" : false,
            "showCustomTitle" : true,
            "showManualRefreshButton" : false,
            "showRowNumbers" : false
          },
          "componentName" : "forceCommunity:relatedList",
          "id" : "88202da1-e67f-438c-be7d-779d46bc2ce8",
          "renditionMap" : { },
          "type" : "component"
        } ],
        "id" : "0d541dbb-043d-49a6-80c7-0f8f8fa8d706",
        "regionLabel" : "Members",
        "regionName" : "tab1",
        "renditionMap" : { },
        "type" : "region"
      }, {
        "components" : [ {
          "componentAttributes" : {
            "recordId" : "{!CurrentUser.accountId}"
          },
          "componentName" : "forceCommunity:accountBrandRecord",
          "id" : "530fb30c-2b45-463f-9086-5a3674fa73df",
          "renditionMap" : { },
          "type" : "component"
        } ],
        "id" : "b753c596-c477-4595-ac70-a64e4de5f36b",
        "regionLabel" : "Branding",
        "regionName" : "tab2",
        "renditionMap" : { },
        "type" : "region"
      } ],
      "renderPriority" : "NEUTRAL",
      "renditionMap" : { },
      "type" : "component"
    } ],
    "id" : "1edd6527-4265-4acc-b651-bdbc821acd19",
    "regionName" : "content",
    "type" : "region"
  }, {
    "id" : "875a5b06-64a6-4e58-be53-9bed050a2051",
    "regionName" : "footer",
    "type" : "region"
  }, {
    "components" : [ {
      "componentAttributes" : {
        "customHeadTags" : "",
        "description" : "",
        "title" : "Account Management"
      },
      "componentName" : "forceCommunity:seoAssistant",
      "id" : "766717b7-8bfb-4754-9c81-548bc2fa94c5",
      "renditionMap" : { },
      "type" : "component"
    } ],
    "id" : "8a3f0c3c-91d6-4c7c-a8ed-3bb4f782c0a2",
    "regionName" : "sfdcHiddenRegion",
    "type" : "region"
  } ],
  "themeLayoutType" : "Inner",
  "type" : "view",
  "viewType" : "account-management"
}