{
  "appPageId" : "7f298501-0bcb-49cf-9fb2-48395fb98f07",
  "componentName" : "siteforce:sldsOneColLayout",
  "dataProviders" : [ ],
  "id" : "4c860230-cfbd-42ab-9b42-5d20a5d23309",
  "label" : "Home",
  "regions" : [ {
    "id" : "1058937f-0016-485b-8b15-310d6f4917d9",
    "regionName" : "header",
    "type" : "region"
  }, {
    "components" : [ {
      "componentAttributes" : {
        "enableInlineEdit" : true,
        "filterName" : "My_Open_Targets",
        "layout" : "FULL",
        "pageSize" : 25,
        "scope" : "Lead",
        "showActionBar" : true,
        "showChartsPanel" : true,
        "showDisplay" : "showall",
        "showFilterPanel" : true,
        "showImageIcon" : true,
        "showManualRefreshButton" : true,
        "showObjectName" : true,
        "showPinnedList" : true,
        "showSearchBar" : true
      },
      "componentName" : "forceCommunity:objectHome",
      "id" : "07cca726-6cf2-4c6b-ac4e-1604db058c4a",
      "renderPriority" : "NEUTRAL",
      "renditionMap" : { },
      "type" : "component"
    } ],
    "id" : "7ba17dc9-7c29-4599-b71a-8e02f7404177",
    "regionName" : "content",
    "type" : "region"
  }, {
    "components" : [ {
      "componentAttributes" : {
        "actions" : [ {
          "isPublic" : true,
          "name" : "NewLead"
        }, {
          "isPublic" : true,
          "name" : "NewOpportunity"
        }, {
          "isPublic" : true,
          "name" : "NewTask"
        }, {
          "isPublic" : true,
          "name" : "NewCase"
        } ],
        "label" : "Quick Create"
      },
      "componentName" : "forceCommunity:createRecordButton",
      "id" : "b21d971e-d0ee-4623-856e-d68cf01c1d9b",
      "renderPriority" : "NEUTRAL",
      "renditionMap" : { },
      "type" : "component"
    } ],
    "id" : "84126191-d221-4ded-8e17-aa2e5c99b8f0",
    "regionName" : "sidebar",
    "type" : "region"
  }, {
    "id" : "7afdf563-0868-4fa8-a20f-8cea84c00e0c",
    "regionName" : "footer",
    "type" : "region"
  }, {
    "components" : [ {
      "componentAttributes" : {
        "customHeadTags" : "",
        "description" : "",
        "title" : "Home"
      },
      "componentName" : "forceCommunity:seoAssistant",
      "id" : "fbfd89dc-4027-49c5-8b37-6307ba044b60",
      "renditionMap" : { },
      "type" : "component"
    } ],
    "id" : "63a3d3c1-bc64-4750-9711-ebff5c81169d",
    "regionName" : "sfdcHiddenRegion",
    "type" : "region"
  } ],
  "themeLayoutType" : "Home",
  "type" : "view",
  "viewType" : "home"
}