{
  "appPageId" : "7f298501-0bcb-49cf-9fb2-48395fb98f07",
  "componentName" : "siteforce:sldsOneColLayout",
  "dataProviders" : [ ],
  "id" : "3e486984-3945-4297-a391-d83c1b0ce27f",
  "label" : "Pipeline Inspection",
  "regions" : [ {
    "id" : "c106edef-b8b8-4196-ab74-e6ef1b9d9b0b",
    "regionName" : "header",
    "type" : "region"
  }, {
    "id" : "2769b689-4407-4baa-a315-8abb5a0f5ffa",
    "regionName" : "content",
    "type" : "region"
  }, {
    "id" : "fd9de77d-7168-443e-aaf5-0f7bea935c80",
    "regionName" : "footer",
    "type" : "region"
  } ],
  "themeLayoutType" : "Inner",
  "type" : "view",
  "viewType" : "pipeline-inspection"
}