{
  "appPageId" : "7f298501-0bcb-49cf-9fb2-48395fb98f07",
  "componentName" : "siteforce:sldsOneColLayout",
  "dataProviders" : [ ],
  "id" : "00ec3789-6740-451d-aaf6-7188dd432331",
  "label" : "Report List",
  "regions" : [ {
    "id" : "53d74d6e-f984-4bc8-98ab-e4a83592980d",
    "regionName" : "header",
    "type" : "region"
  }, {
    "components" : [ {
      "componentAttributes" : { },
      "componentName" : "forceCommunity:reportList",
      "id" : "1c46a75e-50fe-4613-87f0-6c311316351e",
      "renderPriority" : "NEUTRAL",
      "renditionMap" : { },
      "type" : "component"
    } ],
    "id" : "56278125-2eb3-4494-8af7-2d9c15d4e766",
    "regionName" : "content",
    "type" : "region"
  }, {
    "id" : "55ced0c4-4c85-48f4-baac-e0aec2db50e1",
    "regionName" : "footer",
    "type" : "region"
  } ],
  "themeLayoutType" : "Inner",
  "type" : "view",
  "viewType" : "list-00O"
}