{
  "appPageId" : "7f298501-0bcb-49cf-9fb2-48395fb98f07",
  "componentName" : "siteforce:sldsTwoCol84Layout",
  "dataProviders" : [ ],
  "id" : "becaf244-e352-43ee-a515-1d13b978d957",
  "label" : "Resources",
  "regions" : [ {
    "id" : "9b9164db-d1df-4f4c-a494-f176521524d8",
    "regionName" : "header",
    "type" : "region"
  }, {
    "components" : [ {
      "componentAttributes" : {
        "librariesHeaderLabel" : "Libraries",
        "showWorkspaceImage" : true
      },
      "componentName" : "forceCommunity:workspacesList",
      "id" : "4f48ee72-b805-49d3-8516-c369758f48c3",
      "renderPriority" : "NEUTRAL",
      "renditionMap" : { },
      "type" : "component"
    } ],
    "id" : "d1bfe42f-cec5-4105-b423-0a3e0e517648",
    "regionName" : "content",
    "type" : "region"
  }, {
    "components" : [ {
      "componentAttributes" : {
        "title" : "Popular Now"
      },
      "componentName" : "forceChatter:recommendationsBig",
      "id" : "53493924-711a-4027-80c5-db09019ae43d",
      "renderPriority" : "NEUTRAL",
      "renditionMap" : { },
      "type" : "component"
    } ],
    "id" : "01f3662e-8c4e-4e88-bd73-ac572d14b5e1",
    "regionName" : "sidebar",
    "type" : "region"
  }, {
    "id" : "463ce248-cb14-4935-98f3-40212f9528db",
    "regionName" : "footer",
    "type" : "region"
  }, {
    "components" : [ {
      "componentAttributes" : {
        "customHeadTags" : "",
        "description" : "",
        "title" : "Resources"
      },
      "componentName" : "forceCommunity:seoAssistant",
      "id" : "41b03562-ec5f-4b90-a47c-6d264633b147",
      "renditionMap" : { },
      "type" : "component"
    } ],
    "id" : "f0afab9f-95db-4da4-8934-6be22772895e",
    "regionName" : "sfdcHiddenRegion",
    "type" : "region"
  } ],
  "themeLayoutType" : "Inner",
  "type" : "view",
  "viewType" : "files"
}