{
  "appPageId" : "7f298501-0bcb-49cf-9fb2-48395fb98f07",
  "componentName" : "siteforce:sldsOneColLayout",
  "dataProviders" : [ ],
  "id" : "b8a99e9c-7c2e-4b49-919d-366b5add484f",
  "label" : "Stream Related List",
  "regions" : [ {
    "id" : "0d94c2d8-49b1-4497-8d1f-53f7f201029a",
    "regionName" : "header",
    "type" : "region"
  }, {
    "id" : "6d6871db-9bdf-4b1b-b8f6-29c6dc9494c3",
    "regionName" : "content",
    "type" : "region"
  }, {
    "id" : "bfbff6e0-9404-4fc2-baa7-5af886856027",
    "regionName" : "footer",
    "type" : "region"
  } ],
  "themeLayoutType" : "Inner",
  "type" : "view",
  "viewType" : "relatedlist-0Fq"
}