{
  "activeViewId" : "9e70affd-04bb-4ecf-a7d1-1c405ed27a8d",
  "appPageId" : "57efa534-6679-4737-892e-03104a5cd637",
  "configurationTags" : [ ],
  "devName" : "Account_Management",
  "id" : "c506f2ea-2cc4-4c00-9df8-68b79d0a09a8",
  "label" : "Account Management",
  "routeType" : "account-management",
  "type" : "route",
  "urlPrefix" : "account-management"
}