{
  "activeViewId" : "ebc1fd3d-47c8-45b9-b7b2-967732b7de29",
  "appPageId" : "57efa534-6679-4737-892e-03104a5cd637",
  "configurationTags" : [ ],
  "devName" : "Case_Related_List",
  "id" : "2c1ad25a-692f-45d3-982a-aa6859669b90",
  "label" : "Case Related List",
  "routeType" : "relatedlist-500",
  "type" : "route",
  "urlPrefix" : "case"
}