{
  "activeViewId" : "257053fe-e1a1-4130-8c0f-23eadcbfbd23",
  "appPageId" : "57efa534-6679-4737-892e-03104a5cd637",
  "configurationTags" : [ ],
  "devName" : "Dashboard_List",
  "id" : "77d7a300-ab59-495c-8e19-b7e3ad16657a",
  "label" : "Dashboard List",
  "routeType" : "list-01Z",
  "type" : "route",
  "urlPrefix" : "dashboard"
}