{
  "activeViewId" : "9bd0f3b8-4520-4f04-86d8-db74c7719d43",
  "appPageId" : "57efa534-6679-4737-892e-03104a5cd637",
  "configurationTags" : [ ],
  "devName" : "Error",
  "id" : "1ff4cf4c-d6f0-4651-947e-a33fac153493",
  "label" : "Error",
  "pageAccess" : "UseParent",
  "routeType" : "error",
  "type" : "route",
  "urlPrefix" : "error"
}