{
  "activeViewId" : "57a301af-30a0-4c2a-a084-b2fa582e0cc4",
  "appPageId" : "57efa534-6679-4737-892e-03104a5cd637",
  "configurationTags" : [ ],
  "devName" : "Messages",
  "id" : "a4667c33-a470-49d1-9d68-76ea76ee00c9",
  "label" : "Messages",
  "routeType" : "messages",
  "type" : "route",
  "urlPrefix" : "messages"
}