{
  "activeViewId" : "3e349f1f-75bf-40a5-8328-c49b633f7bb6",
  "appPageId" : "57efa534-6679-4737-892e-03104a5cd637",
  "configurationTags" : [ ],
  "devName" : "Question_Detail",
  "id" : "047bc01e-5325-465e-a2b3-061f74cf89cb",
  "label" : "Question Detail",
  "routeType" : "feeditem",
  "type" : "route",
  "urlPrefix" : "question"
}