{
  "activeViewId" : "03c0e148-d762-4939-9162-68868a929efd",
  "appPageId" : "57efa534-6679-4737-892e-03104a5cd637",
  "configurationTags" : [ ],
  "devName" : "Quip_Docs_Related_List",
  "id" : "9cbff16a-6651-40df-8be4-5b40fa7b4d6e",
  "label" : "Quip Docs Related List",
  "pageAccess" : "UseParent",
  "routeType" : "extrelated-quip",
  "type" : "route",
  "urlPrefix" : "quip"
}