{
  "activeViewId" : "de65de42-5290-41c8-8886-06f453bbfcc0",
  "appPageId" : "57efa534-6679-4737-892e-03104a5cd637",
  "configurationTags" : [ ],
  "devName" : "Report_Builder",
  "id" : "ec82ea21-0162-46dd-9b73-0ce8ee1b713f",
  "label" : "Report Builder",
  "routeType" : "createreport",
  "type" : "route",
  "urlPrefix" : "createreport"
}